%!PS-Adobe-3.0 EPSF-3.0
%%DocumentNeededResources: font Helvetica
%%+ font Helvetica-Bold
%%+ font Helvetica-Oblique
%%+ font Helvetica-BoldOblique
%%+ font Symbol
%%Title: R Graphics Output
%%Creator: R Software
%%Pages: (atend)
%%BoundingBox: 0 0 576 432
%%EndComments
%%BeginProlog
/bp  { gs sRGB gs } def
% begin .ps.prolog
/gs  { gsave } bind def
/gr  { grestore } bind def
/ep  { showpage gr gr } bind def
/m   { moveto } bind def
/l  { rlineto } bind def
/np  { newpath } bind def
/cp  { closepath } bind def
/f   { fill } bind def
/o   { stroke } bind def
/c   { newpath 0 360 arc } bind def
/r   { 4 2 roll moveto 1 copy 3 -1 roll exch 0 exch rlineto 0 rlineto -1 mul 0 exch rlineto closepath } bind def
/p1  { stroke } bind def
/p2  { gsave bg fill grestore newpath } bind def
/p3  { gsave bg fill grestore stroke } bind def
/p6  { gsave bg eofill grestore newpath } bind def
/p7  { gsave bg eofill grestore stroke } bind def
/t   { 5 -2 roll moveto gsave rotate
       1 index stringwidth pop
       mul neg 0 rmoveto show grestore } bind def
/ta  { 4 -2 roll moveto gsave rotate show } bind def
/tb  { 2 -1 roll 0 rmoveto show } bind def
/cl  { grestore gsave newpath 3 index 3 index moveto 1 index
       4 -1 roll lineto  exch 1 index lineto lineto
       closepath clip newpath } bind def
/rgb { setrgbcolor } bind def
/s   { scalefont setfont } bind def
% end   .ps.prolog
/sRGB { [ /CIEBasedABC
          << /DecodeLMN
               [ { dup 0.03928 le
                        {12.92321 div}
                        {0.055 add 1.055 div 2.4 exp }
                     ifelse
                 } bind dup dup
               ]
             /MatrixLMN [0.412457 0.212673 0.019334
                         0.357576 0.715152 0.119192
                         0.180437 0.072175 0.950301]
             /WhitePoint [0.9505 1.0 1.0890]
           >>
         ] setcolorspace } bind def
/srgb { setcolor } bind def
%%IncludeResource: font Helvetica
/Helvetica findfont
dup length dict begin
  {1 index /FID ne {def} {pop pop} ifelse} forall
  /Encoding ISOLatin1Encoding def
  currentdict
  end
/Font1 exch definefont pop
%%IncludeResource: font Helvetica-Bold
/Helvetica-Bold findfont
dup length dict begin
  {1 index /FID ne {def} {pop pop} ifelse} forall
  /Encoding ISOLatin1Encoding def
  currentdict
  end
/Font2 exch definefont pop
%%IncludeResource: font Helvetica-Oblique
/Helvetica-Oblique findfont
dup length dict begin
  {1 index /FID ne {def} {pop pop} ifelse} forall
  /Encoding ISOLatin1Encoding def
  currentdict
  end
/Font3 exch definefont pop
%%IncludeResource: font Helvetica-BoldOblique
/Helvetica-BoldOblique findfont
dup length dict begin
  {1 index /FID ne {def} {pop pop} ifelse} forall
  /Encoding ISOLatin1Encoding def
  currentdict
  end
/Font4 exch definefont pop
%%IncludeResource: font Symbol
/Symbol findfont
dup length dict begin
  {1 index /FID ne {def} {pop pop} ifelse} forall
  currentdict
  end
/Font5 exch definefont pop
%%EndProlog
%%Page: 1 1
bp
124.80 62.40 560.40 416.40 cl
1 0 0 srgb
2.25 setlinewidth
[] 0 setdash
1 setlinecap
1 setlinejoin
10.00 setmiterlimit
np
140.93 403.29 m
44.82 -36.47 l
44.81 -18.24 l
44.82 -54.71 l
44.81 6.08 l
44.82 -97.25 l
44.81 -97.26 l
44.82 -29.93 l
44.81 6.88 l
44.82 -1.38 l
o
0.00 0.00 576.00 432.00 cl
0 0 0 srgb
0.75 setlinewidth
[] 0 setdash
1 setlinecap
1 setlinejoin
10.00 setmiterlimit
np
185.75 62.40 m
358.52 0 l
o
np
185.75 62.40 m
0 -15.60 l
o
np
275.38 62.40 m
0 -15.60 l
o
np
365.01 62.40 m
0 -15.60 l
o
np
454.64 62.40 m
0 -15.60 l
o
np
544.27 62.40 m
0 -15.60 l
o
/Font1 findfont 26 s
185.75 6.24 (2) .5 0 t
275.38 6.24 (4) .5 0 t
365.01 6.24 (6) .5 0 t
454.64 6.24 (8) .5 0 t
544.27 6.24 (10) .5 0 t
np
124.80 99.36 m
0 303.93 l
o
np
124.80 99.36 m
-15.60 0 l
o
np
124.80 160.15 m
-15.60 0 l
o
np
124.80 220.93 m
-15.60 0 l
o
np
124.80 281.72 m
-15.60 0 l
o
np
124.80 342.50 m
-15.60 0 l
o
np
124.80 403.29 m
-15.60 0 l
o
87.36 99.36 (0.95) .5 90 t
87.36 220.93 (0.97) .5 90 t
87.36 342.50 (0.99) .5 90 t
np
124.80 62.40 m
435.60 0 l
0 354.00 l
-435.60 0 l
0 -354.00 l
o
0.00 0.00 576.00 432.00 cl
/Font1 findfont 26 s
0 0 0 srgb
24.96 151.26 (Precision inde) 90 ta
-0.780 (x) tb gr
124.80 62.40 560.40 416.40 cl
1 0 0 srgb
2.25 setlinewidth
[] 0 setdash
1 setlinecap
1 setlinejoin
10.00 setmiterlimit
140.93 403.29 4.68 c p1
230.56 348.58 4.68 c p1
320.19 299.95 4.68 c p1
409.82 105.44 4.68 c p1
499.45 82.39 4.68 c p1
0 0 1 srgb
2.25 setlinewidth
[ 6.75 11.25] 0 setdash
np
140.93 403.29 m
44.82 -6.08 l
44.81 -12.16 l
44.82 -30.39 l
44.81 -18.24 l
44.82 -42.55 l
44.81 -18.23 l
44.82 -18.24 l
44.81 -12.15 l
44.82 -18.24 l
o
2.25 setlinewidth
[] 0 setdash
np
140.93 410.57 m
6.31 -10.92 l
-12.61 0 l
6.30 10.92 l
o
np
230.56 392.33 m
6.31 -10.92 l
-12.61 0 l
6.30 10.92 l
o
np
320.19 343.70 m
6.31 -10.91 l
-12.61 0 l
6.30 10.91 l
o
np
409.82 282.92 m
6.31 -10.92 l
-12.61 0 l
6.30 10.92 l
o
np
499.45 252.52 m
6.30 -10.91 l
-12.60 0 l
6.30 10.91 l
o
1 0 0 srgb
np
148.20 124.80 m
46.80 0 l
o
0 0 1 srgb
2.25 setlinewidth
[ 6.75 11.25] 0 setdash
np
148.20 93.60 m
46.80 0 l
o
/Font1 findfont 26 s
0 0 0 srgb
218.40 115.47 (P) 0 ta
-1.040 (aired k) tb gr
218.40 84.27 (Independent k) 0 0 t
ep
%%Trailer
%%Pages: 1
%%EOF
