%!PS-Adobe-3.0 EPSF-3.0
%%DocumentNeededResources: font Helvetica
%%+ font Helvetica-Bold
%%+ font Helvetica-Oblique
%%+ font Helvetica-BoldOblique
%%+ font Symbol
%%Title: R Graphics Output
%%Creator: R Software
%%Pages: (atend)
%%BoundingBox: 0 0 576 432
%%EndComments
%%BeginProlog
/bp  { gs sRGB gs } def
% begin .ps.prolog
/gs  { gsave } bind def
/gr  { grestore } bind def
/ep  { showpage gr gr } bind def
/m   { moveto } bind def
/l  { rlineto } bind def
/np  { newpath } bind def
/cp  { closepath } bind def
/f   { fill } bind def
/o   { stroke } bind def
/c   { newpath 0 360 arc } bind def
/r   { 4 2 roll moveto 1 copy 3 -1 roll exch 0 exch rlineto 0 rlineto -1 mul 0 exch rlineto closepath } bind def
/p1  { stroke } bind def
/p2  { gsave bg fill grestore newpath } bind def
/p3  { gsave bg fill grestore stroke } bind def
/p6  { gsave bg eofill grestore newpath } bind def
/p7  { gsave bg eofill grestore stroke } bind def
/t   { 5 -2 roll moveto gsave rotate
       1 index stringwidth pop
       mul neg 0 rmoveto show grestore } bind def
/ta  { 4 -2 roll moveto gsave rotate show } bind def
/tb  { 2 -1 roll 0 rmoveto show } bind def
/cl  { grestore gsave newpath 3 index 3 index moveto 1 index
       4 -1 roll lineto  exch 1 index lineto lineto
       closepath clip newpath } bind def
/rgb { setrgbcolor } bind def
/s   { scalefont setfont } bind def
% end   .ps.prolog
/sRGB { [ /CIEBasedABC
          << /DecodeLMN
               [ { dup 0.03928 le
                        {12.92321 div}
                        {0.055 add 1.055 div 2.4 exp }
                     ifelse
                 } bind dup dup
               ]
             /MatrixLMN [0.412457 0.212673 0.019334
                         0.357576 0.715152 0.119192
                         0.180437 0.072175 0.950301]
             /WhitePoint [0.9505 1.0 1.0890]
           >>
         ] setcolorspace } bind def
/srgb { setcolor } bind def
%%IncludeResource: font Helvetica
/Helvetica findfont
dup length dict begin
  {1 index /FID ne {def} {pop pop} ifelse} forall
  /Encoding ISOLatin1Encoding def
  currentdict
  end
/Font1 exch definefont pop
%%IncludeResource: font Helvetica-Bold
/Helvetica-Bold findfont
dup length dict begin
  {1 index /FID ne {def} {pop pop} ifelse} forall
  /Encoding ISOLatin1Encoding def
  currentdict
  end
/Font2 exch definefont pop
%%IncludeResource: font Helvetica-Oblique
/Helvetica-Oblique findfont
dup length dict begin
  {1 index /FID ne {def} {pop pop} ifelse} forall
  /Encoding ISOLatin1Encoding def
  currentdict
  end
/Font3 exch definefont pop
%%IncludeResource: font Helvetica-BoldOblique
/Helvetica-BoldOblique findfont
dup length dict begin
  {1 index /FID ne {def} {pop pop} ifelse} forall
  /Encoding ISOLatin1Encoding def
  currentdict
  end
/Font4 exch definefont pop
%%IncludeResource: font Symbol
/Symbol findfont
dup length dict begin
  {1 index /FID ne {def} {pop pop} ifelse} forall
  currentdict
  end
/Font5 exch definefont pop
%%EndProlog
%%Page: 1 1
bp
124.80 124.80 560.40 416.40 cl
1 0 0 srgb
0.75 setlinewidth
[] 0 setdash
1 setlinecap
1 setlinejoin
10.00 setmiterlimit
140.93 353.73 5.85 c p1
192.43 405.60 5.85 c p1
222.55 373.85 5.85 c p1
243.92 354.00 5.85 c p1
260.49 340.29 5.85 c p1
274.04 330.64 5.85 c p1
285.49 318.68 5.85 c p1
295.41 309.78 5.85 c p1
304.16 305.83 5.85 c p1
311.99 294.25 5.85 c p1
319.07 288.23 5.85 c p1
325.53 285.93 5.85 c p1
331.48 276.08 5.85 c p1
336.98 273.05 5.85 c p1
342.11 264.39 5.85 c p1
346.90 270.13 5.85 c p1
351.41 258.02 5.85 c p1
355.65 251.64 5.85 c p1
359.67 255.34 5.85 c p1
363.48 241.52 5.85 c p1
367.10 247.44 5.85 c p1
370.56 242.59 5.85 c p1
373.86 226.52 5.85 c p1
377.02 229.83 5.85 c p1
380.06 239.27 5.85 c p1
382.97 229.83 5.85 c p1
385.77 218.61 5.85 c p1
388.47 204.72 5.85 c p1
391.08 220.79 5.85 c p1
393.60 204.72 5.85 c p1
396.04 213.77 5.85 c p1
398.39 204.72 5.85 c p1
400.68 201.01 5.85 c p1
402.90 216.28 5.85 c p1
405.05 191.96 5.85 c p1
407.14 179.21 5.85 c p1
409.18 204.72 5.85 c p1
411.16 186.23 5.85 c p1
413.09 191.96 5.85 c p1
416.81 211.03 5.85 c p1
418.60 191.96 5.85 c p1
420.34 170.16 5.85 c p1
422.05 179.21 5.85 c p1
423.72 179.21 5.85 c p1
425.35 186.23 5.85 c p1
426.95 170.16 5.85 c p1
428.52 196.81 5.85 c p1
430.05 191.96 5.85 c p1
431.55 191.96 5.85 c p1
434.46 179.21 5.85 c p1
435.88 135.60 5.85 c p1
437.27 179.21 5.85 c p1
439.97 170.16 5.85 c p1
441.28 186.23 5.85 c p1
442.57 170.16 5.85 c p1
443.84 186.23 5.85 c p1
445.09 135.60 5.85 c p1
446.32 170.16 5.85 c p1
448.72 170.16 5.85 c p1
449.89 135.60 5.85 c p1
451.04 157.40 5.85 c p1
452.17 157.40 5.85 c p1
454.39 135.60 5.85 c p1
455.48 135.60 5.85 c p1
456.54 135.60 5.85 c p1
458.64 135.60 5.85 c p1
459.66 135.60 5.85 c p1
460.67 170.16 5.85 c p1
461.67 135.60 5.85 c p1
464.58 135.60 5.85 c p1
467.39 135.60 5.85 c p1
468.30 135.60 5.85 c p1
470.97 135.60 5.85 c p1
471.84 135.60 5.85 c p1
473.54 135.60 5.85 c p1
475.21 135.60 5.85 c p1
476.03 135.60 5.85 c p1
476.85 135.60 5.85 c p1
478.44 135.60 5.85 c p1
480.01 135.60 5.85 c p1
489.44 135.60 5.85 c p1
492.12 135.60 5.85 c p1
494.70 135.60 5.85 c p1
496.58 135.60 5.85 c p1
497.20 135.60 5.85 c p1
503.67 135.60 5.85 c p1
505.88 135.60 5.85 c p1
506.97 135.60 5.85 c p1
509.61 157.40 5.85 c p1
524.61 135.60 5.85 c p1
525.46 135.60 5.85 c p1
527.93 135.60 5.85 c p1
539.91 135.60 5.85 c p1
540.25 135.60 5.85 c p1
543.28 135.60 5.85 c p1
544.27 135.60 5.85 c p1
0.00 0.00 576.00 432.00 cl
0 0 0 srgb
0.75 setlinewidth
[] 0 setdash
1 setlinecap
1 setlinejoin
10.00 setmiterlimit
np
124.80 124.80 m
435.60 0 l
0 291.60 l
-435.60 0 l
0 -291.60 l
o
0.00 0.00 576.00 432.00 cl
/Font1 findfont 26 s
0 0 0 srgb
342.60 6.24 (Degree) .5 0 t
24.96 270.60 (Frequency) .5 90 t
124.80 124.80 560.40 416.40 cl
/bg { 0 0 1 srgb } def
0 0 1 srgb
0.75 setlinewidth
[] 0 setdash
1 setlinecap
1 setlinejoin
10.00 setmiterlimit
140.93 423.49 3.90 c p3
192.43 275.72 3.90 c p3
222.55 273.05 3.90 c p3
243.92 272.24 3.90 c p3
260.49 276.08 3.90 c p3
274.04 286.46 3.90 c p3
285.49 290.36 3.90 c p3
295.41 285.13 3.90 c p3
304.16 297.70 3.90 c p3
311.99 296.97 3.90 c p3
319.07 293.42 3.90 c p3
325.53 299.13 3.90 c p3
331.48 293.42 3.90 c p3
336.98 296.02 3.90 c p3
342.11 293.22 3.90 c p3
346.90 291.05 3.90 c p3
351.41 286.20 3.90 c p3
355.65 286.46 3.90 c p3
359.67 278.85 3.90 c p3
363.48 280.15 3.90 c p3
367.10 276.44 3.90 c p3
370.56 270.56 3.90 c p3
373.86 265.93 3.90 c p3
377.02 267.39 3.90 c p3
380.06 259.28 3.90 c p3
382.97 259.28 3.90 c p3
385.77 250.02 3.90 c p3
388.47 245.59 3.90 c p3
391.08 226.52 3.90 c p3
393.60 244.62 3.90 c p3
396.04 228.22 3.90 c p3
398.39 238.09 3.90 c p3
400.68 224.72 3.90 c p3
402.90 222.82 3.90 c p3
405.05 213.77 3.90 c p3
407.14 186.23 3.90 c p3
409.18 179.21 3.90 c p3
411.16 213.77 3.90 c p3
413.09 201.01 3.90 c p3
414.97 170.16 3.90 c p3
416.81 186.23 3.90 c p3
418.60 186.23 3.90 c p3
420.34 204.72 3.90 c p3
422.05 191.96 3.90 c p3
423.72 191.96 3.90 c p3
425.35 170.16 3.90 c p3
426.95 157.40 3.90 c p3
428.52 170.16 3.90 c p3
430.05 191.96 3.90 c p3
431.55 179.21 3.90 c p3
433.02 135.60 3.90 c p3
434.46 170.16 3.90 c p3
435.88 170.16 3.90 c p3
438.63 179.21 3.90 c p3
439.97 157.40 3.90 c p3
442.57 170.16 3.90 c p3
445.09 135.60 3.90 c p3
446.32 170.16 3.90 c p3
447.53 135.60 3.90 c p3
449.89 135.60 3.90 c p3
451.04 170.16 3.90 c p3
452.17 157.40 3.90 c p3
453.29 135.60 3.90 c p3
455.48 157.40 3.90 c p3
459.66 135.60 3.90 c p3
462.65 135.60 3.90 c p3
469.20 135.60 3.90 c p3
476.85 135.60 3.90 c p3
477.65 157.40 3.90 c p3
479.23 179.21 3.90 c p3
483.04 135.60 3.90 c p3
488.76 135.60 3.90 c p3
491.46 135.60 3.90 c p3
492.12 135.60 3.90 c p3
492.77 135.60 3.90 c p3
496.58 135.60 3.90 c p3
499.02 135.60 3.90 c p3
514.63 135.60 3.90 c p3
517.96 135.60 3.90 c p3
518.42 135.60 3.90 c p3
531.11 135.60 3.90 c p3
535.27 135.60 3.90 c p3
564.16 135.60 3.90 c p3
568.04 135.60 3.90 c p3
568.28 135.60 3.90 c p3
0.7451 0.7451 0.7451 srgb
2.25 setlinewidth
[ 6.75 11.25] 0 setdash
np
140.93 208.03 m
51.50 0 l
30.12 0 l
21.37 0 l
16.57 0 l
13.55 0 l
11.45 0 l
9.92 0 l
8.75 0 l
7.83 0 l
7.08 0 l
6.46 0 l
5.95 0 l
5.50 0 l
5.13 0 l
4.79 0 l
4.51 0 l
4.24 0 l
4.02 0 l
3.81 0 l
3.62 0 l
3.46 0 l
3.30 0 l
3.16 0 l
3.04 0 l
2.91 0 l
2.80 0 l
2.70 0 l
2.61 0 l
2.52 0 l
2.44 0 l
2.35 0 l
2.29 0 l
2.22 0 l
2.15 0 l
2.09 0 l
2.04 0 l
1.98 0 l
1.93 0 l
1.88 0 l
1.84 0 l
1.79 0 l
1.74 0 l
1.71 0 l
1.67 0 l
1.63 0 l
1.60 0 l
1.57 0 l
1.53 0 l
1.50 0 l
1.47 0 l
1.44 0 l
1.42 0 l
1.39 0 l
1.36 0 l
1.34 0 l
1.31 0 l
1.29 0 l
1.27 0 l
1.25 0 l
1.23 0 l
1.21 0 l
1.19 0 l
1.17 0 l
1.15 0 l
1.13 0 l
1.12 0 l
1.10 0 l
1.09 0 l
1.06 0 l
1.06 0 l
1.04 0 l
1.02 0 l
1.01 0 l
1.00 0 l
0.98 0 l
0.97 0 l
0.96 0 l
0.95 0 l
0.93 0 l
0.93 0 l
0.91 0 l
0.90 0 l
0.89 0 l
0.88 0 l
0.87 0 l
0.86 0 l
0.84 0 l
0.84 0 l
0.83 0 l
0.82 0 l
0.82 0 l
0.80 0 l
0.79 0 l
0.79 0 l
0.78 0 l
0.77 0 l
0.76 0 l
0.75 0 l
0.75 0 l
483.78 208.03 lineto
0.73 0 l
0.73 0 l
0.71 0 l
0.72 0 l
0.70 0 l
0.70 0 l
0.69 0 l
0.68 0 l
0.68 0 l
0.67 0 l
0.67 0 l
0.66 0 l
0.65 0 l
0.65 0 l
0.65 0 l
0.63 0 l
0.64 0 l
0.62 0 l
0.62 0 l
0.62 0 l
0.61 0 l
0.61 0 l
0.60 0 l
0.60 0 l
0.59 0 l
0.59 0 l
0.58 0 l
0.58 0 l
0.57 0 l
0.57 0 l
0.57 0 l
0.56 0 l
0.55 0 l
0.55 0 l
0.55 0 l
0.55 0 l
0.54 0 l
0.53 0 l
0.54 0 l
0.53 0 l
0.52 0 l
0.52 0 l
0.52 0 l
0.51 0 l
0.51 0 l
0.51 0 l
0.50 0 l
0.50 0 l
0.50 0 l
0.50 0 l
0.49 0 l
0.48 0 l
0.49 0 l
0.48 0 l
0.48 0 l
0.47 0 l
0.47 0 l
0.47 0 l
0.47 0 l
0.46 0 l
0.46 0 l
0.46 0 l
0.45 0 l
0.45 0 l
0.45 0 l
0.45 0 l
0.44 0 l
0.44 0 l
0.44 0 l
0.44 0 l
0.43 0 l
0.43 0 l
0.43 0 l
0.42 0 l
0.43 0 l
0.42 0 l
0.42 0 l
0.41 0 l
0.42 0 l
0.41 0 l
0.41 0 l
0.40 0 l
0.41 0 l
0.40 0 l
0.40 0 l
0.40 0 l
0.40 0 l
0.39 0 l
0.39 0 l
0.39 0 l
0.39 0 l
0.39 0 l
0.38 0 l
0.38 0 l
0.38 0 l
0.38 0 l
0.38 0 l
0.37 0 l
0.37 0 l
534.90 208.03 lineto
0.37 0 l
0.37 0 l
0.36 0 l
0.37 0 l
0.36 0 l
0.36 0 l
0.36 0 l
0.35 0 l
0.36 0 l
0.35 0 l
0.35 0 l
0.35 0 l
0.35 0 l
0.35 0 l
0.34 0 l
0.34 0 l
0.34 0 l
0.34 0 l
0.34 0 l
0.34 0 l
0.34 0 l
0.33 0 l
0.33 0 l
0.33 0 l
0.33 0 l
0.33 0 l
0.33 0 l
o
0.00 0.00 576.00 432.00 cl
0 0 0 srgb
0.75 setlinewidth
[] 0 setdash
1 setlinecap
1 setlinejoin
10.00 setmiterlimit
np
140.93 124.80 m
419.47 0 l
o
np
140.93 124.80 m
0 -15.60 l
o
np
311.99 124.80 m
0 -15.60 l
o
np
483.04 124.80 m
0 -15.60 l
o
/Font1 findfont 26 s
140.93 68.64 (1) .5 0 t
311.99 68.64 (10) .5 0 t
483.04 68.64 (100) .5 0 t
np
124.80 135.60 m
0 280.80 l
o
np
124.80 135.60 m
-15.60 0 l
o
np
124.80 208.03 m
-15.60 0 l
o
np
124.80 280.46 m
-15.60 0 l
o
np
124.80 352.89 m
-15.60 0 l
o
87.36 135.60 (1) .5 90 t
87.36 208.03 (10) .5 90 t
87.36 280.46 (100) .5 90 t
87.36 352.89 (1000) .5 90 t
124.80 124.80 560.40 416.40 cl
1 0 0 srgb
0.75 setlinewidth
[] 0 setdash
1 setlinecap
1 setlinejoin
10.00 setmiterlimit
np
340.47 385.20 m
46.80 0 l
o
0 0 1 srgb
np
340.47 354.00 m
46.80 0 l
o
1 0 0 srgb
363.87 385.20 5.85 c p1
/bg { 0 0 1 srgb } def
0 0 1 srgb
363.87 354.00 3.90 c p3
/Font1 findfont 26 s
0 0 0 srgb
410.67 375.87 (In-degree) 0 0 t
410.67 344.67 (Out-degree) 0 0 t
ep
%%Trailer
%%Pages: 1
%%EOF
