%!PS-Adobe-3.0 EPSF-3.0
%%DocumentNeededResources: font Helvetica
%%+ font Helvetica-Bold
%%+ font Helvetica-Oblique
%%+ font Helvetica-BoldOblique
%%+ font Symbol
%%Title: R Graphics Output
%%Creator: R Software
%%Pages: (atend)
%%BoundingBox: 0 0 576 432
%%EndComments
%%BeginProlog
/bp  { gs sRGB gs } def
% begin .ps.prolog
/gs  { gsave } bind def
/gr  { grestore } bind def
/ep  { showpage gr gr } bind def
/m   { moveto } bind def
/l  { rlineto } bind def
/np  { newpath } bind def
/cp  { closepath } bind def
/f   { fill } bind def
/o   { stroke } bind def
/c   { newpath 0 360 arc } bind def
/r   { 4 2 roll moveto 1 copy 3 -1 roll exch 0 exch rlineto 0 rlineto -1 mul 0 exch rlineto closepath } bind def
/p1  { stroke } bind def
/p2  { gsave bg fill grestore newpath } bind def
/p3  { gsave bg fill grestore stroke } bind def
/p6  { gsave bg eofill grestore newpath } bind def
/p7  { gsave bg eofill grestore stroke } bind def
/t   { 5 -2 roll moveto gsave rotate
       1 index stringwidth pop
       mul neg 0 rmoveto show grestore } bind def
/ta  { 4 -2 roll moveto gsave rotate show } bind def
/tb  { 2 -1 roll 0 rmoveto show } bind def
/cl  { grestore gsave newpath 3 index 3 index moveto 1 index
       4 -1 roll lineto  exch 1 index lineto lineto
       closepath clip newpath } bind def
/rgb { setrgbcolor } bind def
/s   { scalefont setfont } bind def
% end   .ps.prolog
/sRGB { [ /CIEBasedABC
          << /DecodeLMN
               [ { dup 0.03928 le
                        {12.92321 div}
                        {0.055 add 1.055 div 2.4 exp }
                     ifelse
                 } bind dup dup
               ]
             /MatrixLMN [0.412457 0.212673 0.019334
                         0.357576 0.715152 0.119192
                         0.180437 0.072175 0.950301]
             /WhitePoint [0.9505 1.0 1.0890]
           >>
         ] setcolorspace } bind def
/srgb { setcolor } bind def
%%IncludeResource: font Helvetica
/Helvetica findfont
dup length dict begin
  {1 index /FID ne {def} {pop pop} ifelse} forall
  /Encoding ISOLatin1Encoding def
  currentdict
  end
/Font1 exch definefont pop
%%IncludeResource: font Helvetica-Bold
/Helvetica-Bold findfont
dup length dict begin
  {1 index /FID ne {def} {pop pop} ifelse} forall
  /Encoding ISOLatin1Encoding def
  currentdict
  end
/Font2 exch definefont pop
%%IncludeResource: font Helvetica-Oblique
/Helvetica-Oblique findfont
dup length dict begin
  {1 index /FID ne {def} {pop pop} ifelse} forall
  /Encoding ISOLatin1Encoding def
  currentdict
  end
/Font3 exch definefont pop
%%IncludeResource: font Helvetica-BoldOblique
/Helvetica-BoldOblique findfont
dup length dict begin
  {1 index /FID ne {def} {pop pop} ifelse} forall
  /Encoding ISOLatin1Encoding def
  currentdict
  end
/Font4 exch definefont pop
%%IncludeResource: font Symbol
/Symbol findfont
dup length dict begin
  {1 index /FID ne {def} {pop pop} ifelse} forall
  currentdict
  end
/Font5 exch definefont pop
%%EndProlog
%%Page: 1 1
bp
124.80 62.40 560.40 416.40 cl
1 0 0 srgb
2.25 setlinewidth
[] 0 setdash
1 setlinecap
1 setlinejoin
10.00 setmiterlimit
np
140.93 75.51 m
44.82 14.06 l
44.81 4.27 l
44.82 1.52 l
44.81 1.42 l
44.82 1.60 l
44.81 0.38 l
44.82 2.29 l
44.81 0.91 l
44.82 0.47 l
o
0.00 0.00 576.00 432.00 cl
0 0 0 srgb
0.75 setlinewidth
[] 0 setdash
1 setlinecap
1 setlinejoin
10.00 setmiterlimit
np
185.75 62.40 m
358.52 0 l
o
np
185.75 62.40 m
0 -15.60 l
o
np
275.38 62.40 m
0 -15.60 l
o
np
365.01 62.40 m
0 -15.60 l
o
np
454.64 62.40 m
0 -15.60 l
o
np
544.27 62.40 m
0 -15.60 l
o
/Font1 findfont 26 s
185.75 6.24 (2) .5 0 t
275.38 6.24 (4) .5 0 t
365.01 6.24 (6) .5 0 t
454.64 6.24 (8) .5 0 t
544.27 6.24 (10) .5 0 t
np
124.80 75.51 m
0 283.03 l
o
np
124.80 75.51 m
-15.60 0 l
o
np
124.80 146.27 m
-15.60 0 l
o
np
124.80 217.02 m
-15.60 0 l
o
np
124.80 287.78 m
-15.60 0 l
o
np
124.80 358.54 m
-15.60 0 l
o
87.36 75.51 (0.00000) .5 90 t
87.36 217.02 (0.00010) .5 90 t
87.36 358.54 (0.00020) .5 90 t
np
124.80 62.40 m
435.60 0 l
0 354.00 l
-435.60 0 l
0 -354.00 l
o
0.00 0.00 576.00 432.00 cl
/Font1 findfont 26 s
0 0 0 srgb
24.96 123.09 (Closeness centr) 90 ta
-0.260 (ality) tb gr
124.80 62.40 560.40 416.40 cl
1 0 0 srgb
2.25 setlinewidth
[] 0 setdash
1 setlinecap
1 setlinejoin
10.00 setmiterlimit
140.93 75.51 4.68 c p1
230.56 93.84 4.68 c p1
320.19 96.78 4.68 c p1
409.82 98.76 4.68 c p1
499.45 101.96 4.68 c p1
0 0 1 srgb
2.25 setlinewidth
[ 6.75 11.25] 0 setdash
np
140.93 75.51 m
44.82 5.19 l
44.81 -0.81 l
44.82 2.39 l
44.81 2.80 l
44.82 -1.47 l
44.81 -0.01 l
44.82 -0.27 l
44.81 0.77 l
44.82 -0.39 l
o
2.25 setlinewidth
[] 0 setdash
np
140.93 82.79 m
6.31 -10.92 l
-12.61 0 l
6.30 10.92 l
o
np
230.56 87.17 m
6.31 -10.92 l
-12.61 0 l
6.30 10.92 l
o
np
320.19 92.36 m
6.31 -10.92 l
-12.61 0 l
6.30 10.92 l
o
np
409.82 90.88 m
6.31 -10.92 l
-12.61 0 l
6.30 10.92 l
o
np
499.45 91.38 m
6.30 -10.92 l
-12.60 0 l
6.30 10.92 l
o
0 0 0 srgb
2.25 setlinewidth
[ 0.00 9.00] 0 setdash
np
140.93 75.51 m
44.82 41.82 l
44.81 31.93 l
44.82 10.79 l
44.81 19.70 l
44.82 36.75 l
44.81 12.08 l
44.82 103.09 l
44.81 30.07 l
44.82 41.55 l
o
2.25 setlinewidth
[] 0 setdash
np
134.31 75.51 m
13.24 0 l
o
np
140.93 68.89 m
0 13.24 l
o
np
223.94 149.26 m
13.24 0 l
o
np
230.56 142.65 m
0 13.23 l
o
np
313.57 179.75 m
13.24 0 l
o
np
320.19 173.13 m
0 13.24 l
o
np
403.20 228.58 m
13.24 0 l
o
np
409.82 221.96 m
0 13.24 l
o
np
492.83 361.74 m
13.24 0 l
o
np
499.45 355.12 m
0 13.23 l
o
0 1 0 srgb
2.25 setlinewidth
[ 0.00 9.00 6.75 9.00] 0 setdash
np
140.93 75.51 m
44.82 16.95 l
44.81 -1.55 l
44.82 3.99 l
44.81 7.43 l
44.82 -4.93 l
44.81 0.03 l
44.82 -0.71 l
44.81 1.74 l
44.82 -0.92 l
o
2.25 setlinewidth
[] 0 setdash
np
136.25 70.83 m
9.36 9.36 l
o
np
136.25 80.19 m
9.36 -9.36 l
o
np
225.88 86.23 m
9.36 9.36 l
o
np
225.88 95.59 m
9.36 -9.36 l
o
np
315.51 97.65 m
9.36 9.36 l
o
np
315.51 107.01 m
9.36 -9.36 l
o
np
405.14 92.75 m
9.36 9.36 l
o
np
405.14 102.11 m
9.36 -9.36 l
o
np
494.77 93.78 m
9.36 9.36 l
o
np
494.77 103.14 m
9.36 -9.36 l
o
1 0 0 srgb
np
148.20 385.20 m
46.80 0 l
o
0 0 1 srgb
2.25 setlinewidth
[ 6.75 11.25] 0 setdash
np
148.20 354.00 m
46.80 0 l
o
0 0 0 srgb
2.25 setlinewidth
[ 0.00 9.00] 0 setdash
np
148.20 322.80 m
46.80 0 l
o
0 1 0 srgb
2.25 setlinewidth
[ 0.00 9.00 6.75 9.00] 0 setdash
np
148.20 291.60 m
46.80 0 l
o
/Font1 findfont 26 s
0 0 0 srgb
218.40 375.87 (P) 0 ta
-1.040 (aired k \(in\)) tb gr
218.40 344.67 (Indep) 0 ta
-0.910 (. k \(in\)) tb gr
218.40 313.47 (P) 0 ta
-1.040 (aired k \(out\)) tb gr
218.40 282.27 (Indep) 0 ta
-0.910 (. k \(out\)) tb gr
ep
%%Trailer
%%Pages: 1
%%EOF
