%!PS-Adobe-3.0 EPSF-3.0
%%DocumentNeededResources: font Helvetica
%%+ font Helvetica-Bold
%%+ font Helvetica-Oblique
%%+ font Helvetica-BoldOblique
%%+ font Symbol
%%Title: R Graphics Output
%%Creator: R Software
%%Pages: (atend)
%%BoundingBox: 0 0 576 432
%%EndComments
%%BeginProlog
/bp  { gs sRGB gs } def
% begin .ps.prolog
/gs  { gsave } bind def
/gr  { grestore } bind def
/ep  { showpage gr gr } bind def
/m   { moveto } bind def
/l  { rlineto } bind def
/np  { newpath } bind def
/cp  { closepath } bind def
/f   { fill } bind def
/o   { stroke } bind def
/c   { newpath 0 360 arc } bind def
/r   { 4 2 roll moveto 1 copy 3 -1 roll exch 0 exch rlineto 0 rlineto -1 mul 0 exch rlineto closepath } bind def
/p1  { stroke } bind def
/p2  { gsave bg fill grestore newpath } bind def
/p3  { gsave bg fill grestore stroke } bind def
/p6  { gsave bg eofill grestore newpath } bind def
/p7  { gsave bg eofill grestore stroke } bind def
/t   { 5 -2 roll moveto gsave rotate
       1 index stringwidth pop
       mul neg 0 rmoveto show grestore } bind def
/ta  { 4 -2 roll moveto gsave rotate show } bind def
/tb  { 2 -1 roll 0 rmoveto show } bind def
/cl  { grestore gsave newpath 3 index 3 index moveto 1 index
       4 -1 roll lineto  exch 1 index lineto lineto
       closepath clip newpath } bind def
/rgb { setrgbcolor } bind def
/s   { scalefont setfont } bind def
% end   .ps.prolog
/sRGB { [ /CIEBasedABC
          << /DecodeLMN
               [ { dup 0.03928 le
                        {12.92321 div}
                        {0.055 add 1.055 div 2.4 exp }
                     ifelse
                 } bind dup dup
               ]
             /MatrixLMN [0.412457 0.212673 0.019334
                         0.357576 0.715152 0.119192
                         0.180437 0.072175 0.950301]
             /WhitePoint [0.9505 1.0 1.0890]
           >>
         ] setcolorspace } bind def
/srgb { setcolor } bind def
%%IncludeResource: font Helvetica
/Helvetica findfont
dup length dict begin
  {1 index /FID ne {def} {pop pop} ifelse} forall
  /Encoding ISOLatin1Encoding def
  currentdict
  end
/Font1 exch definefont pop
%%IncludeResource: font Helvetica-Bold
/Helvetica-Bold findfont
dup length dict begin
  {1 index /FID ne {def} {pop pop} ifelse} forall
  /Encoding ISOLatin1Encoding def
  currentdict
  end
/Font2 exch definefont pop
%%IncludeResource: font Helvetica-Oblique
/Helvetica-Oblique findfont
dup length dict begin
  {1 index /FID ne {def} {pop pop} ifelse} forall
  /Encoding ISOLatin1Encoding def
  currentdict
  end
/Font3 exch definefont pop
%%IncludeResource: font Helvetica-BoldOblique
/Helvetica-BoldOblique findfont
dup length dict begin
  {1 index /FID ne {def} {pop pop} ifelse} forall
  /Encoding ISOLatin1Encoding def
  currentdict
  end
/Font4 exch definefont pop
%%IncludeResource: font Symbol
/Symbol findfont
dup length dict begin
  {1 index /FID ne {def} {pop pop} ifelse} forall
  currentdict
  end
/Font5 exch definefont pop
%%EndProlog
%%Page: 1 1
bp
124.80 62.40 560.40 416.40 cl
1 0 0 srgb
2.25 setlinewidth
[] 0 setdash
1 setlinecap
1 setlinejoin
10.00 setmiterlimit
np
140.93 403.29 m
44.82 -98.33 l
44.81 -65.56 l
44.82 -65.56 l
44.81 -32.77 l
44.82 0 l
44.81 0 l
44.82 98.33 l
44.81 -163.89 l
44.82 32.78 l
o
0.00 0.00 576.00 432.00 cl
0 0 0 srgb
0.75 setlinewidth
[] 0 setdash
1 setlinecap
1 setlinejoin
10.00 setmiterlimit
np
185.75 62.40 m
358.52 0 l
o
np
185.75 62.40 m
0 -15.60 l
o
np
275.38 62.40 m
0 -15.60 l
o
np
365.01 62.40 m
0 -15.60 l
o
np
454.64 62.40 m
0 -15.60 l
o
np
544.27 62.40 m
0 -15.60 l
o
/Font1 findfont 26 s
185.75 6.24 (2) .5 0 t
275.38 6.24 (4) .5 0 t
365.01 6.24 (6) .5 0 t
454.64 6.24 (8) .5 0 t
544.27 6.24 (10) .5 0 t
np
124.80 75.51 m
0 327.78 l
o
np
124.80 75.51 m
-15.60 0 l
o
np
124.80 141.07 m
-15.60 0 l
o
np
124.80 206.62 m
-15.60 0 l
o
np
124.80 272.18 m
-15.60 0 l
o
np
124.80 337.73 m
-15.60 0 l
o
np
124.80 403.29 m
-15.60 0 l
o
87.36 75.51 (10) .5 90 t
87.36 141.07 (12) .5 90 t
87.36 206.62 (14) .5 90 t
87.36 272.18 (16) .5 90 t
87.36 337.73 (18) .5 90 t
87.36 403.29 (20) .5 90 t
np
124.80 62.40 m
435.60 0 l
0 354.00 l
-435.60 0 l
0 -354.00 l
o
0.00 0.00 576.00 432.00 cl
/Font1 findfont 26 s
0 0 0 srgb
24.96 239.40 (Diameter) .5 90 t
124.80 62.40 560.40 416.40 cl
1 0 0 srgb
2.25 setlinewidth
[] 0 setdash
1 setlinecap
1 setlinejoin
10.00 setmiterlimit
140.93 403.29 4.68 c p1
230.56 239.40 4.68 c p1
320.19 141.07 4.68 c p1
409.82 141.07 4.68 c p1
499.45 75.51 4.68 c p1
0 0 1 srgb
2.25 setlinewidth
[ 6.75 11.25] 0 setdash
np
140.93 403.29 m
44.82 0 l
44.81 -32.78 l
44.82 0 l
44.81 -65.55 l
44.82 0 l
44.81 -32.78 l
44.82 0 l
44.81 -32.78 l
44.82 65.56 l
o
2.25 setlinewidth
[] 0 setdash
np
140.93 410.57 m
6.31 -10.92 l
-12.61 0 l
6.30 10.92 l
o
np
230.56 377.79 m
6.31 -10.92 l
-12.61 0 l
6.30 10.92 l
o
np
320.19 312.23 m
6.31 -10.91 l
-12.61 0 l
6.30 10.91 l
o
np
409.82 279.46 m
6.31 -10.92 l
-12.61 0 l
6.30 10.92 l
o
np
499.45 246.68 m
6.30 -10.92 l
-12.60 0 l
6.30 10.92 l
o
1 0 0 srgb
np
313.71 385.20 m
46.80 0 l
o
0 0 1 srgb
2.25 setlinewidth
[ 6.75 11.25] 0 setdash
np
313.71 354.00 m
46.80 0 l
o
/Font1 findfont 26 s
0 0 0 srgb
383.91 375.87 (P) 0 ta
-1.040 (aired k) tb gr
383.91 344.67 (Independent k) 0 0 t
ep
%%Trailer
%%Pages: 1
%%EOF
