%!PS-Adobe-3.0 EPSF-3.0
%%DocumentNeededResources: font Helvetica
%%+ font Helvetica-Bold
%%+ font Helvetica-Oblique
%%+ font Helvetica-BoldOblique
%%+ font Symbol
%%Title: R Graphics Output
%%Creator: R Software
%%Pages: (atend)
%%BoundingBox: 0 0 576 432
%%EndComments
%%BeginProlog
/bp  { gs sRGB gs } def
% begin .ps.prolog
/gs  { gsave } bind def
/gr  { grestore } bind def
/ep  { showpage gr gr } bind def
/m   { moveto } bind def
/l  { rlineto } bind def
/np  { newpath } bind def
/cp  { closepath } bind def
/f   { fill } bind def
/o   { stroke } bind def
/c   { newpath 0 360 arc } bind def
/r   { 4 2 roll moveto 1 copy 3 -1 roll exch 0 exch rlineto 0 rlineto -1 mul 0 exch rlineto closepath } bind def
/p1  { stroke } bind def
/p2  { gsave bg fill grestore newpath } bind def
/p3  { gsave bg fill grestore stroke } bind def
/p6  { gsave bg eofill grestore newpath } bind def
/p7  { gsave bg eofill grestore stroke } bind def
/t   { 5 -2 roll moveto gsave rotate
       1 index stringwidth pop
       mul neg 0 rmoveto show grestore } bind def
/ta  { 4 -2 roll moveto gsave rotate show } bind def
/tb  { 2 -1 roll 0 rmoveto show } bind def
/cl  { grestore gsave newpath 3 index 3 index moveto 1 index
       4 -1 roll lineto  exch 1 index lineto lineto
       closepath clip newpath } bind def
/rgb { setrgbcolor } bind def
/s   { scalefont setfont } bind def
% end   .ps.prolog
/sRGB { [ /CIEBasedABC
          << /DecodeLMN
               [ { dup 0.03928 le
                        {12.92321 div}
                        {0.055 add 1.055 div 2.4 exp }
                     ifelse
                 } bind dup dup
               ]
             /MatrixLMN [0.412457 0.212673 0.019334
                         0.357576 0.715152 0.119192
                         0.180437 0.072175 0.950301]
             /WhitePoint [0.9505 1.0 1.0890]
           >>
         ] setcolorspace } bind def
/srgb { setcolor } bind def
%%IncludeResource: font Helvetica
/Helvetica findfont
dup length dict begin
  {1 index /FID ne {def} {pop pop} ifelse} forall
  /Encoding ISOLatin1Encoding def
  currentdict
  end
/Font1 exch definefont pop
%%IncludeResource: font Helvetica-Bold
/Helvetica-Bold findfont
dup length dict begin
  {1 index /FID ne {def} {pop pop} ifelse} forall
  /Encoding ISOLatin1Encoding def
  currentdict
  end
/Font2 exch definefont pop
%%IncludeResource: font Helvetica-Oblique
/Helvetica-Oblique findfont
dup length dict begin
  {1 index /FID ne {def} {pop pop} ifelse} forall
  /Encoding ISOLatin1Encoding def
  currentdict
  end
/Font3 exch definefont pop
%%IncludeResource: font Helvetica-BoldOblique
/Helvetica-BoldOblique findfont
dup length dict begin
  {1 index /FID ne {def} {pop pop} ifelse} forall
  /Encoding ISOLatin1Encoding def
  currentdict
  end
/Font4 exch definefont pop
%%IncludeResource: font Symbol
/Symbol findfont
dup length dict begin
  {1 index /FID ne {def} {pop pop} ifelse} forall
  currentdict
  end
/Font5 exch definefont pop
%%EndProlog
%%Page: 1 1
bp
124.80 62.40 560.40 416.40 cl
1 0 0 srgb
2.25 setlinewidth
[] 0 setdash
1 setlinecap
1 setlinejoin
10.00 setmiterlimit
np
156.52 157.87 m
13.64 0.61 l
o
np
199.52 166.52 m
106.90 56.95 l
o
np
332.55 240.32 m
199.36 153.45 l
o
140.93 157.16 5.85 c p1
185.75 159.18 5.85 c p1
320.19 230.80 5.85 c p1
544.27 403.29 5.85 c p1
0.00 0.00 576.00 432.00 cl
0 0 0 srgb
0.75 setlinewidth
[] 0 setdash
1 setlinecap
1 setlinejoin
10.00 setmiterlimit
np
185.75 62.40 m
358.52 0 l
o
np
185.75 62.40 m
0 -15.60 l
o
np
275.38 62.40 m
0 -15.60 l
o
np
365.01 62.40 m
0 -15.60 l
o
np
454.64 62.40 m
0 -15.60 l
o
np
544.27 62.40 m
0 -15.60 l
o
/Font1 findfont 26 s
185.75 6.24 (20) .5 0 t
275.38 6.24 (40) .5 0 t
365.01 6.24 (60) .5 0 t
454.64 6.24 (80) .5 0 t
544.27 6.24 (100) .5 0 t
np
124.80 63.36 m
0 339.93 l
o
np
124.80 63.36 m
-15.60 0 l
o
np
124.80 131.34 m
-15.60 0 l
o
np
124.80 199.33 m
-15.60 0 l
o
np
124.80 267.32 m
-15.60 0 l
o
np
124.80 335.30 m
-15.60 0 l
o
np
124.80 403.29 m
-15.60 0 l
o
87.36 63.36 (0.0) .5 90 t
87.36 131.34 (0.2) .5 90 t
87.36 199.33 (0.4) .5 90 t
87.36 267.32 (0.6) .5 90 t
87.36 335.30 (0.8) .5 90 t
87.36 403.29 (1.0) .5 90 t
np
124.80 62.40 m
435.60 0 l
0 354.00 l
-435.60 0 l
0 -354.00 l
o
0.00 0.00 576.00 432.00 cl
/Font1 findfont 26 s
0 0 0 srgb
24.96 239.40 (Time \(%\)) .5 90 t
124.80 62.40 560.40 416.40 cl
0 0 1 srgb
2.25 setlinewidth
[ 6.75 11.25] 0 setdash
1 setlinecap
1 setlinejoin
10.00 setmiterlimit
np
155.87 80.00 m
14.94 4.48 l
o
np
199.53 96.27 m
106.88 56.60 l
o
np
330.76 171.64 m
202.93 220.18 l
o
2.25 setlinewidth
[] 0 setdash
np
140.93 84.61 m
7.88 -13.65 l
-15.76 0 l
7.88 13.65 l
o
np
185.75 98.07 m
7.88 -13.65 l
-15.76 0 l
7.88 13.65 l
o
np
320.19 169.27 m
7.88 -13.65 l
-15.76 0 l
7.88 13.65 l
o
np
544.27 412.39 m
7.88 -13.65 l
-15.76 0 l
7.88 13.65 l
o
0 0 0 srgb
2.25 setlinewidth
[ 0.00 9.00] 0 setdash
np
147.15 124.89 m
32.38 74.52 l
o
np
197.87 223.54 m
110.20 89.27 l
o
np
334.87 327.91 m
194.72 70.10 l
o
2.25 setlinewidth
[] 0 setdash
np
132.66 110.58 m
16.55 0 l
o
np
140.93 102.31 m
0 16.55 l
o
np
177.47 213.72 m
16.55 0 l
o
np
185.75 205.44 m
0 16.55 l
o
np
311.92 322.63 m
16.55 0 l
o
np
320.19 314.36 m
0 16.54 l
o
np
535.99 403.29 m
16.55 0 l
o
np
544.27 395.02 m
0 16.54 l
o
0 1 0 srgb
2.25 setlinewidth
[ 0.00 9.00 6.75 9.00] 0 setdash
np
153.72 130.45 m
19.24 13.45 l
o
np
198.95 161.14 m
108.04 67.94 l
o
np
332.73 246.67 m
199.00 147.34 l
o
2.25 setlinewidth
[] 0 setdash
np
135.08 115.66 m
11.70 11.70 l
o
np
135.08 127.36 m
11.70 -11.70 l
o
np
179.90 146.99 m
11.70 11.70 l
o
np
179.90 158.69 m
11.70 -11.70 l
o
np
314.34 231.54 m
11.70 11.70 l
o
np
314.34 243.24 m
11.70 -11.70 l
o
np
538.42 397.44 m
11.70 11.70 l
o
np
538.42 409.14 m
11.70 -11.70 l
o
1 0 0 srgb
np
374.11 187.20 m
46.80 0 l
o
0 0 1 srgb
2.25 setlinewidth
[ 6.75 11.25] 0 setdash
np
374.11 156.00 m
46.80 0 l
o
0 0 0 srgb
2.25 setlinewidth
[ 0.00 9.00] 0 setdash
np
374.11 124.80 m
46.80 0 l
o
0 1 0 srgb
2.25 setlinewidth
[ 0.00 9.00 6.75 9.00] 0 setdash
np
374.11 93.60 m
46.80 0 l
o
/Font1 findfont 26 s
0 0 0 srgb
444.31 177.87 (DBLP-P) 0 0 t
444.31 146.67 (DBLP-I) 0 0 t
444.31 115.47 (P) 0 ta
-1.300 (ok) tb
-0.520 (ec-C) tb gr
444.31 84.27 (P) 0 ta
-1.300 (ok) tb
-0.520 (ec-I) tb gr
ep
%%Trailer
%%Pages: 1
%%EOF
