%!PS-Adobe-3.0 EPSF-3.0
%%DocumentNeededResources: font Helvetica
%%+ font Helvetica-Bold
%%+ font Helvetica-Oblique
%%+ font Helvetica-BoldOblique
%%+ font Symbol
%%Title: R Graphics Output
%%Creator: R Software
%%Pages: (atend)
%%BoundingBox: 0 0 576 432
%%EndComments
%%BeginProlog
/bp  { gs sRGB gs } def
% begin .ps.prolog
/gs  { gsave } bind def
/gr  { grestore } bind def
/ep  { showpage gr gr } bind def
/m   { moveto } bind def
/l  { rlineto } bind def
/np  { newpath } bind def
/cp  { closepath } bind def
/f   { fill } bind def
/o   { stroke } bind def
/c   { newpath 0 360 arc } bind def
/r   { 4 2 roll moveto 1 copy 3 -1 roll exch 0 exch rlineto 0 rlineto -1 mul 0 exch rlineto closepath } bind def
/p1  { stroke } bind def
/p2  { gsave bg fill grestore newpath } bind def
/p3  { gsave bg fill grestore stroke } bind def
/p6  { gsave bg eofill grestore newpath } bind def
/p7  { gsave bg eofill grestore stroke } bind def
/t   { 5 -2 roll moveto gsave rotate
       1 index stringwidth pop
       mul neg 0 rmoveto show grestore } bind def
/ta  { 4 -2 roll moveto gsave rotate show } bind def
/tb  { 2 -1 roll 0 rmoveto show } bind def
/cl  { grestore gsave newpath 3 index 3 index moveto 1 index
       4 -1 roll lineto  exch 1 index lineto lineto
       closepath clip newpath } bind def
/rgb { setrgbcolor } bind def
/s   { scalefont setfont } bind def
% end   .ps.prolog
/sRGB { [ /CIEBasedABC
          << /DecodeLMN
               [ { dup 0.03928 le
                        {12.92321 div}
                        {0.055 add 1.055 div 2.4 exp }
                     ifelse
                 } bind dup dup
               ]
             /MatrixLMN [0.412457 0.212673 0.019334
                         0.357576 0.715152 0.119192
                         0.180437 0.072175 0.950301]
             /WhitePoint [0.9505 1.0 1.0890]
           >>
         ] setcolorspace } bind def
/srgb { setcolor } bind def
%%IncludeResource: font Helvetica
/Helvetica findfont
dup length dict begin
  {1 index /FID ne {def} {pop pop} ifelse} forall
  /Encoding ISOLatin1Encoding def
  currentdict
  end
/Font1 exch definefont pop
%%IncludeResource: font Helvetica-Bold
/Helvetica-Bold findfont
dup length dict begin
  {1 index /FID ne {def} {pop pop} ifelse} forall
  /Encoding ISOLatin1Encoding def
  currentdict
  end
/Font2 exch definefont pop
%%IncludeResource: font Helvetica-Oblique
/Helvetica-Oblique findfont
dup length dict begin
  {1 index /FID ne {def} {pop pop} ifelse} forall
  /Encoding ISOLatin1Encoding def
  currentdict
  end
/Font3 exch definefont pop
%%IncludeResource: font Helvetica-BoldOblique
/Helvetica-BoldOblique findfont
dup length dict begin
  {1 index /FID ne {def} {pop pop} ifelse} forall
  /Encoding ISOLatin1Encoding def
  currentdict
  end
/Font4 exch definefont pop
%%IncludeResource: font Symbol
/Symbol findfont
dup length dict begin
  {1 index /FID ne {def} {pop pop} ifelse} forall
  currentdict
  end
/Font5 exch definefont pop
%%EndProlog
%%Page: 1 1
bp
0.00 0.00 576.00 432.00 cl
0.4000 0.4000 1 srgb
0.75 setlinewidth
[] 0 setdash
1 setlinecap
1 setlinejoin
10.00 setmiterlimit
np
140.93 103.81 m
5.58 5.57 l
o
np
140.93 83.44 m
25.95 25.94 l
o
np
143.76 65.90 m
43.48 43.48 l
o
np
164.13 65.90 m
43.48 43.48 l
o
np
184.49 65.90 m
43.48 43.48 l
o
np
204.86 65.90 m
23.75 23.76 l
o
np
225.22 65.90 m
3.39 3.40 l
o
1 0.4000 0.4000 srgb
np
141.01 109.38 m
-0.08 0.08 l
o
np
146.10 109.38 m
-5.17 5.17 l
o
np
151.19 109.38 m
-5.96 5.97 l
o
np
156.29 109.38 m
-5.97 5.97 l
o
np
161.38 109.38 m
-5.97 5.97 l
o
np
166.47 109.38 m
-5.97 5.97 l
o
np
171.56 109.38 m
-5.97 5.97 l
o
np
176.65 109.38 m
-5.96 5.97 l
o
np
181.74 109.38 m
-5.96 5.97 l
o
np
186.83 109.38 m
-5.96 5.97 l
o
np
191.92 109.38 m
-5.96 5.97 l
o
np
197.02 109.38 m
-5.97 5.97 l
o
np
202.11 109.38 m
-5.97 5.97 l
o
np
207.20 109.38 m
-5.97 5.97 l
o
np
212.29 109.38 m
-5.97 5.97 l
o
np
217.38 109.38 m
-5.96 5.97 l
o
np
222.47 109.38 m
-5.96 5.97 l
o
np
227.56 109.38 m
-5.96 5.97 l
o
np
228.61 113.42 m
-1.92 1.93 l
o
0 0 0 srgb
np
141.40 115.35 m
0 0.48 l
o
np
142.12 115.35 m
0 0.48 l
o
np
142.84 115.35 m
0 0.48 l
o
np
143.56 115.35 m
0 0.48 l
o
np
144.28 115.35 m
0 0.48 l
o
np
145.00 115.35 m
0 0.48 l
o
np
145.72 115.35 m
0 0.48 l
o
np
146.44 115.35 m
0 0.48 l
o
np
147.16 115.35 m
0 0.48 l
o
np
147.88 115.35 m
0 0.48 l
o
np
148.60 115.35 m
0 0.48 l
o
np
149.32 115.35 m
0 0.48 l
o
np
150.04 115.35 m
0 0.48 l
o
np
150.76 115.35 m
0 0.48 l
o
np
151.48 115.35 m
0 0.48 l
o
np
152.20 115.35 m
0 0.48 l
o
np
152.92 115.35 m
0 0.48 l
o
np
153.64 115.35 m
0 0.48 l
o
np
154.36 115.35 m
0 0.48 l
o
np
155.08 115.35 m
0 0.48 l
o
np
155.80 115.35 m
0 0.48 l
o
np
156.52 115.35 m
0 0.48 l
o
np
157.24 115.35 m
0 0.48 l
o
np
157.96 115.35 m
0 0.48 l
o
np
158.68 115.35 m
0 0.48 l
o
np
159.40 115.35 m
0 0.48 l
o
np
160.12 115.35 m
0 0.48 l
o
np
160.84 115.35 m
0 0.48 l
o
np
161.56 115.35 m
0 0.48 l
o
np
162.28 115.35 m
0 0.48 l
o
np
163.00 115.35 m
0 0.48 l
o
np
163.72 115.35 m
0 0.48 l
o
np
164.44 115.35 m
0 0.48 l
o
np
165.16 115.35 m
0 0.48 l
o
np
165.88 115.35 m
0 0.48 l
o
np
166.60 115.35 m
0 0.48 l
o
np
167.32 115.35 m
0 0.48 l
o
np
168.04 115.35 m
0 0.48 l
o
np
168.76 115.35 m
0 0.48 l
o
np
169.48 115.35 m
0 0.48 l
o
np
170.20 115.35 m
0 0.48 l
o
np
170.92 115.35 m
0 0.48 l
o
np
171.64 115.35 m
0 0.48 l
o
np
172.36 115.35 m
0 0.48 l
o
np
173.08 115.35 m
0 0.48 l
o
np
173.80 115.35 m
0 0.48 l
o
np
174.52 115.35 m
0 0.48 l
o
np
175.24 115.35 m
0 0.48 l
o
np
175.96 115.35 m
0 0.48 l
o
np
176.68 115.35 m
0 0.48 l
o
np
177.40 115.35 m
0 0.48 l
o
np
178.12 115.35 m
0 0.48 l
o
np
178.84 115.35 m
0 0.48 l
o
np
179.56 115.35 m
0 0.48 l
o
np
180.28 115.35 m
0 0.48 l
o
np
181.00 115.35 m
0 0.48 l
o
np
181.72 115.35 m
0 0.48 l
o
np
182.44 115.35 m
0 0.48 l
o
np
183.16 115.35 m
0 0.48 l
o
np
183.88 115.35 m
0 0.48 l
o
np
184.60 115.35 m
0 0.48 l
o
np
185.32 115.35 m
0 0.48 l
o
np
186.04 115.35 m
0 0.48 l
o
np
186.76 115.35 m
0 0.48 l
o
np
187.48 115.35 m
0 0.48 l
o
np
188.20 115.35 m
0 0.48 l
o
np
188.92 115.35 m
0 0.48 l
o
np
189.64 115.35 m
0 0.48 l
o
np
190.36 115.35 m
0 0.48 l
o
np
191.08 115.35 m
0 0.48 l
o
np
191.80 115.35 m
0 0.48 l
o
np
192.52 115.35 m
0 0.48 l
o
np
193.24 115.35 m
0 0.48 l
o
np
193.96 115.35 m
0 0.48 l
o
np
194.68 115.35 m
0 0.48 l
o
np
195.40 115.35 m
0 0.48 l
o
np
196.12 115.35 m
0 0.48 l
o
np
196.84 115.35 m
0 0.48 l
o
np
197.56 115.35 m
0 0.48 l
o
np
198.28 115.35 m
0 0.48 l
o
np
199.00 115.35 m
0 0.48 l
o
np
199.72 115.35 m
0 0.48 l
o
np
200.44 115.35 m
0 0.48 l
o
np
201.16 115.35 m
0 0.48 l
o
np
201.88 115.35 m
0 0.48 l
o
np
202.60 115.35 m
0 0.48 l
o
np
203.32 115.35 m
0 0.48 l
o
np
204.04 115.35 m
0 0.48 l
o
np
204.76 115.35 m
0 0.48 l
o
np
205.48 115.35 m
0 0.48 l
o
np
206.20 115.35 m
0 0.48 l
o
np
206.92 115.35 m
0 0.48 l
o
np
207.64 115.35 m
0 0.48 l
o
np
208.36 115.35 m
0 0.48 l
o
np
209.08 115.35 m
0 0.48 l
o
np
209.80 115.35 m
0 0.48 l
o
np
210.52 115.35 m
0 0.48 l
o
np
211.24 115.35 m
0 0.48 l
o
np
211.96 115.35 m
0 0.48 l
o
np
212.68 115.35 m
0 0.48 l
o
np
213.40 115.35 m
0 0.48 l
o
np
214.12 115.35 m
0 0.48 l
o
np
214.84 115.35 m
0 0.48 l
o
np
215.56 115.35 m
0 0.48 l
o
np
216.28 115.35 m
0 0.48 l
o
np
217.00 115.35 m
0 0.48 l
o
np
217.72 115.35 m
0 0.48 l
o
np
218.44 115.35 m
0 0.48 l
o
np
219.16 115.35 m
0 0.48 l
o
np
219.88 115.35 m
0 0.48 l
o
np
220.60 115.35 m
0 0.48 l
o
np
221.32 115.35 m
0 0.48 l
o
np
222.04 115.35 m
0 0.48 l
o
np
222.76 115.35 m
0 0.48 l
o
np
223.48 115.35 m
0 0.48 l
o
np
224.20 115.35 m
0 0.48 l
o
np
224.92 115.35 m
0 0.48 l
o
np
225.64 115.35 m
0 0.48 l
o
np
226.36 115.35 m
0 0.48 l
o
np
227.08 115.35 m
0 0.48 l
o
np
227.80 115.35 m
0 0.48 l
o
np
228.52 115.35 m
0 0.48 l
o
np
140.93 65.90 m
87.68 0 l
0 43.48 l
-87.68 0 l
0 -43.48 l
o
np
140.93 109.38 m
87.68 0 l
0 5.97 l
-87.68 0 l
0 -5.97 l
o
np
140.93 115.35 m
87.68 0 l
0 0.48 l
-87.68 0 l
0 -0.48 l
o
0.4000 0.4000 1 srgb
np
246.15 147.93 m
7.97 7.97 l
o
np
246.15 127.56 m
28.33 28.34 l
o
np
246.15 107.20 m
48.70 48.70 l
o
np
246.15 86.84 m
69.06 69.06 l
o
np
246.15 66.47 m
87.68 87.68 l
o
np
265.95 65.90 m
67.88 67.89 l
o
np
286.31 65.90 m
47.52 47.52 l
o
np
306.68 65.90 m
27.15 27.16 l
o
np
327.04 65.90 m
6.79 6.79 l
o
1 0.4000 0.4000 srgb
np
247.23 155.90 m
-1.08 1.08 l
o
np
252.32 155.90 m
-6.17 6.17 l
o
np
257.41 155.90 m
-11.26 11.26 l
o
np
262.51 155.90 m
-16.36 16.35 l
o
np
267.60 155.90 m
-21.45 21.45 l
o
np
272.69 155.90 m
-26.11 26.11 l
o
np
277.78 155.90 m
-26.11 26.11 l
o
np
282.87 155.90 m
-26.11 26.11 l
o
np
287.96 155.90 m
-26.11 26.11 l
o
np
293.05 155.90 m
-26.11 26.11 l
o
np
298.14 155.90 m
-26.11 26.11 l
o
np
303.24 155.90 m
-26.11 26.11 l
o
np
308.33 155.90 m
-26.11 26.11 l
o
np
313.42 155.90 m
-26.11 26.11 l
o
np
318.51 155.90 m
-26.11 26.11 l
o
np
323.60 155.90 m
-26.11 26.11 l
o
np
328.69 155.90 m
-26.11 26.11 l
o
np
333.78 155.90 m
-26.11 26.11 l
o
np
333.83 160.94 m
-21.07 21.07 l
o
np
333.83 166.03 m
-15.98 15.98 l
o
np
333.83 171.12 m
-10.88 10.89 l
o
np
333.83 176.21 m
-5.79 5.80 l
o
np
333.83 181.30 m
-0.70 0.71 l
o
0 0 0 srgb
np
246.52 182.01 m
0 1.39 l
o
np
247.24 182.01 m
0 1.39 l
o
np
247.96 182.01 m
0 1.39 l
o
np
248.68 182.01 m
0 1.39 l
o
np
249.40 182.01 m
0 1.39 l
o
np
250.12 182.01 m
0 1.39 l
o
np
250.84 182.01 m
0 1.39 l
o
np
251.56 182.01 m
0 1.39 l
o
np
252.28 182.01 m
0 1.39 l
o
np
253.00 182.01 m
0 1.39 l
o
np
253.72 182.01 m
0 1.39 l
o
np
254.44 182.01 m
0 1.39 l
o
np
255.16 182.01 m
0 1.39 l
o
np
255.88 182.01 m
0 1.39 l
o
np
256.60 182.01 m
0 1.39 l
o
np
257.32 182.01 m
0 1.39 l
o
np
258.04 182.01 m
0 1.39 l
o
np
258.76 182.01 m
0 1.39 l
o
np
259.48 182.01 m
0 1.39 l
o
np
260.20 182.01 m
0 1.39 l
o
np
260.92 182.01 m
0 1.39 l
o
np
261.64 182.01 m
0 1.39 l
o
np
262.36 182.01 m
0 1.39 l
o
np
263.08 182.01 m
0 1.39 l
o
np
263.80 182.01 m
0 1.39 l
o
np
264.52 182.01 m
0 1.39 l
o
np
265.24 182.01 m
0 1.39 l
o
np
265.96 182.01 m
0 1.39 l
o
np
266.68 182.01 m
0 1.39 l
o
np
267.40 182.01 m
0 1.39 l
o
np
268.12 182.01 m
0 1.39 l
o
np
268.84 182.01 m
0 1.39 l
o
np
269.56 182.01 m
0 1.39 l
o
np
270.28 182.01 m
0 1.39 l
o
np
271.00 182.01 m
0 1.39 l
o
np
271.72 182.01 m
0 1.39 l
o
np
272.44 182.01 m
0 1.39 l
o
np
273.16 182.01 m
0 1.39 l
o
np
273.88 182.01 m
0 1.39 l
o
np
274.60 182.01 m
0 1.39 l
o
np
275.32 182.01 m
0 1.39 l
o
np
276.04 182.01 m
0 1.39 l
o
np
276.76 182.01 m
0 1.39 l
o
np
277.48 182.01 m
0 1.39 l
o
np
278.20 182.01 m
0 1.39 l
o
np
278.92 182.01 m
0 1.39 l
o
np
279.64 182.01 m
0 1.39 l
o
np
280.36 182.01 m
0 1.39 l
o
np
281.08 182.01 m
0 1.39 l
o
np
281.80 182.01 m
0 1.39 l
o
np
282.52 182.01 m
0 1.39 l
o
np
283.24 182.01 m
0 1.39 l
o
np
283.96 182.01 m
0 1.39 l
o
np
284.68 182.01 m
0 1.39 l
o
np
285.40 182.01 m
0 1.39 l
o
np
286.12 182.01 m
0 1.39 l
o
np
286.84 182.01 m
0 1.39 l
o
np
287.56 182.01 m
0 1.39 l
o
np
288.28 182.01 m
0 1.39 l
o
np
289.00 182.01 m
0 1.39 l
o
np
289.72 182.01 m
0 1.39 l
o
np
290.44 182.01 m
0 1.39 l
o
np
291.16 182.01 m
0 1.39 l
o
np
291.88 182.01 m
0 1.39 l
o
np
292.60 182.01 m
0 1.39 l
o
np
293.32 182.01 m
0 1.39 l
o
np
294.04 182.01 m
0 1.39 l
o
np
294.76 182.01 m
0 1.39 l
o
np
295.48 182.01 m
0 1.39 l
o
np
296.20 182.01 m
0 1.39 l
o
np
296.92 182.01 m
0 1.39 l
o
np
297.64 182.01 m
0 1.39 l
o
np
298.36 182.01 m
0 1.39 l
o
np
299.08 182.01 m
0 1.39 l
o
np
299.80 182.01 m
0 1.39 l
o
np
300.52 182.01 m
0 1.39 l
o
np
301.24 182.01 m
0 1.39 l
o
np
301.96 182.01 m
0 1.39 l
o
np
302.68 182.01 m
0 1.39 l
o
np
303.40 182.01 m
0 1.39 l
o
np
304.12 182.01 m
0 1.39 l
o
np
304.84 182.01 m
0 1.39 l
o
np
305.56 182.01 m
0 1.39 l
o
np
306.28 182.01 m
0 1.39 l
o
np
307.00 182.01 m
0 1.39 l
o
np
307.72 182.01 m
0 1.39 l
o
np
308.44 182.01 m
0 1.39 l
o
np
309.16 182.01 m
0 1.39 l
o
np
309.88 182.01 m
0 1.39 l
o
np
310.60 182.01 m
0 1.39 l
o
np
311.32 182.01 m
0 1.39 l
o
np
312.04 182.01 m
0 1.39 l
o
np
312.76 182.01 m
0 1.39 l
o
np
313.48 182.01 m
0 1.39 l
o
np
314.20 182.01 m
0 1.39 l
o
np
314.92 182.01 m
0 1.39 l
o
np
315.64 182.01 m
0 1.39 l
o
np
316.36 182.01 m
0 1.39 l
o
np
317.08 182.01 m
0 1.39 l
o
np
317.80 182.01 m
0 1.39 l
o
np
318.52 182.01 m
0 1.39 l
o
np
319.24 182.01 m
0 1.39 l
o
np
319.96 182.01 m
0 1.39 l
o
np
320.68 182.01 m
0 1.39 l
o
np
321.40 182.01 m
0 1.39 l
o
np
322.12 182.01 m
0 1.39 l
o
np
322.84 182.01 m
0 1.39 l
o
np
323.56 182.01 m
0 1.39 l
o
np
324.28 182.01 m
0 1.39 l
o
np
325.00 182.01 m
0 1.39 l
o
np
325.72 182.01 m
0 1.39 l
o
np
326.44 182.01 m
0 1.39 l
o
np
327.16 182.01 m
0 1.39 l
o
np
327.88 182.01 m
0 1.39 l
o
np
328.60 182.01 m
0 1.39 l
o
np
329.32 182.01 m
0 1.39 l
o
np
330.04 182.01 m
0 1.39 l
o
np
330.76 182.01 m
0 1.39 l
o
np
331.48 182.01 m
0 1.39 l
o
np
332.20 182.01 m
0 1.39 l
o
np
332.92 182.01 m
0 1.39 l
o
np
333.64 182.01 m
0 1.39 l
o
np
246.15 65.90 m
87.68 0 l
0 90.00 l
-87.68 0 l
0 -90.00 l
o
np
246.15 155.90 m
87.68 0 l
0 26.11 l
-87.68 0 l
0 -26.11 l
o
np
246.15 182.01 m
87.68 0 l
0 1.39 l
-87.68 0 l
0 -1.39 l
o
0.4000 0.4000 1 srgb
np
351.37 232.78 m
0.61 0.61 l
o
np
351.37 212.42 m
20.97 20.97 l
o
np
351.37 192.05 m
41.34 41.34 l
o
np
351.37 171.69 m
61.70 61.70 l
o
np
351.37 151.32 m
82.07 82.07 l
o
np
351.37 130.96 m
87.68 87.68 l
o
np
351.37 110.59 m
87.68 87.69 l
o
np
351.37 90.23 m
87.68 87.68 l
o
np
351.37 69.86 m
87.68 87.69 l
o
np
367.77 65.90 m
71.28 71.28 l
o
np
388.14 65.90 m
50.91 50.92 l
o
np
408.50 65.90 m
30.55 30.55 l
o
np
428.87 65.90 m
10.18 10.19 l
o
1 0.4000 0.4000 srgb
np
353.02 233.39 m
-1.65 1.66 l
o
np
358.11 233.39 m
-6.74 6.75 l
o
np
363.20 233.39 m
-11.83 11.84 l
o
np
368.30 233.39 m
-16.93 16.93 l
o
np
373.39 233.39 m
-22.02 22.02 l
o
np
378.48 233.39 m
-27.11 27.11 l
o
np
383.57 233.39 m
-32.20 32.20 l
o
np
388.66 233.39 m
-37.29 37.29 l
o
np
393.75 233.39 m
-42.38 42.38 l
o
np
398.84 233.39 m
-45.85 45.85 l
o
np
403.93 233.39 m
-45.85 45.85 l
o
np
409.02 233.39 m
-45.85 45.85 l
o
np
414.12 233.39 m
-45.85 45.85 l
o
np
419.21 233.39 m
-45.85 45.85 l
o
np
424.30 233.39 m
-45.85 45.85 l
o
np
429.39 233.39 m
-45.85 45.85 l
o
np
434.48 233.39 m
-45.85 45.85 l
o
np
439.05 233.91 m
-45.33 45.33 l
o
np
439.05 239.00 m
-40.24 40.24 l
o
np
439.05 244.10 m
-35.15 35.14 l
o
np
439.05 249.19 m
-30.05 30.05 l
o
np
439.05 254.28 m
-24.96 24.96 l
o
np
439.05 259.37 m
-19.87 19.87 l
o
np
439.05 264.46 m
-14.78 14.78 l
o
np
439.05 269.55 m
-9.69 9.69 l
o
np
439.05 274.64 m
-4.60 4.60 l
o
0 0 0 srgb
np
351.64 279.24 m
0 2.42 l
o
np
352.36 279.24 m
0 2.42 l
o
np
353.08 279.24 m
0 2.42 l
o
np
353.80 279.24 m
0 2.42 l
o
np
354.52 279.24 m
0 2.42 l
o
np
355.24 279.24 m
0 2.42 l
o
np
355.96 279.24 m
0 2.42 l
o
np
356.68 279.24 m
0 2.42 l
o
np
357.40 279.24 m
0 2.42 l
o
np
358.12 279.24 m
0 2.42 l
o
np
358.84 279.24 m
0 2.42 l
o
np
359.56 279.24 m
0 2.42 l
o
np
360.28 279.24 m
0 2.42 l
o
np
361.00 279.24 m
0 2.42 l
o
np
361.72 279.24 m
0 2.42 l
o
np
362.44 279.24 m
0 2.42 l
o
np
363.16 279.24 m
0 2.42 l
o
np
363.88 279.24 m
0 2.42 l
o
np
364.60 279.24 m
0 2.42 l
o
np
365.32 279.24 m
0 2.42 l
o
np
366.04 279.24 m
0 2.42 l
o
np
366.76 279.24 m
0 2.42 l
o
np
367.48 279.24 m
0 2.42 l
o
np
368.20 279.24 m
0 2.42 l
o
np
368.92 279.24 m
0 2.42 l
o
np
369.64 279.24 m
0 2.42 l
o
np
370.36 279.24 m
0 2.42 l
o
np
371.08 279.24 m
0 2.42 l
o
np
371.80 279.24 m
0 2.42 l
o
np
372.52 279.24 m
0 2.42 l
o
np
373.24 279.24 m
0 2.42 l
o
np
373.96 279.24 m
0 2.42 l
o
np
374.68 279.24 m
0 2.42 l
o
np
375.40 279.24 m
0 2.42 l
o
np
376.12 279.24 m
0 2.42 l
o
np
376.84 279.24 m
0 2.42 l
o
np
377.56 279.24 m
0 2.42 l
o
np
378.28 279.24 m
0 2.42 l
o
np
379.00 279.24 m
0 2.42 l
o
np
379.72 279.24 m
0 2.42 l
o
np
380.44 279.24 m
0 2.42 l
o
np
381.16 279.24 m
0 2.42 l
o
np
381.88 279.24 m
0 2.42 l
o
np
382.60 279.24 m
0 2.42 l
o
np
383.32 279.24 m
0 2.42 l
o
np
384.04 279.24 m
0 2.42 l
o
np
384.76 279.24 m
0 2.42 l
o
np
385.48 279.24 m
0 2.42 l
o
np
386.20 279.24 m
0 2.42 l
o
np
386.92 279.24 m
0 2.42 l
o
np
387.64 279.24 m
0 2.42 l
o
np
388.36 279.24 m
0 2.42 l
o
np
389.08 279.24 m
0 2.42 l
o
np
389.80 279.24 m
0 2.42 l
o
np
390.52 279.24 m
0 2.42 l
o
np
391.24 279.24 m
0 2.42 l
o
np
391.96 279.24 m
0 2.42 l
o
np
392.68 279.24 m
0 2.42 l
o
np
393.40 279.24 m
0 2.42 l
o
np
394.12 279.24 m
0 2.42 l
o
np
394.84 279.24 m
0 2.42 l
o
np
395.56 279.24 m
0 2.42 l
o
np
396.28 279.24 m
0 2.42 l
o
np
397.00 279.24 m
0 2.42 l
o
np
397.72 279.24 m
0 2.42 l
o
np
398.44 279.24 m
0 2.42 l
o
np
399.16 279.24 m
0 2.42 l
o
np
399.88 279.24 m
0 2.42 l
o
np
400.60 279.24 m
0 2.42 l
o
np
401.32 279.24 m
0 2.42 l
o
np
402.04 279.24 m
0 2.42 l
o
np
402.76 279.24 m
0 2.42 l
o
np
403.48 279.24 m
0 2.42 l
o
np
404.20 279.24 m
0 2.42 l
o
np
404.92 279.24 m
0 2.42 l
o
np
405.64 279.24 m
0 2.42 l
o
np
406.36 279.24 m
0 2.42 l
o
np
407.08 279.24 m
0 2.42 l
o
np
407.80 279.24 m
0 2.42 l
o
np
408.52 279.24 m
0 2.42 l
o
np
409.24 279.24 m
0 2.42 l
o
np
409.96 279.24 m
0 2.42 l
o
np
410.68 279.24 m
0 2.42 l
o
np
411.40 279.24 m
0 2.42 l
o
np
412.12 279.24 m
0 2.42 l
o
np
412.84 279.24 m
0 2.42 l
o
np
413.56 279.24 m
0 2.42 l
o
np
414.28 279.24 m
0 2.42 l
o
np
415.00 279.24 m
0 2.42 l
o
np
415.72 279.24 m
0 2.42 l
o
np
416.44 279.24 m
0 2.42 l
o
np
417.16 279.24 m
0 2.42 l
o
np
417.88 279.24 m
0 2.42 l
o
np
418.60 279.24 m
0 2.42 l
o
np
419.32 279.24 m
0 2.42 l
o
np
420.04 279.24 m
0 2.42 l
o
np
420.76 279.24 m
0 2.42 l
o
np
421.48 279.24 m
0 2.42 l
o
np
422.20 279.24 m
0 2.42 l
o
np
422.92 279.24 m
0 2.42 l
o
np
423.64 279.24 m
0 2.42 l
o
np
424.36 279.24 m
0 2.42 l
o
np
425.08 279.24 m
0 2.42 l
o
np
425.80 279.24 m
0 2.42 l
o
np
426.52 279.24 m
0 2.42 l
o
np
427.24 279.24 m
0 2.42 l
o
np
427.96 279.24 m
0 2.42 l
o
np
428.68 279.24 m
0 2.42 l
o
np
429.40 279.24 m
0 2.42 l
o
np
430.12 279.24 m
0 2.42 l
o
np
430.84 279.24 m
0 2.42 l
o
np
431.56 279.24 m
0 2.42 l
o
np
432.28 279.24 m
0 2.42 l
o
np
433.00 279.24 m
0 2.42 l
o
np
433.72 279.24 m
0 2.42 l
o
np
434.44 279.24 m
0 2.42 l
o
np
435.16 279.24 m
0 2.42 l
o
np
435.88 279.24 m
0 2.42 l
o
np
436.60 279.24 m
0 2.42 l
o
np
437.32 279.24 m
0 2.42 l
o
np
438.04 279.24 m
0 2.42 l
o
np
438.76 279.24 m
0 2.42 l
o
np
351.37 65.90 m
87.68 0 l
0 167.49 l
-87.68 0 l
0 -167.49 l
o
np
351.37 233.39 m
87.68 0 l
0 45.85 l
-87.68 0 l
0 -45.85 l
o
np
351.37 279.24 m
87.68 0 l
0 2.42 l
-87.68 0 l
0 -2.42 l
o
0.4000 0.4000 1 srgb
np
456.59 317.63 m
20.29 20.30 l
o
np
456.59 297.27 m
40.66 40.66 l
o
np
456.59 276.91 m
61.02 61.02 l
o
np
456.59 256.54 m
81.38 81.39 l
o
np
456.59 236.18 m
87.68 87.68 l
o
np
456.59 215.81 m
87.68 87.68 l
o
np
456.59 195.45 m
87.68 87.68 l
o
np
456.59 175.08 m
87.68 87.68 l
o
np
456.59 154.72 m
87.68 87.68 l
o
np
456.59 134.35 m
87.68 87.68 l
o
np
456.59 113.99 m
87.68 87.68 l
o
np
456.59 93.62 m
87.68 87.68 l
o
np
456.59 73.26 m
87.68 87.68 l
o
np
469.60 65.90 m
74.67 74.68 l
o
np
489.96 65.90 m
54.31 54.31 l
o
np
510.33 65.90 m
33.94 33.95 l
o
np
530.69 65.90 m
13.58 13.58 l
o
1 0.4000 0.4000 srgb
np
457.22 337.93 m
-0.63 0.64 l
o
np
462.31 337.93 m
-5.72 5.73 l
o
np
467.40 337.93 m
-10.81 10.82 l
o
np
472.49 337.93 m
-15.90 15.91 l
o
np
477.59 337.93 m
-21.00 21.00 l
o
np
482.68 337.93 m
-26.09 26.09 l
o
np
487.77 337.93 m
-31.18 31.18 l
o
np
492.86 337.93 m
-36.27 36.27 l
o
np
497.95 337.93 m
-41.36 41.36 l
o
np
503.04 337.93 m
-46.45 46.46 l
o
np
508.13 337.93 m
-51.54 51.55 l
o
np
513.22 337.93 m
-56.63 56.64 l
o
np
518.32 337.93 m
-61.73 61.73 l
o
np
523.41 337.93 m
-66.82 66.82 l
o
np
528.50 337.93 m
-71.91 71.91 l
o
np
533.59 337.93 m
-74.60 74.59 l
o
np
538.68 337.93 m
-74.59 74.59 l
o
np
543.77 337.93 m
-74.59 74.59 l
o
np
544.27 342.53 m
-70.00 69.99 l
o
np
544.27 347.62 m
-64.91 64.90 l
o
np
544.27 352.71 m
-59.82 59.81 l
o
np
544.27 357.80 m
-54.73 54.72 l
o
np
544.27 362.89 m
-49.64 49.63 l
o
np
544.27 367.98 m
-44.55 44.54 l
o
np
544.27 373.07 m
-39.46 39.45 l
o
np
544.27 378.16 m
-34.36 34.36 l
o
np
544.27 383.25 m
-29.27 29.27 l
o
np
544.27 388.35 m
-24.18 24.17 l
o
np
544.27 393.44 m
-19.09 19.08 l
o
np
544.27 398.53 m
-14.00 13.99 l
o
np
544.27 403.62 m
-8.91 8.90 l
o
np
544.27 408.71 m
-3.82 3.81 l
o
0 0 0 srgb
np
456.76 412.52 m
0 3.88 l
o
np
457.48 412.52 m
0 3.88 l
o
np
458.20 412.52 m
0 3.88 l
o
np
458.92 412.52 m
0 3.88 l
o
np
459.64 412.52 m
0 3.88 l
o
np
460.36 412.52 m
0 3.88 l
o
np
461.08 412.52 m
0 3.88 l
o
np
461.80 412.52 m
0 3.88 l
o
np
462.52 412.52 m
0 3.88 l
o
np
463.24 412.52 m
0 3.88 l
o
np
463.96 412.52 m
0 3.88 l
o
np
464.68 412.52 m
0 3.88 l
o
np
465.40 412.52 m
0 3.88 l
o
np
466.12 412.52 m
0 3.88 l
o
np
466.84 412.52 m
0 3.88 l
o
np
467.56 412.52 m
0 3.88 l
o
np
468.28 412.52 m
0 3.88 l
o
np
469.00 412.52 m
0 3.88 l
o
np
469.72 412.52 m
0 3.88 l
o
np
470.44 412.52 m
0 3.88 l
o
np
471.16 412.52 m
0 3.88 l
o
np
471.88 412.52 m
0 3.88 l
o
np
472.60 412.52 m
0 3.88 l
o
np
473.32 412.52 m
0 3.88 l
o
np
474.04 412.52 m
0 3.88 l
o
np
474.76 412.52 m
0 3.88 l
o
np
475.48 412.52 m
0 3.88 l
o
np
476.20 412.52 m
0 3.88 l
o
np
476.92 412.52 m
0 3.88 l
o
np
477.64 412.52 m
0 3.88 l
o
np
478.36 412.52 m
0 3.88 l
o
np
479.08 412.52 m
0 3.88 l
o
np
479.80 412.52 m
0 3.88 l
o
np
480.52 412.52 m
0 3.88 l
o
np
481.24 412.52 m
0 3.88 l
o
np
481.96 412.52 m
0 3.88 l
o
np
482.68 412.52 m
0 3.88 l
o
np
483.40 412.52 m
0 3.88 l
o
np
484.12 412.52 m
0 3.88 l
o
np
484.84 412.52 m
0 3.88 l
o
np
485.56 412.52 m
0 3.88 l
o
np
486.28 412.52 m
0 3.88 l
o
np
487.00 412.52 m
0 3.88 l
o
np
487.72 412.52 m
0 3.88 l
o
np
488.44 412.52 m
0 3.88 l
o
np
489.16 412.52 m
0 3.88 l
o
np
489.88 412.52 m
0 3.88 l
o
np
490.60 412.52 m
0 3.88 l
o
np
491.32 412.52 m
0 3.88 l
o
np
492.04 412.52 m
0 3.88 l
o
np
492.76 412.52 m
0 3.88 l
o
np
493.48 412.52 m
0 3.88 l
o
np
494.20 412.52 m
0 3.88 l
o
np
494.92 412.52 m
0 3.88 l
o
np
495.64 412.52 m
0 3.88 l
o
np
496.36 412.52 m
0 3.88 l
o
np
497.08 412.52 m
0 3.88 l
o
np
497.80 412.52 m
0 3.88 l
o
np
498.52 412.52 m
0 3.88 l
o
np
499.24 412.52 m
0 3.88 l
o
np
499.96 412.52 m
0 3.88 l
o
np
500.68 412.52 m
0 3.88 l
o
np
501.40 412.52 m
0 3.88 l
o
np
502.12 412.52 m
0 3.88 l
o
np
502.84 412.52 m
0 3.88 l
o
np
503.56 412.52 m
0 3.88 l
o
np
504.28 412.52 m
0 3.88 l
o
np
505.00 412.52 m
0 3.88 l
o
np
505.72 412.52 m
0 3.88 l
o
np
506.44 412.52 m
0 3.88 l
o
np
507.16 412.52 m
0 3.88 l
o
np
507.88 412.52 m
0 3.88 l
o
np
508.60 412.52 m
0 3.88 l
o
np
509.32 412.52 m
0 3.88 l
o
np
510.04 412.52 m
0 3.88 l
o
np
510.76 412.52 m
0 3.88 l
o
np
511.48 412.52 m
0 3.88 l
o
np
512.20 412.52 m
0 3.88 l
o
np
512.92 412.52 m
0 3.88 l
o
np
513.64 412.52 m
0 3.88 l
o
np
514.36 412.52 m
0 3.88 l
o
np
515.08 412.52 m
0 3.88 l
o
np
515.80 412.52 m
0 3.88 l
o
np
516.52 412.52 m
0 3.88 l
o
np
517.24 412.52 m
0 3.88 l
o
np
517.96 412.52 m
0 3.88 l
o
np
518.68 412.52 m
0 3.88 l
o
np
519.40 412.52 m
0 3.88 l
o
np
520.12 412.52 m
0 3.88 l
o
np
520.84 412.52 m
0 3.88 l
o
np
521.56 412.52 m
0 3.88 l
o
np
522.28 412.52 m
0 3.88 l
o
np
523.00 412.52 m
0 3.88 l
o
np
523.72 412.52 m
0 3.88 l
o
np
524.44 412.52 m
0 3.88 l
o
np
525.16 412.52 m
0 3.88 l
o
np
525.88 412.52 m
0 3.88 l
o
np
526.60 412.52 m
0 3.88 l
o
np
527.32 412.52 m
0 3.88 l
o
np
528.04 412.52 m
0 3.88 l
o
np
528.76 412.52 m
0 3.88 l
o
np
529.48 412.52 m
0 3.88 l
o
np
530.20 412.52 m
0 3.88 l
o
np
530.92 412.52 m
0 3.88 l
o
np
531.64 412.52 m
0 3.88 l
o
np
532.36 412.52 m
0 3.88 l
o
np
533.08 412.52 m
0 3.88 l
o
np
533.80 412.52 m
0 3.88 l
o
np
534.52 412.52 m
0 3.88 l
o
np
535.24 412.52 m
0 3.88 l
o
np
535.96 412.52 m
0 3.88 l
o
np
536.68 412.52 m
0 3.88 l
o
np
537.40 412.52 m
0 3.88 l
o
np
538.12 412.52 m
0 3.88 l
o
np
538.84 412.52 m
0 3.88 l
o
np
539.56 412.52 m
0 3.88 l
o
np
540.28 412.52 m
0 3.88 l
o
np
541.00 412.52 m
0 3.88 l
o
np
541.72 412.52 m
0 3.88 l
o
np
542.44 412.52 m
0 3.88 l
o
np
543.16 412.52 m
0 3.88 l
o
np
543.88 412.52 m
0 3.88 l
o
np
456.59 65.90 m
87.68 0 l
0 272.03 l
-87.68 0 l
0 -272.03 l
o
np
456.59 337.93 m
87.68 0 l
0 74.59 l
-87.68 0 l
0 -74.59 l
o
np
456.59 412.52 m
87.68 0 l
0 3.88 l
-87.68 0 l
0 -3.88 l
o
0.00 0.00 576.00 432.00 cl
/Font1 findfont 26 s
0 0 0 srgb
184.77 6.24 (10) .5 0 t
289.99 6.24 (20) .5 0 t
395.21 6.24 (50) .5 0 t
500.43 6.24 (100) .5 0 t
0.00 0.00 576.00 432.00 cl
0 0 0 srgb
0.75 setlinewidth
[] 0 setdash
1 setlinecap
1 setlinejoin
10.00 setmiterlimit
np
148.60 377.40 m
0 15.60 l
o
np
149.32 377.40 m
0 15.60 l
o
np
150.04 377.40 m
0 15.60 l
o
np
150.76 377.40 m
0 15.60 l
o
np
151.48 377.40 m
0 15.60 l
o
np
152.20 377.40 m
0 15.60 l
o
np
152.92 377.40 m
0 15.60 l
o
np
153.64 377.40 m
0 15.60 l
o
np
154.36 377.40 m
0 15.60 l
o
np
155.08 377.40 m
0 15.60 l
o
np
155.80 377.40 m
0 15.60 l
o
np
156.52 377.40 m
0 15.60 l
o
np
157.24 377.40 m
0 15.60 l
o
np
157.96 377.40 m
0 15.60 l
o
np
158.68 377.40 m
0 15.60 l
o
np
159.40 377.40 m
0 15.60 l
o
np
160.12 377.40 m
0 15.60 l
o
np
160.84 377.40 m
0 15.60 l
o
np
161.56 377.40 m
0 15.60 l
o
np
162.28 377.40 m
0 15.60 l
o
np
163.00 377.40 m
0 15.60 l
o
np
163.72 377.40 m
0 15.60 l
o
np
164.44 377.40 m
0 15.60 l
o
np
165.16 377.40 m
0 15.60 l
o
np
165.88 377.40 m
0 15.60 l
o
np
166.60 377.40 m
0 15.60 l
o
1 0.4000 0.4000 srgb
np
148.57 346.20 m
-0.37 0.37 l
o
np
153.66 346.20 m
-5.46 5.46 l
o
np
158.75 346.20 m
-10.55 10.55 l
o
np
163.85 346.20 m
-15.60 15.60 l
o
np
166.92 348.22 m
-13.58 13.58 l
o
np
166.92 353.31 m
-8.49 8.49 l
o
np
166.92 358.40 m
-3.40 3.40 l
o
0.4000 0.4000 1 srgb
np
148.48 315.00 m
15.60 15.60 l
o
0 0 0 srgb
np
148.20 393.00 m
18.72 0 l
0 -15.60 l
-18.72 0 l
0 15.60 l
o
np
148.20 361.80 m
18.72 0 l
0 -15.60 l
-18.72 0 l
0 15.60 l
o
np
148.20 330.60 m
18.72 0 l
0 -15.60 l
-18.72 0 l
0 15.60 l
o
/Font1 findfont 26 s
190.32 375.87 (Extend) 0 0 t
190.32 344.67 (Sw) 0 ta
-0.390 (ap) tb gr
190.32 313.47 (Add) 0 0 t
24.96 239.40 (Arcs \(x1000\)) .5 90 t
0.00 0.00 576.00 432.00 cl
0 0 0 srgb
0.75 setlinewidth
[] 0 setdash
1 setlinecap
1 setlinejoin
10.00 setmiterlimit
np
124.80 65.90 m
0 282.49 l
o
np
124.80 65.90 m
-15.60 0 l
o
np
124.80 160.07 m
-15.60 0 l
o
np
124.80 254.23 m
-15.60 0 l
o
np
124.80 348.39 m
-15.60 0 l
o
/Font1 findfont 26 s
87.36 65.90 (0) .5 90 t
87.36 160.07 (500) .5 90 t
87.36 254.23 (1000) .5 90 t
87.36 348.39 (1500) .5 90 t
ep
%%Trailer
%%Pages: 1
%%EOF
