%!PS-Adobe-3.0 EPSF-3.0
%%DocumentNeededResources: font Helvetica
%%+ font Helvetica-Bold
%%+ font Helvetica-Oblique
%%+ font Helvetica-BoldOblique
%%+ font Symbol
%%Title: R Graphics Output
%%Creator: R Software
%%Pages: (atend)
%%BoundingBox: 0 0 576 432
%%EndComments
%%BeginProlog
/bp  { gs sRGB gs } def
% begin .ps.prolog
/gs  { gsave } bind def
/gr  { grestore } bind def
/ep  { showpage gr gr } bind def
/m   { moveto } bind def
/l  { rlineto } bind def
/np  { newpath } bind def
/cp  { closepath } bind def
/f   { fill } bind def
/o   { stroke } bind def
/c   { newpath 0 360 arc } bind def
/r   { 4 2 roll moveto 1 copy 3 -1 roll exch 0 exch rlineto 0 rlineto -1 mul 0 exch rlineto closepath } bind def
/p1  { stroke } bind def
/p2  { gsave bg fill grestore newpath } bind def
/p3  { gsave bg fill grestore stroke } bind def
/p6  { gsave bg eofill grestore newpath } bind def
/p7  { gsave bg eofill grestore stroke } bind def
/t   { 5 -2 roll moveto gsave rotate
       1 index stringwidth pop
       mul neg 0 rmoveto show grestore } bind def
/ta  { 4 -2 roll moveto gsave rotate show } bind def
/tb  { 2 -1 roll 0 rmoveto show } bind def
/cl  { grestore gsave newpath 3 index 3 index moveto 1 index
       4 -1 roll lineto  exch 1 index lineto lineto
       closepath clip newpath } bind def
/rgb { setrgbcolor } bind def
/s   { scalefont setfont } bind def
% end   .ps.prolog
/sRGB { [ /CIEBasedABC
          << /DecodeLMN
               [ { dup 0.03928 le
                        {12.92321 div}
                        {0.055 add 1.055 div 2.4 exp }
                     ifelse
                 } bind dup dup
               ]
             /MatrixLMN [0.412457 0.212673 0.019334
                         0.357576 0.715152 0.119192
                         0.180437 0.072175 0.950301]
             /WhitePoint [0.9505 1.0 1.0890]
           >>
         ] setcolorspace } bind def
/srgb { setcolor } bind def
%%IncludeResource: font Helvetica
/Helvetica findfont
dup length dict begin
  {1 index /FID ne {def} {pop pop} ifelse} forall
  /Encoding ISOLatin1Encoding def
  currentdict
  end
/Font1 exch definefont pop
%%IncludeResource: font Helvetica-Bold
/Helvetica-Bold findfont
dup length dict begin
  {1 index /FID ne {def} {pop pop} ifelse} forall
  /Encoding ISOLatin1Encoding def
  currentdict
  end
/Font2 exch definefont pop
%%IncludeResource: font Helvetica-Oblique
/Helvetica-Oblique findfont
dup length dict begin
  {1 index /FID ne {def} {pop pop} ifelse} forall
  /Encoding ISOLatin1Encoding def
  currentdict
  end
/Font3 exch definefont pop
%%IncludeResource: font Helvetica-BoldOblique
/Helvetica-BoldOblique findfont
dup length dict begin
  {1 index /FID ne {def} {pop pop} ifelse} forall
  /Encoding ISOLatin1Encoding def
  currentdict
  end
/Font4 exch definefont pop
%%IncludeResource: font Symbol
/Symbol findfont
dup length dict begin
  {1 index /FID ne {def} {pop pop} ifelse} forall
  currentdict
  end
/Font5 exch definefont pop
%%EndProlog
%%Page: 1 1
bp
26.40 24.00 576.00 432.00 cl
0 0 0 srgb
0.75 setlinewidth
[] 0 setdash
1 setlinecap
1 setlinejoin
10.00 setmiterlimit
np
280.56 303.88 m
230.13 -63.09 l
o
np
510.69 240.79 m
24.77 130.46 l
o
np
535.46 371.25 m
-259.40 45.64 l
o
np
276.06 416.89 m
4.50 -113.01 l
o
np
101.81 175.69 m
178.75 128.19 l
o
np
276.06 416.89 m
-209.12 -94.89 l
o
np
66.94 322.00 m
34.87 -146.31 l
o
np
101.81 175.69 m
298.15 -136.58 l
o
np
399.96 39.11 m
110.73 201.68 l
o
0.00 0.00 576.00 432.00 cl
/Font1 findfont 20 s
0 0 0 srgb
221.61 61.84 (Ki) .5 -25.22 t
0.75 setlinewidth
[] 0 setdash
1 setlinecap
1 setlinejoin
10.00 setmiterlimit
np
127.79 163.79 m
-6.67 -9.64 l
o
114.34 137.16 (2) .5 0 t
np
184.20 137.95 m
-6.55 -10.43 l
o
170.99 109.73 (4) .5 0 t
np
247.43 108.98 m
-6.35 -11.33 l
o
234.61 78.91 (6) .5 0 t
np
318.79 76.30 m
-6.04 -12.41 l
o
306.59 44.05 (8) .5 0 t
np
399.96 39.11 m
-5.57 -13.67 l
o
388.69 4.29 (10) .5 0 t
505.06 132.81 (K) 62.49 ta
-0.800 (o) tb gr
np
417.80 71.59 m
10.77 -8.97 l
o
439.41 46.41 (2) .5 0 t
np
448.06 126.71 m
9.78 -7.87 l
o
467.68 103.73 (4) .5 0 t
np
472.77 171.72 m
8.95 -7.02 l
o
490.73 150.46 (6) .5 0 t
np
493.32 209.15 m
8.26 -6.32 l
o
509.88 189.30 (8) .5 0 t
np
510.69 240.79 m
7.66 -5.75 l
o
526.04 222.08 (10) .5 0 t
4.21 307.81 (Precision inde) -75.72 ta
-0.600 (x) tb gr
np
98.60 189.18 m
-14.70 -2.26 l
o
69.06 177.45 (0.75) .5 0 t
np
92.91 213.05 m
-15.10 -2.20 l
o
62.55 201.46 (0.80) .5 0 t
np
86.93 238.15 m
-15.53 -2.11 l
o
55.70 226.73 (0.85) .5 0 t
np
80.62 264.61 m
-15.98 -2.02 l
o
48.48 253.37 (0.90) .5 0 t
np
73.97 292.51 m
-16.46 -1.91 l
o
40.85 281.49 (0.95) .5 0 t
np
66.94 322.00 m
-16.97 -1.79 l
o
32.79 311.23 (1.00) .5 0 t
26.40 24.00 576.00 432.00 cl
/bg { 0.1529 0.1922 0.2078 srgb } def
0 0 0 srgb
0.75 setlinewidth
[] 0 setdash
1 setlinecap
1 setlinejoin
10.00 setmiterlimit
np
 265.02 311.46 m
21.27 31.38 l
14.91 9.49 l
-21.32 -31.46 l
cp p3
/bg { 0.1725 0.2157 0.2314 srgb } def
np
 286.29 342.84 m
24.22 -2.99 l
14.46 42.14 l
-23.77 -29.66 l
cp p3
np
 248.78 305.93 m
21.58 24.96 l
15.93 11.95 l
-21.27 -31.38 l
cp p3
/bg { 0.4314 0.5412 0.5765 srgb } def
np
 310.51 339.85 m
25.34 -7.07 l
13.88 14.78 l
-24.76 34.43 l
cp p3
/bg { 0.3176 0.4000 0.4235 srgb } def
np
 270.36 330.89 m
23.72 35.32 l
16.43 -26.36 l
-24.22 2.99 l
cp p3
/bg { 0.1882 0.2353 0.2510 srgb } def
np
 335.85 332.78 m
27.83 30.73 l
13.15 3.32 l
-27.10 -19.27 l
cp p3
/bg { 0.1608 0.2000 0.2157 srgb } def
np
 231.99 290.54 m
20.98 31.86 l
17.39 8.49 l
-21.58 -24.96 l
cp p3
/bg { 0.5922 0.7373 0.7843 srgb } def
np
 294.08 366.21 m
26.94 -44.48 l
14.83 11.05 l
-25.34 7.07 l
cp p3
/bg { 0.5882 0.7333 0.7843 srgb } def
np
 363.68 363.51 m
26.19 -45.04 l
12.68 16.24 l
-25.72 32.12 l
cp p3
/bg { 0.1608 0.2000 0.2157 srgb } def
np
 252.97 322.40 m
23.86 31.15 l
17.25 12.66 l
-23.72 -35.32 l
cp p3
/bg { 0.1686 0.2118 0.2235 srgb } def
np
 321.02 321.73 m
27.35 0.70 l
15.31 41.08 l
-27.83 -30.73 l
cp p3
/bg { 0.1804 0.2235 0.2392 srgb } def
np
 389.87 318.47 m
32.13 28.91 l
11.48 8.39 l
-30.93 -21.06 l
cp p3
/bg { 0.1490 0.1882 0.2000 srgb } def
np
 214.00 274.79 m
19.82 41.79 l
19.15 5.82 l
-20.98 -31.86 l
cp p3
/bg { 0.5922 0.7412 0.7882 srgb } def
np
 276.83 353.55 m
27.64 -12.39 l
16.55 -19.43 l
-26.94 44.48 l
cp p3
/bg { 0.4980 0.6235 0.6627 srgb } def
np
 348.37 322.43 m
28.22 -15.35 l
13.28 11.39 l
-26.19 45.04 l
cp p3
/bg { 0.4392 0.5490 0.5882 srgb } def
np
 422.00 347.38 m
26.87 -44.15 l
15.47 50.74 l
-30.86 1.80 l
cp p3
/bg { 0.2000 0.2471 0.2627 srgb } def
np
 233.82 316.58 m
26.32 -9.86 l
16.69 46.83 l
-23.86 -31.15 l
cp p3
/bg { 0.4627 0.5804 0.6157 srgb } def
np
 304.47 341.16 m
28.81 0.56 l
15.09 -19.29 l
-27.35 -0.70 l
cp p3
/bg { 0.1765 0.2235 0.2353 srgb } def
np
 376.59 307.08 m
32.84 30.73 l
12.57 9.57 l
-32.13 -28.91 l
cp p3
/bg { 0.1608 0.2000 0.2157 srgb } def
np
 193.27 269.44 m
20.28 33.71 l
20.27 13.43 l
-19.82 -41.79 l
cp p3
/bg { 0.1961 0.2431 0.2627 srgb } def
np
 448.87 303.23 m
36.83 26.52 l
10.23 15.89 l
-31.59 8.33 l
cp p3
/bg { 0.2980 0.3725 0.4000 srgb } def
np
 260.14 306.72 m
27.32 -5.63 l
17.01 40.07 l
-27.64 12.39 l
cp p3
/bg { 0.5412 0.6745 0.7216 srgb } def
np
 333.28 341.72 m
30.27 -10.77 l
13.04 -23.87 l
-28.22 15.35 l
cp p3
/bg { 0.5882 0.7373 0.7843 srgb } def
np
 409.43 337.81 m
32.09 -10.91 l
7.35 -23.67 l
-26.87 44.15 l
cp p3
/bg { 0.4196 0.5255 0.5608 srgb } def
np
 213.55 303.15 m
26.92 -9.79 l
19.67 13.36 l
-26.32 9.86 l
cp p3
/bg { 0.4902 0.6118 0.6510 srgb } def
np
 485.70 329.75 m
33.80 -11.10 l
6.78 4.27 l
-30.35 22.72 l
cp p3
/bg { 0.2667 0.3333 0.3569 srgb } def
np
 287.46 301.09 m
28.80 -9.50 l
17.02 50.13 l
-28.81 -0.56 l
cp p3
/bg { 0.3882 0.4863 0.5176 srgb } def
np
 363.55 330.95 m
29.42 -43.55 l
16.46 50.41 l
-32.84 -30.73 l
cp p3
/bg { 0.0863 0.1098 0.1176 srgb } def
np
 175.70 228.68 m
16.08 57.89 l
21.77 16.58 l
-20.28 -33.71 l
cp p3
/bg { 0.3569 0.4471 0.4745 srgb } def
np
 441.52 326.90 m
34.87 -2.03 l
9.31 4.88 l
-36.83 -26.52 l
cp p3
/bg { 0.3765 0.4667 0.4980 srgb } def
np
 240.47 293.36 m
27.71 -0.98 l
19.28 8.71 l
-27.32 5.63 l
cp p3
/bg { 0.2039 0.2549 0.2706 srgb } def
np
 316.26 291.59 m
31.14 30.53 l
16.15 8.83 l
-30.27 10.77 l
cp p3
/bg { 0.2196 0.2745 0.2902 srgb } def
np
 392.97 287.40 m
35.48 22.67 l
13.07 16.83 l
-32.09 10.91 l
cp p3
/bg { 0.3451 0.4314 0.4588 srgb } def
np
 191.78 286.57 m
23.13 33.18 l
25.56 -26.39 l
-26.92 9.79 l
cp p3
/bg { 0.4706 0.5882 0.6275 srgb } def
np
 476.39 324.87 m
34.89 -14.85 l
8.22 8.63 l
-33.80 11.10 l
cp p3
/bg { 0.4118 0.5176 0.5490 srgb } def
np
 268.18 292.38 m
29.42 5.28 l
18.66 -6.07 l
-28.80 9.50 l
cp p3
/bg { 0.5843 0.7294 0.7765 srgb } def
np
 347.40 322.12 m
32.93 -10.71 l
12.64 -24.01 l
-29.42 43.55 l
cp p3
/bg { 0.1922 0.2392 0.2549 srgb } def
np
 148.41 239.27 m
18.80 35.45 l
24.57 11.85 l
-16.08 -57.89 l
cp p3
/bg { 0.3373 0.4235 0.4510 srgb } def
np
 428.45 310.07 m
36.10 -1.80 l
11.84 16.60 l
-34.87 2.03 l
cp p3
/bg { 0.5020 0.6275 0.6667 srgb } def
np
 214.91 319.75 m
30.30 -14.04 l
22.97 -13.33 l
-27.71 0.98 l
cp p3
/bg { 0.2627 0.3294 0.3490 srgb } def
np
 297.60 297.66 m
31.78 -9.62 l
18.02 34.08 l
-31.14 -30.53 l
cp p3
/bg { 0.3961 0.4941 0.5294 srgb } def
np
 380.33 311.41 m
34.03 -17.92 l
14.09 16.58 l
-35.48 -22.67 l
cp p3
/bg { 0.1765 0.2196 0.2353 srgb } def
np
 167.21 274.72 m
23.29 28.63 l
24.41 16.40 l
-23.13 -33.18 l
cp p3
/bg { 0.4314 0.5412 0.5765 srgb } def
np
 464.55 308.27 m
37.46 -8.72 l
9.27 10.47 l
-34.89 14.85 l
cp p3
/bg { 0.4157 0.5216 0.5529 srgb } def
np
 245.21 305.71 m
30.83 4.42 l
21.56 -12.47 l
-29.42 -5.28 l
cp p3
/bg { 0.3804 0.4784 0.5059 srgb } def
np
 329.38 288.04 m
32.52 -35.45 l
18.43 58.82 l
-32.93 10.71 l
cp p3
/bg { 0.2314 0.2902 0.3098 srgb } def
np
 118.46 244.23 m
22.57 12.30 l
26.18 18.19 l
-18.80 -35.45 l
cp p3
/bg { 0.3451 0.4314 0.4588 srgb } def
np
 414.36 293.49 m
37.00 -5.20 l
13.19 19.98 l
-36.10 1.80 l
cp p3
/bg { 0.4275 0.5373 0.5725 srgb } def
np
 190.50 303.35 m
30.66 -9.59 l
24.05 11.95 l
-30.30 14.04 l
cp p3
/bg { 0.5216 0.6510 0.6941 srgb } def
np
 276.04 310.13 m
33.84 -23.53 l
19.50 1.44 l
-31.78 9.62 l
cp p3
/bg { 0.2745 0.3451 0.3647 srgb } def
np
 361.90 252.59 m
35.60 3.96 l
16.86 36.94 l
-34.03 17.92 l
cp p3
/bg { 0.1922 0.2392 0.2549 srgb } def
np
 141.03 256.53 m
28.30 -8.13 l
21.17 54.95 l
-23.29 -28.63 l
cp p3
/bg { 0.3765 0.4706 0.5020 srgb } def
np
 451.36 288.29 m
39.20 -7.40 l
11.45 18.66 l
-37.46 8.72 l
cp p3
/bg { 0.4039 0.5020 0.5373 srgb } def
np
 221.16 293.76 m
35.09 -49.52 l
19.79 65.89 l
-30.83 -4.42 l
cp p3
/bg { 0.5608 0.6980 0.7451 srgb } def
np
 309.88 286.60 m
35.24 -8.52 l
16.78 -25.49 l
-32.52 35.45 l
cp p3
/bg { 0.6314 0.7882 0.8431 srgb } def
np
 66.94 322.00 m
58.35 -146.45 l
15.74 80.98 l
-22.57 -12.30 l
cp p3
/bg { 0.2510 0.3098 0.3333 srgb } def
np
 397.50 256.55 m
40.26 17.36 l
13.60 14.38 l
-37.00 5.20 l
cp p3
/bg { 0.2824 0.3529 0.3765 srgb } def
np
 169.33 248.40 m
30.37 -10.86 l
21.46 56.22 l
-30.66 9.59 l
cp p3
/bg { 0.3255 0.4078 0.4353 srgb } def
np
 256.25 244.24 m
33.37 -17.65 l
20.26 60.01 l
-33.84 23.53 l
cp p3
/bg { 0.4667 0.5843 0.6196 srgb } def
np
 345.12 278.08 m
37.57 -8.60 l
14.81 -12.93 l
-35.60 -3.96 l
cp p3
/bg { 0.2118 0.2667 0.2824 srgb } def
np
 125.29 175.55 m
24.32 5.88 l
19.72 66.97 l
-28.30 8.13 l
cp p3
/bg { 0.4353 0.5412 0.5765 srgb } def
np
 437.76 273.91 m
36.85 -35.15 l
15.95 42.13 l
-39.20 7.40 l
cp p3
/bg { 0.4588 0.5725 0.6078 srgb } def
np
 199.70 237.54 m
32.51 -14.66 l
24.04 21.36 l
-35.09 49.52 l
cp p3
/bg { 0.1804 0.2235 0.2392 srgb } def
np
 289.62 226.59 m
35.04 34.31 l
20.46 17.18 l
-35.24 8.52 l
cp p3
/bg { 0.3804 0.4745 0.5059 srgb } def
np
 382.69 269.48 m
39.49 -15.56 l
15.58 19.99 l
-40.26 -17.36 l
cp p3
/bg { 0.2392 0.2980 0.3176 srgb } def
np
 149.61 181.43 m
27.74 0.53 l
22.35 55.58 l
-30.37 10.86 l
cp p3
/bg { 0.4392 0.5529 0.5882 srgb } def
np
 232.21 222.88 m
34.42 -17.29 l
22.99 21.00 l
-33.37 17.65 l
cp p3
/bg { 0.4078 0.5059 0.5412 srgb } def
np
 324.66 260.90 m
38.70 -18.14 l
19.33 26.72 l
-37.57 8.60 l
cp p3
/bg { 0.5255 0.6549 0.6980 srgb } def
np
 422.18 253.92 m
41.94 -14.96 l
10.49 -0.20 l
-36.85 35.15 l
cp p3
/bg { 0.3137 0.3922 0.4157 srgb } def
np
 177.35 181.96 m
32.93 -20.68 l
21.93 61.60 l
-32.51 14.66 l
cp p3
/bg { 0.1843 0.2314 0.2471 srgb } def
np
 266.63 205.59 m
36.22 -16.83 l
21.81 72.14 l
-35.04 -34.31 l
cp p3
/bg { 0.4431 0.5569 0.5922 srgb } def
np
 363.36 242.76 m
37.85 -54.02 l
20.97 65.18 l
-39.49 15.56 l
cp p3
/bg { 0.2627 0.3294 0.3490 srgb } def
np
 210.28 161.28 m
32.50 0.93 l
23.85 43.38 l
-34.42 17.29 l
cp p3
/bg { 0.2863 0.3569 0.3804 srgb } def
np
 302.85 188.76 m
38.43 -11.80 l
22.08 65.80 l
-38.70 18.14 l
cp p3
/bg { 0.2941 0.3686 0.3922 srgb } def
np
 401.21 188.74 m
41.74 -17.57 l
21.17 67.79 l
-41.94 14.96 l
cp p3
/bg { 0.3529 0.4392 0.4706 srgb } def
np
 242.78 162.21 m
36.90 -20.93 l
23.17 47.48 l
-36.22 16.83 l
cp p3
/bg { 0.4431 0.5529 0.5882 srgb } def
np
 341.28 176.96 m
41.32 -11.71 l
18.61 23.49 l
-37.85 54.02 l
cp p3
/bg { 0.3176 0.3961 0.4235 srgb } def
np
 279.68 141.28 m
38.91 -21.61 l
22.69 57.29 l
-38.43 11.80 l
cp p3
/bg { 0.4275 0.5333 0.5686 srgb } def
np
 382.60 165.25 m
44.19 -16.04 l
16.16 21.96 l
-41.74 17.57 l
cp p3
/bg { 0.2863 0.3569 0.3804 srgb } def
np
 318.59 119.67 m
41.33 -18.34 l
22.68 63.92 l
-41.32 11.71 l
cp p3
/bg { 0.2863 0.3608 0.3843 srgb } def
np
 359.92 101.33 m
44.40 -17.79 l
22.47 65.67 l
-44.19 16.04 l
cp p3
0.75 setlinewidth
[ 0.00 3.00] 0 setdash
np
66.94 322.00 m
349.86 -111.17 l
o
np
416.80 210.83 m
-16.84 -171.72 l
o
np
416.80 210.83 m
118.66 160.42 l
o
ep
%%Trailer
%%Pages: 1
%%EOF
