%!PS-Adobe-3.0 EPSF-3.0
%%DocumentNeededResources: font Helvetica
%%+ font Helvetica-Bold
%%+ font Helvetica-Oblique
%%+ font Helvetica-BoldOblique
%%+ font Symbol
%%Title: R Graphics Output
%%Creator: R Software
%%Pages: (atend)
%%BoundingBox: 0 0 576 432
%%EndComments
%%BeginProlog
/bp  { gs sRGB gs } def
% begin .ps.prolog
/gs  { gsave } bind def
/gr  { grestore } bind def
/ep  { showpage gr gr } bind def
/m   { moveto } bind def
/l  { rlineto } bind def
/np  { newpath } bind def
/cp  { closepath } bind def
/f   { fill } bind def
/o   { stroke } bind def
/c   { newpath 0 360 arc } bind def
/r   { 4 2 roll moveto 1 copy 3 -1 roll exch 0 exch rlineto 0 rlineto -1 mul 0 exch rlineto closepath } bind def
/p1  { stroke } bind def
/p2  { gsave bg fill grestore newpath } bind def
/p3  { gsave bg fill grestore stroke } bind def
/p6  { gsave bg eofill grestore newpath } bind def
/p7  { gsave bg eofill grestore stroke } bind def
/t   { 5 -2 roll moveto gsave rotate
       1 index stringwidth pop
       mul neg 0 rmoveto show grestore } bind def
/ta  { 4 -2 roll moveto gsave rotate show } bind def
/tb  { 2 -1 roll 0 rmoveto show } bind def
/cl  { grestore gsave newpath 3 index 3 index moveto 1 index
       4 -1 roll lineto  exch 1 index lineto lineto
       closepath clip newpath } bind def
/rgb { setrgbcolor } bind def
/s   { scalefont setfont } bind def
% end   .ps.prolog
/sRGB { [ /CIEBasedABC
          << /DecodeLMN
               [ { dup 0.03928 le
                        {12.92321 div}
                        {0.055 add 1.055 div 2.4 exp }
                     ifelse
                 } bind dup dup
               ]
             /MatrixLMN [0.412457 0.212673 0.019334
                         0.357576 0.715152 0.119192
                         0.180437 0.072175 0.950301]
             /WhitePoint [0.9505 1.0 1.0890]
           >>
         ] setcolorspace } bind def
/srgb { setcolor } bind def
%%IncludeResource: font Helvetica
/Helvetica findfont
dup length dict begin
  {1 index /FID ne {def} {pop pop} ifelse} forall
  /Encoding ISOLatin1Encoding def
  currentdict
  end
/Font1 exch definefont pop
%%IncludeResource: font Helvetica-Bold
/Helvetica-Bold findfont
dup length dict begin
  {1 index /FID ne {def} {pop pop} ifelse} forall
  /Encoding ISOLatin1Encoding def
  currentdict
  end
/Font2 exch definefont pop
%%IncludeResource: font Helvetica-Oblique
/Helvetica-Oblique findfont
dup length dict begin
  {1 index /FID ne {def} {pop pop} ifelse} forall
  /Encoding ISOLatin1Encoding def
  currentdict
  end
/Font3 exch definefont pop
%%IncludeResource: font Helvetica-BoldOblique
/Helvetica-BoldOblique findfont
dup length dict begin
  {1 index /FID ne {def} {pop pop} ifelse} forall
  /Encoding ISOLatin1Encoding def
  currentdict
  end
/Font4 exch definefont pop
%%IncludeResource: font Symbol
/Symbol findfont
dup length dict begin
  {1 index /FID ne {def} {pop pop} ifelse} forall
  currentdict
  end
/Font5 exch definefont pop
%%EndProlog
%%Page: 1 1
bp
26.40 24.00 576.00 432.00 cl
0 0 0 srgb
0.75 setlinewidth
[] 0 setdash
1 setlinecap
1 setlinejoin
10.00 setmiterlimit
np
280.56 303.88 m
230.13 -63.09 l
o
np
510.69 240.79 m
24.77 130.46 l
o
np
535.46 371.25 m
-259.40 45.64 l
o
np
276.06 416.89 m
4.50 -113.01 l
o
np
101.81 175.69 m
178.75 128.19 l
o
np
276.06 416.89 m
-209.12 -94.89 l
o
np
66.94 322.00 m
34.87 -146.31 l
o
np
101.81 175.69 m
298.15 -136.58 l
o
np
399.96 39.11 m
110.73 201.68 l
o
0.00 0.00 576.00 432.00 cl
/Font1 findfont 20 s
0 0 0 srgb
221.61 61.84 (Ki) .5 -25.22 t
0.75 setlinewidth
[] 0 setdash
1 setlinecap
1 setlinejoin
10.00 setmiterlimit
np
127.79 163.79 m
-6.67 -9.64 l
o
114.34 137.16 (2) .5 0 t
np
184.20 137.95 m
-6.55 -10.43 l
o
170.99 109.73 (4) .5 0 t
np
247.43 108.98 m
-6.35 -11.33 l
o
234.61 78.91 (6) .5 0 t
np
318.79 76.30 m
-6.04 -12.41 l
o
306.59 44.05 (8) .5 0 t
np
399.96 39.11 m
-5.57 -13.67 l
o
388.69 4.29 (10) .5 0 t
505.06 132.81 (K) 62.49 ta
-0.800 (o) tb gr
np
417.80 71.59 m
10.77 -8.97 l
o
439.41 46.41 (2) .5 0 t
np
448.06 126.71 m
9.78 -7.87 l
o
467.68 103.73 (4) .5 0 t
np
472.77 171.72 m
8.95 -7.02 l
o
490.73 150.46 (6) .5 0 t
np
493.32 209.15 m
8.26 -6.32 l
o
509.88 189.30 (8) .5 0 t
np
510.69 240.79 m
7.66 -5.75 l
o
526.04 222.08 (10) .5 0 t
3.14 315.28 (Out-degree centr) -75.72 ta
-0.200 (ality) tb gr
np
101.81 175.69 m
-14.46 -2.30 l
o
72.73 163.88 (0.000) .5 0 t
np
93.09 212.29 m
-15.09 -2.19 l
o
62.75 200.70 (0.002) .5 0 t
np
83.65 251.91 m
-15.77 -2.06 l
o
51.94 240.58 (0.004) .5 0 t
np
73.40 294.93 m
-16.51 -1.90 l
o
40.19 283.93 (0.006) .5 0 t
26.40 24.00 576.00 432.00 cl
/bg { 0.3569 0.4431 0.4745 srgb } def
0 0 0 srgb
0.75 setlinewidth
[] 0 setdash
1 setlinecap
1 setlinejoin
10.00 setmiterlimit
np
 260.19 400.73 m
24.33 -4.70 l
15.51 16.64 l
-23.97 4.22 l
cp p3
/bg { 0.3686 0.4627 0.4902 srgb } def
np
 284.52 396.03 m
25.42 -4.90 l
15.08 15.20 l
-24.99 6.34 l
cp p3
/bg { 0.3529 0.4431 0.4706 srgb } def
np
 243.39 383.11 m
24.70 -5.22 l
16.43 18.14 l
-24.33 4.70 l
cp p3
/bg { 0.3608 0.4549 0.4824 srgb } def
np
 309.94 391.13 m
26.55 -6.63 l
14.60 18.11 l
-26.07 3.72 l
cp p3
/bg { 0.3529 0.4431 0.4706 srgb } def
np
 268.09 377.89 m
25.83 -5.47 l
16.02 18.71 l
-25.42 4.90 l
cp p3
/bg { 0.3843 0.4784 0.5098 srgb } def
np
 336.49 384.50 m
27.64 -8.68 l
14.04 18.65 l
-27.08 8.14 l
cp p3
/bg { 0.3490 0.4392 0.4667 srgb } def
np
 225.64 363.57 m
25.04 -5.84 l
17.41 20.16 l
-24.70 5.22 l
cp p3
/bg { 0.3647 0.4549 0.4863 srgb } def
np
 293.92 372.42 m
27.04 -6.51 l
15.53 18.59 l
-26.55 6.63 l
cp p3
/bg { 0.4078 0.5098 0.5412 srgb } def
np
 364.13 375.82 m
28.65 -11.17 l
13.33 18.38 l
-27.94 11.44 l
cp p3
/bg { 0.3490 0.4392 0.4667 srgb } def
np
 250.68 357.73 m
26.23 -6.12 l
17.01 20.81 l
-25.83 5.47 l
cp p3
/bg { 0.3882 0.4863 0.5176 srgb } def
np
 320.96 365.91 m
28.19 -11.17 l
14.98 21.08 l
-27.64 8.68 l
cp p3
/bg { 0.3765 0.4745 0.5020 srgb } def
np
 392.78 364.65 m
29.85 -10.36 l
12.87 21.61 l
-29.39 7.13 l
cp p3
/bg { 0.3490 0.4353 0.4627 srgb } def
np
 206.85 342.34 m
25.37 -6.53 l
18.46 21.92 l
-25.04 5.84 l
cp p3
/bg { 0.3608 0.4510 0.4784 srgb } def
np
 276.91 351.61 m
27.53 -8.93 l
16.52 23.23 l
-27.04 6.51 l
cp p3
/bg { 0.3961 0.4980 0.5294 srgb } def
np
 349.15 354.74 m
29.20 -13.32 l
14.43 23.23 l
-28.65 11.17 l
cp p3
/bg { 0.4588 0.5725 0.6118 srgb } def
np
 422.63 354.29 m
29.86 -20.90 l
12.08 22.32 l
-29.07 20.19 l
cp p3
/bg { 0.3490 0.4353 0.4627 srgb } def
np
 232.22 335.81 m
26.61 -6.84 l
18.08 22.64 l
-26.23 6.12 l
cp p3
/bg { 0.3882 0.4824 0.5137 srgb } def
np
 304.44 342.68 m
28.73 -12.75 l
15.98 24.81 l
-28.19 11.17 l
cp p3
/bg { 0.3765 0.4706 0.5020 srgb } def
np
 378.35 341.42 m
30.58 -9.91 l
13.70 22.78 l
-29.85 10.36 l
cp p3
/bg { 0.3412 0.4275 0.4549 srgb } def
np
 187.03 318.66 m
25.67 -7.31 l
19.52 24.46 l
-25.37 6.53 l
cp p3
/bg { 0.4000 0.4980 0.5333 srgb } def
np
 452.49 333.39 m
32.12 -10.85 l
10.83 20.05 l
-30.87 13.12 l
cp p3
/bg { 0.3647 0.4549 0.4863 srgb } def
np
 258.83 328.97 m
27.96 -7.79 l
17.65 21.50 l
-27.53 8.93 l
cp p3
/bg { 0.3922 0.4902 0.5216 srgb } def
np
 333.17 329.93 m
29.89 -11.82 l
15.29 23.31 l
-29.20 13.32 l
cp p3
/bg { 0.4510 0.5647 0.6000 srgb } def
np
 408.93 331.51 m
31.45 -14.92 l
12.11 16.80 l
-29.86 20.90 l
cp p3
/bg { 0.3412 0.4275 0.4549 srgb } def
np
 212.70 311.35 m
26.96 -7.67 l
19.17 25.29 l
-26.61 6.84 l
cp p3
/bg { 0.3569 0.4471 0.4784 srgb } def
np
 484.61 322.54 m
34.78 -4.50 l
9.30 17.59 l
-33.25 6.96 l
cp p3
/bg { 0.4118 0.5137 0.5451 srgb } def
np
 286.79 321.18 m
29.40 -16.69 l
16.98 25.44 l
-28.73 12.75 l
cp p3
/bg { 0.3804 0.4745 0.5059 srgb } def
np
 363.06 318.11 m
31.06 -13.89 l
14.81 27.29 l
-30.58 9.91 l
cp p3
/bg { 0.3412 0.4275 0.4549 srgb } def
np
 166.00 293.40 m
25.95 -8.18 l
20.75 26.13 l
-25.67 7.31 l
cp p3
/bg { 0.4078 0.5137 0.5451 srgb } def
np
 440.38 316.59 m
33.40 -10.01 l
10.83 15.96 l
-32.12 10.85 l
cp p3
/bg { 0.3529 0.4392 0.4706 srgb } def
np
 239.66 303.68 m
28.49 -10.81 l
18.64 28.31 l
-27.96 7.79 l
cp p3
/bg { 0.3765 0.4706 0.5020 srgb } def
np
 316.19 304.49 m
30.55 -10.78 l
16.32 24.40 l
-29.89 11.82 l
cp p3
/bg { 0.3804 0.4745 0.5059 srgb } def
np
 394.12 304.22 m
33.11 -6.34 l
13.15 18.71 l
-31.45 14.92 l
cp p3
/bg { 0.3412 0.4275 0.4549 srgb } def
np
 191.95 285.22 m
27.30 -8.60 l
20.41 27.06 l
-26.96 7.67 l
cp p3
/bg { 0.3569 0.4471 0.4784 srgb } def
np
 473.78 306.58 m
36.50 -2.18 l
9.11 13.64 l
-34.78 4.50 l
cp p3
/bg { 0.3961 0.4980 0.5294 srgb } def
np
 268.15 292.87 m
29.86 -12.42 l
18.18 24.04 l
-29.40 16.69 l
cp p3
/bg { 0.3843 0.4824 0.5137 srgb } def
np
 346.74 293.71 m
32.33 -5.54 l
15.05 16.05 l
-31.06 13.89 l
cp p3
/bg { 0.3373 0.4235 0.4510 srgb } def
np
 143.80 265.50 m
26.20 -9.16 l
21.95 28.88 l
-25.95 8.18 l
cp p3
/bg { 0.3922 0.4902 0.5216 srgb } def
np
 427.23 297.88 m
34.90 -7.67 l
11.65 16.37 l
-33.40 10.01 l
cp p3
/bg { 0.3686 0.4627 0.4902 srgb } def
np
 219.25 276.62 m
29.11 -14.00 l
19.79 30.25 l
-28.49 10.81 l
cp p3
np
 298.01 280.45 m
31.27 -7.03 l
17.46 20.29 l
-30.55 10.78 l
cp p3
/bg { 0.3804 0.4745 0.5059 srgb } def
np
 379.07 288.17 m
34.18 -7.30 l
13.98 17.01 l
-33.11 6.34 l
cp p3
/bg { 0.3373 0.4235 0.4510 srgb } def
np
 170.00 256.34 m
27.59 -9.62 l
21.66 29.90 l
-27.30 8.60 l
cp p3
/bg { 0.3490 0.4353 0.4627 srgb } def
np
 462.13 290.21 m
37.35 -5.42 l
10.80 19.61 l
-36.50 2.18 l
cp p3
/bg { 0.3490 0.4392 0.4667 srgb } def
np
 248.36 262.62 m
30.03 -6.17 l
19.62 24.00 l
-29.86 12.42 l
cp p3
/bg { 0.3529 0.4431 0.4706 srgb } def
np
 329.28 273.42 m
33.17 -6.92 l
16.62 21.67 l
-32.33 5.54 l
cp p3
/bg { 0.3216 0.4000 0.4275 srgb } def
np
 121.17 231.03 m
26.31 -10.32 l
22.52 35.63 l
-26.20 9.16 l
cp p3
/bg { 0.3882 0.4824 0.5137 srgb } def
np
 413.25 280.87 m
36.05 -9.15 l
12.83 18.49 l
-34.90 7.67 l
cp p3
/bg { 0.3686 0.4588 0.4902 srgb } def
np
 197.59 246.72 m
29.05 -9.41 l
21.72 25.31 l
-29.11 14.00 l
cp p3
/bg { 0.3451 0.4314 0.4588 srgb } def
np
 278.39 256.45 m
31.94 -7.24 l
18.95 24.21 l
-31.27 7.03 l
cp p3
/bg { 0.3608 0.4510 0.4824 srgb } def
np
 362.45 266.50 m
35.13 -8.86 l
15.67 23.23 l
-34.18 7.30 l
cp p3
/bg { 0.3176 0.3961 0.4235 srgb } def
np
 147.48 220.71 m
27.65 -10.12 l
22.46 36.13 l
-27.59 9.62 l
cp p3
/bg { 0.3608 0.4510 0.4824 srgb } def
np
 449.30 271.72 m
38.72 -6.39 l
11.46 19.46 l
-37.35 5.42 l
cp p3
/bg { 0.3373 0.4235 0.4510 srgb } def
np
 226.64 237.31 m
30.70 -9.43 l
21.05 28.57 l
-30.03 6.17 l
cp p3
/bg { 0.3490 0.4353 0.4627 srgb } def
np
 310.33 249.21 m
33.98 -8.29 l
18.14 25.58 l
-33.17 6.92 l
cp p3
/bg { 0.2667 0.3333 0.3529 srgb } def
np
 101.81 175.69 m
25.15 -8.01 l
20.52 53.03 l
-26.31 10.32 l
cp p3
/bg { 0.3686 0.4588 0.4902 srgb } def
np
 397.58 257.64 m
37.29 -9.45 l
14.43 23.53 l
-36.05 9.15 l
cp p3
/bg { 0.3176 0.3961 0.4196 srgb } def
np
 175.13 210.59 m
29.21 -10.39 l
22.30 37.11 l
-29.05 9.41 l
cp p3
/bg { 0.3333 0.4157 0.4431 srgb } def
np
 257.34 227.88 m
32.57 -9.90 l
20.42 31.23 l
-31.94 7.24 l
cp p3
/bg { 0.3529 0.4431 0.4706 srgb } def
np
 344.31 240.92 m
36.20 -8.36 l
17.07 25.08 l
-35.13 8.86 l
cp p3
/bg { 0.2745 0.3412 0.3647 srgb } def
np
 126.96 167.68 m
27.16 -10.54 l
21.01 53.45 l
-27.65 10.12 l
cp p3
/bg { 0.3490 0.4353 0.4627 srgb } def
np
 434.87 248.19 m
40.10 -7.07 l
13.05 24.21 l
-38.72 6.39 l
cp p3
/bg { 0.3137 0.3922 0.4157 srgb } def
np
 204.34 200.20 m
30.92 -10.20 l
22.08 37.88 l
-30.70 9.43 l
cp p3
/bg { 0.3294 0.4118 0.4392 srgb } def
np
 289.91 217.98 m
34.64 -9.95 l
19.76 32.89 l
-33.98 8.29 l
cp p3
/bg { 0.3647 0.4549 0.4824 srgb } def
np
 380.51 232.56 m
38.58 -9.80 l
15.78 25.43 l
-37.29 9.45 l
cp p3
/bg { 0.2745 0.3451 0.3686 srgb } def
np
 154.12 157.14 m
28.97 -12.02 l
21.25 55.08 l
-29.21 10.39 l
cp p3
/bg { 0.3137 0.3922 0.4196 srgb } def
np
 235.26 190.00 m
32.92 -10.93 l
21.73 38.91 l
-32.57 9.90 l
cp p3
/bg { 0.3176 0.4000 0.4235 srgb } def
np
 324.55 208.03 m
37.08 -7.41 l
18.88 31.94 l
-36.20 8.36 l
cp p3
/bg { 0.3451 0.4314 0.4627 srgb } def
np
 419.09 222.76 m
41.48 -8.62 l
14.40 26.98 l
-40.10 7.07 l
cp p3
/bg { 0.2745 0.3412 0.3647 srgb } def
np
 183.09 145.12 m
30.74 -12.64 l
21.43 57.52 l
-30.92 10.20 l
cp p3
/bg { 0.3098 0.3882 0.4157 srgb } def
np
 268.18 179.07 m
35.10 -10.81 l
21.27 39.77 l
-34.64 9.95 l
cp p3
/bg { 0.3373 0.4235 0.4510 srgb } def
np
 361.63 200.62 m
39.70 -10.52 l
17.76 32.66 l
-38.58 9.80 l
cp p3
/bg { 0.2745 0.3412 0.3647 srgb } def
np
 213.83 132.48 m
32.76 -13.92 l
21.59 60.51 l
-32.92 10.93 l
cp p3
/bg { 0.2902 0.3647 0.3882 srgb } def
np
 303.28 168.26 m
37.65 -8.51 l
20.70 40.87 l
-37.08 7.41 l
cp p3
/bg { 0.3294 0.4078 0.4353 srgb } def
np
 401.33 190.10 m
42.87 -9.38 l
16.37 33.42 l
-41.48 8.62 l
cp p3
/bg { 0.2706 0.3373 0.3569 srgb } def
np
 246.59 118.56 m
34.89 -14.69 l
21.80 64.39 l
-35.10 10.81 l
cp p3
/bg { 0.3098 0.3882 0.4118 srgb } def
np
 340.93 159.75 m
40.54 -11.78 l
19.86 42.13 l
-39.70 10.52 l
cp p3
/bg { 0.2549 0.3176 0.3412 srgb } def
np
 281.48 103.87 m
37.25 -15.15 l
22.20 71.03 l
-37.65 8.51 l
cp p3
/bg { 0.2980 0.3725 0.4000 srgb } def
np
 381.47 147.97 m
43.94 -10.66 l
18.79 43.41 l
-42.87 9.38 l
cp p3
/bg { 0.2627 0.3255 0.3490 srgb } def
np
 318.73 88.72 m
39.89 -16.98 l
22.85 76.23 l
-40.54 11.78 l
cp p3
/bg { 0.2471 0.3098 0.3294 srgb } def
np
 358.62 71.74 m
42.96 -16.17 l
23.83 81.74 l
-43.94 10.66 l
cp p3
0.75 setlinewidth
[ 0.00 3.00] 0 setdash
np
66.94 322.00 m
349.86 -111.17 l
o
np
416.80 210.83 m
-16.84 -171.72 l
o
np
416.80 210.83 m
118.66 160.42 l
o
ep
%%Trailer
%%Pages: 1
%%EOF
