%!PS-Adobe-3.0 EPSF-3.0
%%DocumentNeededResources: font Helvetica
%%+ font Helvetica-Bold
%%+ font Helvetica-Oblique
%%+ font Helvetica-BoldOblique
%%+ font Symbol
%%Title: R Graphics Output
%%Creator: R Software
%%Pages: (atend)
%%BoundingBox: 0 0 576 432
%%EndComments
%%BeginProlog
/bp  { gs sRGB gs } def
% begin .ps.prolog
/gs  { gsave } bind def
/gr  { grestore } bind def
/ep  { showpage gr gr } bind def
/m   { moveto } bind def
/l  { rlineto } bind def
/np  { newpath } bind def
/cp  { closepath } bind def
/f   { fill } bind def
/o   { stroke } bind def
/c   { newpath 0 360 arc } bind def
/r   { 4 2 roll moveto 1 copy 3 -1 roll exch 0 exch rlineto 0 rlineto -1 mul 0 exch rlineto closepath } bind def
/p1  { stroke } bind def
/p2  { gsave bg fill grestore newpath } bind def
/p3  { gsave bg fill grestore stroke } bind def
/p6  { gsave bg eofill grestore newpath } bind def
/p7  { gsave bg eofill grestore stroke } bind def
/t   { 5 -2 roll moveto gsave rotate
       1 index stringwidth pop
       mul neg 0 rmoveto show grestore } bind def
/ta  { 4 -2 roll moveto gsave rotate show } bind def
/tb  { 2 -1 roll 0 rmoveto show } bind def
/cl  { grestore gsave newpath 3 index 3 index moveto 1 index
       4 -1 roll lineto  exch 1 index lineto lineto
       closepath clip newpath } bind def
/rgb { setrgbcolor } bind def
/s   { scalefont setfont } bind def
% end   .ps.prolog
/sRGB { [ /CIEBasedABC
          << /DecodeLMN
               [ { dup 0.03928 le
                        {12.92321 div}
                        {0.055 add 1.055 div 2.4 exp }
                     ifelse
                 } bind dup dup
               ]
             /MatrixLMN [0.412457 0.212673 0.019334
                         0.357576 0.715152 0.119192
                         0.180437 0.072175 0.950301]
             /WhitePoint [0.9505 1.0 1.0890]
           >>
         ] setcolorspace } bind def
/srgb { setcolor } bind def
%%IncludeResource: font Helvetica
/Helvetica findfont
dup length dict begin
  {1 index /FID ne {def} {pop pop} ifelse} forall
  /Encoding ISOLatin1Encoding def
  currentdict
  end
/Font1 exch definefont pop
%%IncludeResource: font Helvetica-Bold
/Helvetica-Bold findfont
dup length dict begin
  {1 index /FID ne {def} {pop pop} ifelse} forall
  /Encoding ISOLatin1Encoding def
  currentdict
  end
/Font2 exch definefont pop
%%IncludeResource: font Helvetica-Oblique
/Helvetica-Oblique findfont
dup length dict begin
  {1 index /FID ne {def} {pop pop} ifelse} forall
  /Encoding ISOLatin1Encoding def
  currentdict
  end
/Font3 exch definefont pop
%%IncludeResource: font Helvetica-BoldOblique
/Helvetica-BoldOblique findfont
dup length dict begin
  {1 index /FID ne {def} {pop pop} ifelse} forall
  /Encoding ISOLatin1Encoding def
  currentdict
  end
/Font4 exch definefont pop
%%IncludeResource: font Symbol
/Symbol findfont
dup length dict begin
  {1 index /FID ne {def} {pop pop} ifelse} forall
  currentdict
  end
/Font5 exch definefont pop
%%EndProlog
%%Page: 1 1
bp
26.40 24.00 576.00 432.00 cl
0 0 0 srgb
0.75 setlinewidth
[] 0 setdash
1 setlinecap
1 setlinejoin
10.00 setmiterlimit
np
280.56 303.88 m
230.13 -63.09 l
o
np
510.69 240.79 m
24.77 130.46 l
o
np
535.46 371.25 m
-259.40 45.64 l
o
np
276.06 416.89 m
4.50 -113.01 l
o
np
101.81 175.69 m
178.75 128.19 l
o
np
276.06 416.89 m
-209.12 -94.89 l
o
np
66.94 322.00 m
34.87 -146.31 l
o
np
101.81 175.69 m
298.15 -136.58 l
o
np
399.96 39.11 m
110.73 201.68 l
o
0.00 0.00 576.00 432.00 cl
/Font1 findfont 20 s
0 0 0 srgb
221.61 61.84 (Ki) .5 -25.22 t
0.75 setlinewidth
[] 0 setdash
1 setlinecap
1 setlinejoin
10.00 setmiterlimit
np
127.79 163.79 m
-6.67 -9.64 l
o
114.34 137.16 (2) .5 0 t
np
184.20 137.95 m
-6.55 -10.43 l
o
170.99 109.73 (4) .5 0 t
np
247.43 108.98 m
-6.35 -11.33 l
o
234.61 78.91 (6) .5 0 t
np
318.79 76.30 m
-6.04 -12.41 l
o
306.59 44.05 (8) .5 0 t
np
399.96 39.11 m
-5.57 -13.67 l
o
388.69 4.29 (10) .5 0 t
505.06 132.81 (K) 62.49 ta
-0.800 (o) tb gr
np
417.80 71.59 m
10.77 -8.97 l
o
439.41 46.41 (2) .5 0 t
np
448.06 126.71 m
9.78 -7.87 l
o
467.68 103.73 (4) .5 0 t
np
472.77 171.72 m
8.95 -7.02 l
o
490.73 150.46 (6) .5 0 t
np
493.32 209.15 m
8.26 -6.32 l
o
509.88 189.30 (8) .5 0 t
np
510.69 240.79 m
7.66 -5.75 l
o
526.04 222.08 (10) .5 0 t
1.14 322.98 (Betw) -75.72 ta
-0.200 (eenness centr) tb
-0.200 (ality) tb gr
np
101.81 175.69 m
-14.46 -2.30 l
o
72.73 163.88 (0.000) .5 0 t
np
92.94 212.91 m
-15.09 -2.19 l
o
62.59 201.32 (0.001) .5 0 t
np
83.33 253.25 m
-15.79 -2.06 l
o
51.58 241.93 (0.002) .5 0 t
np
72.88 297.11 m
-16.55 -1.89 l
o
39.60 286.13 (0.003) .5 0 t
26.40 24.00 576.00 432.00 cl
/bg { 0.6235 0.7765 0.8275 srgb } def
0 0 0 srgb
0.75 setlinewidth
[] 0 setdash
1 setlinecap
1 setlinejoin
10.00 setmiterlimit
np
 260.07 402.92 m
26.18 -58.87 l
14.96 7.28 l
-24.86 58.43 l
cp p3
/bg { 0.4588 0.5725 0.6118 srgb } def
np
 286.25 344.05 m
24.31 -9.36 l
14.32 6.29 l
-23.67 10.35 l
cp p3
/bg { 0.6196 0.7765 0.8275 srgb } def
np
 242.50 395.86 m
27.60 -59.56 l
16.15 7.75 l
-26.18 58.87 l
cp p3
/bg { 0.4353 0.5412 0.5765 srgb } def
np
 310.56 334.69 m
25.21 -9.08 l
13.64 9.04 l
-24.53 6.33 l
cp p3
/bg { 0.4510 0.5647 0.6039 srgb } def
np
 270.10 336.30 m
25.04 -11.99 l
15.42 10.38 l
-24.31 9.36 l
cp p3
/bg { 0.4039 0.5059 0.5373 srgb } def
np
 335.77 325.61 m
26.32 -5.15 l
12.91 8.66 l
-25.59 5.53 l
cp p3
/bg { 0.6235 0.7765 0.8275 srgb } def
np
 223.20 391.65 m
29.66 -67.45 l
17.24 12.10 l
-27.60 59.56 l
cp p3
/bg { 0.4314 0.5412 0.5765 srgb } def
np
 295.14 324.31 m
25.89 -9.72 l
14.74 11.02 l
-25.21 9.08 l
cp p3
/bg { 0.3843 0.4824 0.5137 srgb } def
np
 362.09 320.46 m
27.48 -6.71 l
12.38 12.82 l
-26.95 2.55 l
cp p3
/bg { 0.4431 0.5529 0.5882 srgb } def
np
 252.86 324.20 m
25.54 -8.67 l
16.74 8.78 l
-25.04 11.99 l
cp p3
/bg { 0.3882 0.4824 0.5137 srgb } def
np
 321.03 314.59 m
27.06 -3.66 l
14.00 9.53 l
-26.32 5.15 l
cp p3
/bg { 0.4471 0.5569 0.5922 srgb } def
np
 389.57 313.75 m
28.17 -13.32 l
11.62 14.24 l
-27.41 11.90 l
cp p3
/bg { 0.6078 0.7608 0.8118 srgb } def
np
 202.49 383.50 m
33.14 -88.62 l
17.23 29.32 l
-29.66 67.45 l
cp p3
/bg { 0.4471 0.5608 0.5961 srgb } def
np
 278.40 315.53 m
26.69 -11.89 l
15.94 10.95 l
-25.89 9.72 l
cp p3
/bg { 0.4196 0.5255 0.5608 srgb } def
np
 348.09 310.93 m
28.16 -10.56 l
13.32 13.38 l
-27.48 6.71 l
cp p3
/bg { 0.3686 0.4627 0.4902 srgb } def
np
 417.74 300.43 m
30.18 -5.15 l
10.77 14.63 l
-29.33 4.76 l
cp p3
/bg { 0.3176 0.4000 0.4235 srgb } def
np
 235.63 294.88 m
25.37 -2.73 l
17.40 23.38 l
-25.54 8.67 l
cp p3
/bg { 0.3843 0.4784 0.5098 srgb } def
np
 305.09 303.64 m
27.75 -6.76 l
15.25 14.05 l
-27.06 3.66 l
cp p3
/bg { 0.4392 0.5529 0.5882 srgb } def
np
 376.25 300.37 m
29.62 -7.26 l
11.87 7.32 l
-28.17 13.32 l
cp p3
/bg { 0.6196 0.7725 0.8235 srgb } def
np
 180.49 370.26 m
36.36 -99.05 l
18.78 23.67 l
-33.14 88.62 l
cp p3
/bg { 0.3333 0.4196 0.4471 srgb } def
np
 447.92 295.28 m
31.85 -4.79 l
10.45 19.11 l
-31.53 0.31 l
cp p3
/bg { 0.3725 0.4667 0.4980 srgb } def
np
 261.00 292.15 m
26.91 -4.60 l
17.18 16.09 l
-26.69 11.89 l
cp p3
/bg { 0.4118 0.5137 0.5490 srgb } def
np
 332.84 296.88 m
29.24 -4.58 l
14.17 8.07 l
-28.16 10.56 l
cp p3
/bg { 0.4275 0.5333 0.5686 srgb } def
np
 405.87 293.11 m
30.39 -13.85 l
11.66 16.02 l
-30.18 5.15 l
cp p3
/bg { 0.2980 0.3725 0.3961 srgb } def
np
 216.85 271.21 m
25.40 -0.41 l
18.75 21.35 l
-25.37 2.73 l
cp p3
/bg { 0.4275 0.5333 0.5647 srgb } def
np
 479.77 290.49 m
32.42 -11.53 l
8.83 16.27 l
-30.80 14.37 l
cp p3
/bg { 0.3608 0.4549 0.4824 srgb } def
np
 287.91 287.55 m
28.37 1.85 l
16.56 7.48 l
-27.75 6.76 l
cp p3
/bg { 0.4235 0.5294 0.5647 srgb } def
np
 362.08 292.30 m
30.75 -6.97 l
13.04 7.78 l
-29.62 7.26 l
cp p3
/bg { 0.6314 0.7882 0.8392 srgb } def
np
 156.58 356.17 m
38.57 -96.36 l
21.70 11.40 l
-36.36 99.05 l
cp p3
/bg { 0.3647 0.4549 0.4863 srgb } def
np
 436.26 279.26 m
32.61 -6.95 l
10.90 18.18 l
-31.85 4.79 l
cp p3
/bg { 0.3255 0.4078 0.4353 srgb } def
np
 242.25 270.80 m
27.18 -2.47 l
18.48 19.22 l
-26.91 4.60 l
cp p3
/bg { 0.4118 0.5137 0.5490 srgb } def
np
 316.28 289.40 m
30.15 -9.15 l
15.65 12.05 l
-29.24 4.58 l
cp p3
/bg { 0.4824 0.6039 0.6431 srgb } def
np
 392.83 285.33 m
31.50 -16.52 l
11.93 10.45 l
-30.39 13.85 l
cp p3
/bg { 0.3490 0.4353 0.4627 srgb } def
np
 195.15 259.81 m
25.92 -1.33 l
21.18 12.32 l
-25.40 0.41 l
cp p3
/bg { 0.4039 0.5059 0.5412 srgb } def
np
 468.87 272.31 m
34.11 -8.92 l
9.21 15.57 l
-32.42 11.53 l
cp p3
/bg { 0.3020 0.3804 0.4039 srgb } def
np
 269.43 268.33 m
29.01 -6.14 l
17.84 27.21 l
-28.37 -1.85 l
cp p3
/bg { 0.4118 0.5137 0.5490 srgb } def
np
 346.43 280.25 m
31.53 -12.48 l
14.87 17.56 l
-30.75 6.97 l
cp p3
/bg { 0.5961 0.7451 0.7961 srgb } def
np
 135.97 310.02 m
35.35 -62.40 l
23.83 12.19 l
-38.57 96.36 l
cp p3
/bg { 0.4157 0.5176 0.5529 srgb } def
np
 424.33 268.81 m
33.60 -9.86 l
10.94 13.36 l
-32.61 6.95 l
cp p3
/bg { 0.3608 0.4510 0.4824 srgb } def
np
 221.07 258.48 m
27.83 -3.13 l
20.53 12.98 l
-27.18 2.47 l
cp p3
/bg { 0.3412 0.4275 0.4549 srgb } def
np
 298.44 262.19 m
30.72 -7.02 l
17.27 25.08 l
-30.15 9.15 l
cp p3
/bg { 0.4471 0.5608 0.5961 srgb } def
np
 377.96 267.77 m
32.99 -13.06 l
13.38 14.10 l
-31.50 16.52 l
cp p3
/bg { 0.3608 0.4510 0.4824 srgb } def
np
 171.32 247.62 m
27.10 -7.53 l
22.65 18.39 l
-25.92 1.33 l
cp p3
/bg { 0.4078 0.5098 0.5451 srgb } def
np
 457.93 258.95 m
35.90 -7.26 l
9.15 11.70 l
-34.11 8.92 l
cp p3
/bg { 0.3961 0.4941 0.5255 srgb } def
np
 248.90 255.35 m
29.93 -8.85 l
19.61 15.69 l
-29.01 6.14 l
cp p3
/bg { 0.3804 0.4745 0.5059 srgb } def
np
 329.16 255.17 m
32.48 -9.23 l
16.32 21.83 l
-31.53 12.48 l
cp p3
/bg { 0.5255 0.6549 0.6980 srgb } def
np
 115.78 257.29 m
29.82 -26.16 l
25.72 16.49 l
-35.35 62.40 l
cp p3
/bg { 0.4235 0.5294 0.5647 srgb } def
np
 410.95 254.71 m
34.41 -14.79 l
12.57 19.03 l
-33.60 9.86 l
cp p3
/bg { 0.3373 0.4196 0.4471 srgb } def
np
 198.42 240.09 m
28.25 -3.09 l
22.23 18.35 l
-27.83 3.13 l
cp p3
/bg { 0.3961 0.4941 0.5255 srgb } def
np
 278.83 246.50 m
31.70 -13.12 l
18.63 21.79 l
-30.72 7.02 l
cp p3
/bg { 0.4118 0.5137 0.5451 srgb } def
np
 361.64 245.94 m
33.88 -16.00 l
15.43 24.77 l
-32.99 13.06 l
cp p3
/bg { 0.4000 0.5020 0.5333 srgb } def
np
 145.60 231.13 m
29.01 -17.16 l
23.81 26.12 l
-27.10 7.53 l
cp p3
/bg { 0.3686 0.4627 0.4941 srgb } def
np
 445.36 239.92 m
37.33 -7.28 l
11.14 19.05 l
-35.90 7.26 l
cp p3
/bg { 0.4000 0.5020 0.5333 srgb } def
np
 226.67 237.00 m
31.20 -17.18 l
20.96 26.68 l
-29.93 8.85 l
cp p3
/bg { 0.3843 0.4824 0.5137 srgb } def
np
 310.53 233.38 m
33.27 -15.54 l
17.84 28.10 l
-32.48 9.23 l
cp p3
/bg { 0.2000 0.2510 0.2706 srgb } def
np
 101.81 175.69 m
17.29 28.92 l
26.50 26.52 l
-29.82 26.16 l
cp p3
/bg { 0.3961 0.4941 0.5255 srgb } def
np
 395.52 229.94 m
36.34 -8.50 l
13.50 18.48 l
-34.41 14.79 l
cp p3
/bg { 0.2941 0.3686 0.3922 srgb } def
np
 174.61 213.97 m
27.90 0.97 l
24.16 22.06 l
-28.25 3.09 l
cp p3
/bg { 0.3765 0.4706 0.5020 srgb } def
np
 257.87 219.82 m
32.31 -9.74 l
20.35 23.30 l
-31.70 13.12 l
cp p3
/bg { 0.3843 0.4784 0.5098 srgb } def
np
 343.80 217.84 m
35.48 -6.04 l
16.24 18.14 l
-33.88 16.00 l
cp p3
/bg { 0.3412 0.4275 0.4549 srgb } def
np
 119.10 204.61 m
18.71 40.40 l
36.80 -31.04 l
-29.01 17.16 l
cp p3
/bg { 0.3804 0.4784 0.5098 srgb } def
np
 431.86 221.44 m
38.19 -12.30 l
12.64 23.50 l
-37.33 7.28 l
cp p3
/bg { 0.4392 0.5490 0.5843 srgb } def
np
 202.51 214.94 m
32.21 -19.16 l
23.15 24.04 l
-31.20 17.18 l
cp p3
/bg { 0.3882 0.4863 0.5176 srgb } def
np
 290.18 210.08 m
34.38 2.62 l
19.24 5.14 l
-33.27 15.54 l
cp p3
/bg { 0.3961 0.4980 0.5294 srgb } def
np
 379.28 211.80 m
37.13 -16.01 l
15.45 25.65 l
-36.34 8.50 l
cp p3
/bg { 0.4627 0.5804 0.6157 srgb } def
np
 137.81 245.01 m
28.65 6.89 l
36.05 -36.96 l
-27.90 -0.97 l
cp p3
/bg { 0.3725 0.4667 0.4980 srgb } def
np
 234.72 195.78 m
33.27 -13.40 l
22.19 27.70 l
-32.31 9.74 l
cp p3
/bg { 0.4510 0.5647 0.6000 srgb } def
np
 324.56 212.70 m
36.62 -22.82 l
18.10 21.92 l
-35.48 6.04 l
cp p3
/bg { 0.3882 0.4824 0.5137 srgb } def
np
 416.41 195.79 m
39.35 -15.30 l
14.29 28.65 l
-38.19 12.30 l
cp p3
/bg { 0.5373 0.6706 0.7137 srgb } def
np
 166.46 251.90 m
33.86 -9.66 l
34.40 -46.46 l
-32.21 19.16 l
cp p3
/bg { 0.2627 0.3255 0.3490 srgb } def
np
 267.99 182.38 m
34.95 1.89 l
21.62 28.43 l
-34.38 -2.62 l
cp p3
/bg { 0.4157 0.5216 0.5569 srgb } def
np
 361.18 189.88 m
39.31 -9.77 l
15.92 15.68 l
-37.13 16.01 l
cp p3
/bg { 0.5373 0.6745 0.7176 srgb } def
np
 200.32 242.24 m
37.13 -19.08 l
30.54 -40.78 l
-33.27 13.40 l
cp p3
/bg { 0.4471 0.5569 0.5922 srgb } def
np
 302.94 184.27 m
38.06 -20.91 l
20.18 26.52 l
-36.62 22.82 l
cp p3
/bg { 0.4510 0.5608 0.6000 srgb } def
np
 400.49 180.11 m
41.41 -16.98 l
13.86 17.36 l
-39.35 15.30 l
cp p3
/bg { 0.4627 0.5765 0.6157 srgb } def
np
 237.45 223.16 m
37.65 13.49 l
27.84 -52.38 l
-34.95 -1.89 l
cp p3
/bg { 0.3608 0.4510 0.4784 srgb } def
np
 341.00 163.36 m
40.77 -10.83 l
18.72 27.58 l
-39.31 9.77 l
cp p3
/bg { 0.5451 0.6824 0.7255 srgb } def
np
 275.10 236.65 m
43.05 -18.33 l
22.85 -54.96 l
-38.06 20.91 l
cp p3
/bg { 0.4196 0.5255 0.5608 srgb } def
np
 381.77 152.53 m
42.56 -24.54 l
17.57 35.14 l
-41.41 16.98 l
cp p3
/bg { 0.5098 0.6353 0.6745 srgb } def
np
 318.15 218.32 m
46.94 0.79 l
16.68 -66.58 l
-40.77 10.83 l
cp p3
/bg { 0.5608 0.7020 0.7490 srgb } def
np
 365.09 219.11 m
49.11 -34.87 l
10.13 -56.25 l
-42.56 24.54 l
cp p3
0.75 setlinewidth
[ 0.00 3.00] 0 setdash
np
66.94 322.00 m
349.86 -111.17 l
o
np
416.80 210.83 m
-16.84 -171.72 l
o
np
416.80 210.83 m
118.66 160.42 l
o
ep
%%Trailer
%%Pages: 1
%%EOF
