%!PS-Adobe-3.0 EPSF-3.0
%%DocumentNeededResources: font Helvetica
%%+ font Helvetica-Bold
%%+ font Helvetica-Oblique
%%+ font Helvetica-BoldOblique
%%+ font Symbol
%%Title: R Graphics Output
%%Creator: R Software
%%Pages: (atend)
%%BoundingBox: 0 0 576 432
%%EndComments
%%BeginProlog
/bp  { gs sRGB gs } def
% begin .ps.prolog
/gs  { gsave } bind def
/gr  { grestore } bind def
/ep  { showpage gr gr } bind def
/m   { moveto } bind def
/l  { rlineto } bind def
/np  { newpath } bind def
/cp  { closepath } bind def
/f   { fill } bind def
/o   { stroke } bind def
/c   { newpath 0 360 arc } bind def
/r   { 4 2 roll moveto 1 copy 3 -1 roll exch 0 exch rlineto 0 rlineto -1 mul 0 exch rlineto closepath } bind def
/p1  { stroke } bind def
/p2  { gsave bg fill grestore newpath } bind def
/p3  { gsave bg fill grestore stroke } bind def
/p6  { gsave bg eofill grestore newpath } bind def
/p7  { gsave bg eofill grestore stroke } bind def
/t   { 5 -2 roll moveto gsave rotate
       1 index stringwidth pop
       mul neg 0 rmoveto show grestore } bind def
/ta  { 4 -2 roll moveto gsave rotate show } bind def
/tb  { 2 -1 roll 0 rmoveto show } bind def
/cl  { grestore gsave newpath 3 index 3 index moveto 1 index
       4 -1 roll lineto  exch 1 index lineto lineto
       closepath clip newpath } bind def
/rgb { setrgbcolor } bind def
/s   { scalefont setfont } bind def
% end   .ps.prolog
/sRGB { [ /CIEBasedABC
          << /DecodeLMN
               [ { dup 0.03928 le
                        {12.92321 div}
                        {0.055 add 1.055 div 2.4 exp }
                     ifelse
                 } bind dup dup
               ]
             /MatrixLMN [0.412457 0.212673 0.019334
                         0.357576 0.715152 0.119192
                         0.180437 0.072175 0.950301]
             /WhitePoint [0.9505 1.0 1.0890]
           >>
         ] setcolorspace } bind def
/srgb { setcolor } bind def
%%IncludeResource: font Helvetica
/Helvetica findfont
dup length dict begin
  {1 index /FID ne {def} {pop pop} ifelse} forall
  /Encoding ISOLatin1Encoding def
  currentdict
  end
/Font1 exch definefont pop
%%IncludeResource: font Helvetica-Bold
/Helvetica-Bold findfont
dup length dict begin
  {1 index /FID ne {def} {pop pop} ifelse} forall
  /Encoding ISOLatin1Encoding def
  currentdict
  end
/Font2 exch definefont pop
%%IncludeResource: font Helvetica-Oblique
/Helvetica-Oblique findfont
dup length dict begin
  {1 index /FID ne {def} {pop pop} ifelse} forall
  /Encoding ISOLatin1Encoding def
  currentdict
  end
/Font3 exch definefont pop
%%IncludeResource: font Helvetica-BoldOblique
/Helvetica-BoldOblique findfont
dup length dict begin
  {1 index /FID ne {def} {pop pop} ifelse} forall
  /Encoding ISOLatin1Encoding def
  currentdict
  end
/Font4 exch definefont pop
%%IncludeResource: font Symbol
/Symbol findfont
dup length dict begin
  {1 index /FID ne {def} {pop pop} ifelse} forall
  currentdict
  end
/Font5 exch definefont pop
%%EndProlog
%%Page: 1 1
bp
26.40 24.00 576.00 432.00 cl
0 0 0 srgb
0.75 setlinewidth
[] 0 setdash
1 setlinecap
1 setlinejoin
10.00 setmiterlimit
np
280.56 303.88 m
230.13 -63.09 l
o
np
510.69 240.79 m
24.77 130.46 l
o
np
535.46 371.25 m
-259.40 45.64 l
o
np
276.06 416.89 m
4.50 -113.01 l
o
np
101.81 175.69 m
178.75 128.19 l
o
np
276.06 416.89 m
-209.12 -94.89 l
o
np
66.94 322.00 m
34.87 -146.31 l
o
np
101.81 175.69 m
298.15 -136.58 l
o
np
399.96 39.11 m
110.73 201.68 l
o
0.00 0.00 576.00 432.00 cl
/Font1 findfont 20 s
0 0 0 srgb
221.61 61.84 (Ki) .5 -25.22 t
0.75 setlinewidth
[] 0 setdash
1 setlinecap
1 setlinejoin
10.00 setmiterlimit
np
127.79 163.79 m
-6.67 -9.64 l
o
114.34 137.16 (2) .5 0 t
np
184.20 137.95 m
-6.55 -10.43 l
o
170.99 109.73 (4) .5 0 t
np
247.43 108.98 m
-6.35 -11.33 l
o
234.61 78.91 (6) .5 0 t
np
318.79 76.30 m
-6.04 -12.41 l
o
306.59 44.05 (8) .5 0 t
np
399.96 39.11 m
-5.57 -13.67 l
o
388.69 4.29 (10) .5 0 t
505.06 132.81 (K) 62.49 ta
-0.800 (o) tb gr
np
417.80 71.59 m
10.77 -8.97 l
o
439.41 46.41 (2) .5 0 t
np
448.06 126.71 m
9.78 -7.87 l
o
467.68 103.73 (4) .5 0 t
np
472.77 171.72 m
8.95 -7.02 l
o
490.73 150.46 (6) .5 0 t
np
493.32 209.15 m
8.26 -6.32 l
o
509.88 189.30 (8) .5 0 t
np
510.69 240.79 m
7.66 -5.75 l
o
526.04 222.08 (10) .5 0 t
25.90 225.36 (Edge addition) .5 -75.72 t
np
101.81 175.69 m
-14.46 -2.30 l
o
72.73 163.88 (0.00) .5 0 t
np
95.00 204.27 m
-14.95 -2.23 l
o
64.94 192.62 (0.02) .5 0 t
np
87.76 234.66 m
-15.47 -2.12 l
o
56.65 223.21 (0.04) .5 0 t
np
80.04 267.06 m
-16.02 -2.01 l
o
47.81 255.84 (0.06) .5 0 t
np
71.79 301.65 m
-16.62 -1.87 l
o
38.35 290.71 (0.08) .5 0 t
26.40 24.00 576.00 432.00 cl
/bg { 0.3373 0.4235 0.4510 srgb } def
0 0 0 srgb
0.75 setlinewidth
[] 0 setdash
1 setlinecap
1 setlinejoin
10.00 setmiterlimit
np
 261.15 382.88 m
23.98 -5.00 l
15.17 20.72 l
-23.69 4.46 l
cp p3
/bg { 0.3490 0.4353 0.4627 srgb } def
np
 285.13 377.88 m
25.01 -5.22 l
14.85 19.92 l
-24.69 6.02 l
cp p3
/bg { 0.3294 0.4118 0.4392 srgb } def
np
 245.01 359.94 m
24.22 -5.63 l
15.90 23.57 l
-23.98 5.00 l
cp p3
/bg { 0.3412 0.4275 0.4549 srgb } def
np
 310.14 372.66 m
26.13 -6.42 l
14.47 22.13 l
-25.75 4.21 l
cp p3
/bg { 0.3294 0.4118 0.4392 srgb } def
np
 269.23 354.31 m
25.30 -5.88 l
15.61 24.23 l
-25.01 5.22 l
cp p3
/bg { 0.3608 0.4510 0.4784 srgb } def
np
 336.27 366.24 m
27.20 -8.21 l
14.03 22.57 l
-26.76 7.77 l
cp p3
/bg { 0.3294 0.4118 0.4392 srgb } def
np
 228.07 335.63 m
24.46 -6.31 l
16.70 24.99 l
-24.22 5.63 l
cp p3
/bg { 0.3373 0.4235 0.4510 srgb } def
np
 294.53 348.43 m
26.46 -6.59 l
15.28 24.40 l
-26.13 6.42 l
cp p3
/bg { 0.3804 0.4745 0.5059 srgb } def
np
 363.47 358.03 m
28.25 -10.24 l
13.43 22.14 l
-27.65 10.67 l
cp p3
/bg { 0.3294 0.4118 0.4392 srgb } def
np
 252.53 329.32 m
25.57 -6.61 l
16.43 25.72 l
-25.30 5.88 l
cp p3
/bg { 0.3569 0.4471 0.4745 srgb } def
np
 320.99 341.84 m
27.60 -10.02 l
14.88 26.21 l
-27.20 8.21 l
cp p3
/bg { 0.3608 0.4510 0.4784 srgb } def
np
 391.72 347.79 m
29.41 -9.95 l
13.06 25.01 l
-29.04 7.08 l
cp p3
/bg { 0.3333 0.4196 0.4471 srgb } def
np
 210.13 311.37 m
24.71 -7.05 l
17.69 25.00 l
-24.46 6.31 l
cp p3
/bg { 0.3373 0.4196 0.4471 srgb } def
np
 278.10 322.71 m
26.81 -8.27 l
16.08 27.40 l
-26.46 6.59 l
cp p3
/bg { 0.3647 0.4549 0.4863 srgb } def
np
 348.59 331.82 m
28.67 -11.64 l
14.46 27.61 l
-28.25 10.24 l
cp p3
/bg { 0.4235 0.5294 0.5608 srgb } def
np
 421.13 337.84 m
29.90 -16.57 l
12.22 24.15 l
-29.06 17.43 l
cp p3
/bg { 0.3333 0.4196 0.4471 srgb } def
np
 234.84 304.32 m
25.88 -7.38 l
17.38 25.77 l
-25.57 6.61 l
cp p3
/bg { 0.3569 0.4471 0.4745 srgb } def
np
 304.91 314.44 m
27.99 -11.06 l
15.69 28.44 l
-27.60 10.02 l
cp p3
/bg { 0.3529 0.4392 0.4706 srgb } def
np
 377.26 320.18 m
30.02 -9.40 l
13.85 27.06 l
-29.41 9.95 l
cp p3
/bg { 0.3373 0.4196 0.4471 srgb } def
np
 191.19 285.84 m
24.96 -7.85 l
18.69 26.33 l
-24.71 7.05 l
cp p3
/bg { 0.3647 0.4588 0.4863 srgb } def
np
 451.03 321.27 m
33.38 -0.09 l
9.50 11.71 l
-30.66 12.53 l
cp p3
/bg { 0.3451 0.4314 0.4588 srgb } def
np
 260.72 296.94 m
27.14 -8.04 l
17.05 25.54 l
-26.81 8.27 l
cp p3
/bg { 0.3608 0.4510 0.4824 srgb } def
np
 332.90 303.38 m
29.19 -10.76 l
15.17 27.56 l
-28.67 11.64 l
cp p3
/bg { 0.3804 0.4745 0.5059 srgb } def
np
 407.28 310.78 m
32.47 0.05 l
11.28 10.44 l
-29.90 16.57 l
cp p3
/bg { 0.3373 0.4196 0.4471 srgb } def
np
 216.15 277.99 m
26.18 -8.23 l
18.39 27.18 l
-25.88 7.38 l
cp p3
/bg { 0.2784 0.3490 0.3686 srgb } def
np
 484.41 321.18 m
37.90 12.70 l
7.42 7.21 l
-35.82 -8.20 l
cp p3
/bg { 0.3765 0.4667 0.4980 srgb } def
np
 287.86 288.90 m
28.50 -13.23 l
16.54 27.71 l
-27.99 11.06 l
cp p3
/bg { 0.3451 0.4314 0.4588 srgb } def
np
 362.09 292.62 m
30.68 -8.30 l
14.51 26.46 l
-30.02 9.40 l
cp p3
/bg { 0.3490 0.4392 0.4667 srgb } def
np
 170.70 262.05 m
25.27 -8.69 l
20.18 24.63 l
-24.96 7.85 l
cp p3
/bg { 0.3451 0.4314 0.4627 srgb } def
np
 439.75 310.83 m
35.08 3.12 l
9.58 7.23 l
-33.38 0.09 l
cp p3
/bg { 0.3412 0.4235 0.4549 srgb } def
np
 242.33 269.76 m
27.54 -9.85 l
17.99 28.99 l
-27.14 8.04 l
cp p3
/bg { 0.3490 0.4392 0.4667 srgb } def
np
 316.36 275.67 m
29.80 -6.92 l
15.93 23.87 l
-29.19 10.76 l
cp p3
/bg { 0.2510 0.3098 0.3333 srgb } def
np
 392.77 284.32 m
34.79 16.89 l
12.19 9.62 l
-32.47 -0.05 l
cp p3
/bg { 0.3490 0.4392 0.4667 srgb } def
np
 195.97 253.36 m
26.54 -9.13 l
19.82 25.53 l
-26.18 8.23 l
cp p3
/bg { 0.2784 0.3490 0.3725 srgb } def
np
 474.83 313.95 m
39.84 15.14 l
7.64 4.79 l
-37.90 -12.70 l
cp p3
/bg { 0.3569 0.4431 0.4745 srgb } def
np
 269.87 259.91 m
28.74 -4.81 l
17.75 20.57 l
-28.50 13.23 l
cp p3
/bg { 0.3255 0.4078 0.4353 srgb } def
np
 346.16 268.75 m
32.23 7.00 l
14.38 8.57 l
-30.68 8.30 l
cp p3
/bg { 0.3412 0.4275 0.4549 srgb } def
np
 149.17 234.95 m
25.53 -9.65 l
21.27 28.06 l
-25.27 8.69 l
cp p3
/bg { 0.3294 0.4118 0.4392 srgb } def
np
 427.56 301.21 m
36.77 5.42 l
10.50 7.32 l
-35.08 -3.12 l
cp p3
/bg { 0.3608 0.4471 0.4784 srgb } def
np
 222.51 244.23 m
27.93 -10.05 l
19.43 25.73 l
-27.54 9.85 l
cp p3
/bg { 0.3412 0.4275 0.4549 srgb } def
np
 298.61 255.10 m
30.57 2.47 l
16.98 11.18 l
-29.80 6.92 l
cp p3
/bg { 0.2510 0.3137 0.3373 srgb } def
np
 378.39 275.75 m
35.85 16.39 l
13.32 9.07 l
-34.79 -16.89 l
cp p3
/bg { 0.3373 0.4196 0.4471 srgb } def
np
 174.70 225.30 m
26.54 -7.67 l
21.27 26.60 l
-26.54 9.13 l
cp p3
/bg { 0.2745 0.3412 0.3647 srgb } def
np
 464.33 306.63 m
41.12 13.04 l
9.22 9.42 l
-39.84 -15.14 l
cp p3
/bg { 0.2941 0.3686 0.3922 srgb } def
np
 250.44 234.18 m
28.65 6.35 l
19.52 14.57 l
-28.74 4.81 l
cp p3
/bg { 0.2980 0.3725 0.3961 srgb } def
np
 329.18 257.57 m
33.16 6.21 l
16.05 11.97 l
-32.23 -7.00 l
cp p3
/bg { 0.3333 0.4157 0.4431 srgb } def
np
 126.53 204.88 m
25.51 -9.48 l
22.66 29.90 l
-25.53 9.65 l
cp p3
/bg { 0.3255 0.4039 0.4314 srgb } def
np
 414.24 292.14 m
38.15 4.43 l
11.94 10.06 l
-36.77 -5.42 l
cp p3
/bg { 0.3333 0.4157 0.4431 srgb } def
np
 201.24 217.63 m
27.23 0.80 l
21.97 15.75 l
-27.93 10.05 l
cp p3
/bg { 0.3137 0.3922 0.4157 srgb } def
np
 279.09 240.53 m
31.32 2.18 l
18.77 14.86 l
-30.57 -2.47 l
cp p3
/bg { 0.2471 0.3059 0.3255 srgb } def
np
 362.34 263.78 m
36.96 16.99 l
14.94 11.37 l
-35.85 -16.39 l
cp p3
/bg { 0.2941 0.3686 0.3922 srgb } def
np
 152.04 195.40 m
24.89 3.41 l
24.31 18.82 l
-26.54 7.67 l
cp p3
/bg { 0.2784 0.3451 0.3686 srgb } def
np
 452.39 296.57 m
42.79 12.69 l
10.27 10.41 l
-41.12 -13.04 l
cp p3
/bg { 0.2784 0.3490 0.3725 srgb } def
np
 228.47 218.43 m
29.18 4.80 l
21.44 17.30 l
-28.65 -6.35 l
cp p3
/bg { 0.2902 0.3608 0.3843 srgb } def
np
 310.41 242.71 m
34.05 5.40 l
17.88 15.67 l
-33.16 -6.21 l
cp p3
/bg { 0.3137 0.3961 0.4196 srgb } def
np
 101.81 175.69 m
23.50 -0.23 l
26.73 19.94 l
-25.51 9.48 l
cp p3
/bg { 0.3216 0.4039 0.4275 srgb } def
np
 399.30 280.77 m
39.80 5.04 l
13.29 10.76 l
-38.15 -4.43 l
cp p3
/bg { 0.3020 0.3804 0.4039 srgb } def
np
 176.93 198.81 m
27.58 0.08 l
23.96 19.54 l
-27.23 -0.80 l
cp p3
/bg { 0.3059 0.3843 0.4078 srgb } def
np
 257.65 223.23 m
32.06 0.78 l
20.70 18.70 l
-31.32 -2.18 l
cp p3
/bg { 0.2314 0.2902 0.3098 srgb } def
np
 344.46 248.11 m
38.00 17.58 l
16.84 15.08 l
-36.96 -16.99 l
cp p3
/bg { 0.2784 0.3451 0.3686 srgb } def
np
 125.31 175.46 m
24.91 2.68 l
26.71 20.67 l
-24.89 -3.41 l
cp p3
/bg { 0.2824 0.3529 0.3725 srgb } def
np
 439.10 285.81 m
44.86 13.80 l
11.22 9.65 l
-42.79 -12.69 l
cp p3
/bg { 0.2745 0.3451 0.3686 srgb } def
np
 204.51 198.89 m
29.54 4.13 l
23.60 20.21 l
-29.18 -4.80 l
cp p3
/bg { 0.2824 0.3529 0.3765 srgb } def
np
 289.71 224.01 m
34.88 4.43 l
19.87 19.67 l
-34.05 -5.40 l
cp p3
/bg { 0.3059 0.3843 0.4078 srgb } def
np
 382.46 265.69 m
41.38 5.01 l
15.26 15.11 l
-39.80 -5.04 l
cp p3
/bg { 0.3020 0.3804 0.4039 srgb } def
np
 150.22 178.14 m
27.85 -0.81 l
26.44 21.56 l
-27.58 -0.08 l
cp p3
/bg { 0.3059 0.3804 0.4078 srgb } def
np
 234.05 203.02 m
32.74 -0.09 l
22.92 21.08 l
-32.06 -0.78 l
cp p3
/bg { 0.2196 0.2784 0.2941 srgb } def
np
 324.59 228.44 m
38.89 17.33 l
18.98 19.92 l
-38.00 -17.58 l
cp p3
/bg { 0.2667 0.3333 0.3529 srgb } def
np
 423.84 270.70 m
46.64 12.70 l
13.48 16.21 l
-44.86 -13.80 l
cp p3
/bg { 0.2745 0.3451 0.3686 srgb } def
np
 178.07 177.33 m
29.83 3.28 l
26.15 22.41 l
-29.54 -4.13 l
cp p3
/bg { 0.2824 0.3529 0.3765 srgb } def
np
 266.79 202.93 m
35.69 3.63 l
22.11 21.88 l
-34.88 -4.43 l
cp p3
/bg { 0.2941 0.3647 0.3882 srgb } def
np
 363.48 245.77 m
42.87 4.28 l
17.49 20.65 l
-41.38 -5.01 l
cp p3
/bg { 0.3059 0.3804 0.4078 srgb } def
np
 207.90 180.61 m
33.37 -1.13 l
25.52 23.45 l
-32.74 0.09 l
cp p3
/bg { 0.2196 0.2784 0.2941 srgb } def
np
 302.48 206.56 m
39.74 16.90 l
21.26 22.31 l
-38.89 -17.33 l
cp p3
/bg { 0.2549 0.3216 0.3412 srgb } def
np
 406.35 250.05 m
48.51 12.23 l
15.62 21.12 l
-46.64 -12.70 l
cp p3
/bg { 0.2824 0.3529 0.3765 srgb } def
np
 241.27 179.48 m
36.45 2.58 l
24.76 24.50 l
-35.69 -3.63 l
cp p3
/bg { 0.2941 0.3647 0.3882 srgb } def
np
 342.22 223.46 m
44.42 3.32 l
19.71 23.27 l
-42.87 -4.28 l
cp p3
/bg { 0.2196 0.2784 0.2941 srgb } def
np
 277.72 182.06 m
40.52 16.23 l
23.98 25.17 l
-39.74 -16.90 l
cp p3
/bg { 0.2549 0.3216 0.3412 srgb } def
np
 386.64 226.78 m
50.48 11.51 l
17.74 23.99 l
-48.51 -12.23 l
cp p3
/bg { 0.2941 0.3647 0.3882 srgb } def
np
 318.24 198.29 m
46.02 2.08 l
22.38 26.41 l
-44.42 -3.32 l
cp p3
/bg { 0.2549 0.3216 0.3412 srgb } def
np
 364.26 200.37 m
52.54 10.46 l
20.32 27.46 l
-50.48 -11.51 l
cp p3
0.75 setlinewidth
[ 0.00 3.00] 0 setdash
np
66.94 322.00 m
349.86 -111.17 l
o
np
416.80 210.83 m
-16.84 -171.72 l
o
np
416.80 210.83 m
118.66 160.42 l
o
ep
%%Trailer
%%Pages: 1
%%EOF
