%!PS-Adobe-3.0 EPSF-3.0
%%DocumentNeededResources: font Helvetica
%%+ font Helvetica-Bold
%%+ font Helvetica-Oblique
%%+ font Helvetica-BoldOblique
%%+ font Symbol
%%Title: R Graphics Output
%%Creator: R Software
%%Pages: (atend)
%%BoundingBox: 0 0 576 432
%%EndComments
%%BeginProlog
/bp  { gs sRGB gs } def
% begin .ps.prolog
/gs  { gsave } bind def
/gr  { grestore } bind def
/ep  { showpage gr gr } bind def
/m   { moveto } bind def
/l  { rlineto } bind def
/np  { newpath } bind def
/cp  { closepath } bind def
/f   { fill } bind def
/o   { stroke } bind def
/c   { newpath 0 360 arc } bind def
/r   { 4 2 roll moveto 1 copy 3 -1 roll exch 0 exch rlineto 0 rlineto -1 mul 0 exch rlineto closepath } bind def
/p1  { stroke } bind def
/p2  { gsave bg fill grestore newpath } bind def
/p3  { gsave bg fill grestore stroke } bind def
/p6  { gsave bg eofill grestore newpath } bind def
/p7  { gsave bg eofill grestore stroke } bind def
/t   { 5 -2 roll moveto gsave rotate
       1 index stringwidth pop
       mul neg 0 rmoveto show grestore } bind def
/ta  { 4 -2 roll moveto gsave rotate show } bind def
/tb  { 2 -1 roll 0 rmoveto show } bind def
/cl  { grestore gsave newpath 3 index 3 index moveto 1 index
       4 -1 roll lineto  exch 1 index lineto lineto
       closepath clip newpath } bind def
/rgb { setrgbcolor } bind def
/s   { scalefont setfont } bind def
% end   .ps.prolog
/sRGB { [ /CIEBasedABC
          << /DecodeLMN
               [ { dup 0.03928 le
                        {12.92321 div}
                        {0.055 add 1.055 div 2.4 exp }
                     ifelse
                 } bind dup dup
               ]
             /MatrixLMN [0.412457 0.212673 0.019334
                         0.357576 0.715152 0.119192
                         0.180437 0.072175 0.950301]
             /WhitePoint [0.9505 1.0 1.0890]
           >>
         ] setcolorspace } bind def
/srgb { setcolor } bind def
%%IncludeResource: font Helvetica
/Helvetica findfont
dup length dict begin
  {1 index /FID ne {def} {pop pop} ifelse} forall
  /Encoding ISOLatin1Encoding def
  currentdict
  end
/Font1 exch definefont pop
%%IncludeResource: font Helvetica-Bold
/Helvetica-Bold findfont
dup length dict begin
  {1 index /FID ne {def} {pop pop} ifelse} forall
  /Encoding ISOLatin1Encoding def
  currentdict
  end
/Font2 exch definefont pop
%%IncludeResource: font Helvetica-Oblique
/Helvetica-Oblique findfont
dup length dict begin
  {1 index /FID ne {def} {pop pop} ifelse} forall
  /Encoding ISOLatin1Encoding def
  currentdict
  end
/Font3 exch definefont pop
%%IncludeResource: font Helvetica-BoldOblique
/Helvetica-BoldOblique findfont
dup length dict begin
  {1 index /FID ne {def} {pop pop} ifelse} forall
  /Encoding ISOLatin1Encoding def
  currentdict
  end
/Font4 exch definefont pop
%%IncludeResource: font Symbol
/Symbol findfont
dup length dict begin
  {1 index /FID ne {def} {pop pop} ifelse} forall
  currentdict
  end
/Font5 exch definefont pop
%%EndProlog
%%Page: 1 1
bp
26.40 24.00 576.00 432.00 cl
0 0 0 srgb
0.75 setlinewidth
[] 0 setdash
1 setlinecap
1 setlinejoin
10.00 setmiterlimit
np
280.56 303.88 m
230.13 -63.09 l
o
np
510.69 240.79 m
24.77 130.46 l
o
np
535.46 371.25 m
-259.40 45.64 l
o
np
276.06 416.89 m
4.50 -113.01 l
o
np
101.81 175.69 m
178.75 128.19 l
o
np
276.06 416.89 m
-209.12 -94.89 l
o
np
66.94 322.00 m
34.87 -146.31 l
o
np
101.81 175.69 m
298.15 -136.58 l
o
np
399.96 39.11 m
110.73 201.68 l
o
0.00 0.00 576.00 432.00 cl
/Font1 findfont 20 s
0 0 0 srgb
221.61 61.84 (Ki) .5 -25.22 t
0.75 setlinewidth
[] 0 setdash
1 setlinecap
1 setlinejoin
10.00 setmiterlimit
np
127.79 163.79 m
-6.67 -9.64 l
o
114.34 137.16 (2) .5 0 t
np
184.20 137.95 m
-6.55 -10.43 l
o
170.99 109.73 (4) .5 0 t
np
247.43 108.98 m
-6.35 -11.33 l
o
234.61 78.91 (6) .5 0 t
np
318.79 76.30 m
-6.04 -12.41 l
o
306.59 44.05 (8) .5 0 t
np
399.96 39.11 m
-5.57 -13.67 l
o
388.69 4.29 (10) .5 0 t
505.06 132.81 (K) 62.49 ta
-0.800 (o) tb gr
np
417.80 71.59 m
10.77 -8.97 l
o
439.41 46.41 (2) .5 0 t
np
448.06 126.71 m
9.78 -7.87 l
o
467.68 103.73 (4) .5 0 t
np
472.77 171.72 m
8.95 -7.02 l
o
490.73 150.46 (6) .5 0 t
np
493.32 209.15 m
8.26 -6.32 l
o
509.88 189.30 (8) .5 0 t
np
510.69 240.79 m
7.66 -5.75 l
o
526.04 222.08 (10) .5 0 t
5.33 304.03 (Precision inde) -75.72 ta
-0.600 (x) tb gr
np
100.16 182.64 m
-14.58 -2.29 l
o
70.84 170.86 (0.75) .5 0 t
np
94.22 207.53 m
-15.00 -2.21 l
o
64.05 195.91 (0.80) .5 0 t
np
87.96 233.80 m
-15.45 -2.13 l
o
56.89 222.34 (0.85) .5 0 t
np
81.35 261.54 m
-15.93 -2.03 l
o
49.31 250.28 (0.90) .5 0 t
np
74.36 290.89 m
-16.44 -1.91 l
o
41.30 279.86 (0.95) .5 0 t
np
66.94 322.00 m
-16.97 -1.79 l
o
32.79 311.23 (1.00) .5 0 t
26.40 24.00 576.00 432.00 cl
/bg { 0.1333 0.1647 0.1765 srgb } def
0 0 0 srgb
0.75 setlinewidth
[] 0 setdash
1 setlinecap
1 setlinejoin
10.00 setmiterlimit
np
 265.51 302.53 m
20.28 55.43 l
15.24 3.15 l
-20.77 -49.66 l
cp p3
/bg { 0.4824 0.6039 0.6431 srgb } def
np
 285.79 357.96 m
24.88 -32.89 l
14.24 29.88 l
-23.88 6.16 l
cp p3
/bg { 0.1059 0.1333 0.1412 srgb } def
np
 250.43 282.28 m
18.76 72.89 l
16.60 2.79 l
-20.28 -55.43 l
cp p3
/bg { 0.2471 0.3098 0.3294 srgb } def
np
 310.67 325.07 m
25.31 17.76 l
13.79 6.33 l
-24.86 5.79 l
cp p3
/bg { 0.5922 0.7412 0.7882 srgb } def
np
 269.19 355.17 m
25.73 -21.86 l
15.75 -8.24 l
-24.88 32.89 l
cp p3
/bg { 0.4745 0.5922 0.6314 srgb } def
np
 335.98 342.83 m
26.33 -16.25 l
13.14 11.93 l
-25.68 10.65 l
cp p3
/bg { 0.1333 0.1686 0.1804 srgb } def
np
 232.80 281.26 m
18.35 69.21 l
18.04 4.70 l
-18.76 -72.89 l
cp p3
/bg { 0.3294 0.4118 0.4392 srgb } def
np
 294.92 333.31 m
26.09 -5.44 l
14.97 14.96 l
-25.31 -17.76 l
cp p3
/bg { 0.4314 0.5373 0.5725 srgb } def
np
 362.31 326.58 m
27.94 -2.08 l
11.70 2.07 l
-26.50 11.94 l
cp p3
/bg { 0.5529 0.6902 0.7333 srgb } def
np
 251.15 350.47 m
27.14 -32.32 l
16.63 15.16 l
-25.73 21.86 l
cp p3
/bg { 0.4549 0.5686 0.6078 srgb } def
np
 321.01 327.87 m
27.28 -8.64 l
14.02 7.35 l
-26.33 16.25 l
cp p3
/bg { 0.4588 0.5725 0.6118 srgb } def
np
 390.25 324.50 m
27.60 -22.90 l
12.34 21.36 l
-28.24 3.61 l
cp p3
/bg { 0.0941 0.1176 0.1255 srgb } def
np
 214.71 268.10 m
18.53 55.50 l
17.91 26.87 l
-18.35 -69.21 l
cp p3
/bg { 0.3490 0.4353 0.4627 srgb } def
np
 278.29 318.15 m
26.44 6.95 l
16.28 2.77 l
-26.09 5.44 l
cp p3
/bg { 0.4000 0.5020 0.5333 srgb } def
np
 348.29 319.23 m
28.28 -12.62 l
13.68 17.89 l
-27.94 2.08 l
cp p3
/bg { 0.3490 0.4392 0.4667 srgb } def
np
 417.85 301.60 m
29.86 -8.02 l
11.84 23.03 l
-29.36 6.35 l
cp p3
/bg { 0.4941 0.6157 0.6549 srgb } def
np
 233.24 323.60 m
26.30 -6.72 l
18.75 1.27 l
-27.14 32.32 l
cp p3
/bg { 0.4745 0.5922 0.6314 srgb } def
np
 304.73 325.10 m
28.23 -16.25 l
15.33 10.38 l
-27.28 8.64 l
cp p3
/bg { 0.4784 0.6000 0.6392 srgb } def
np
 376.57 306.61 m
29.88 -6.14 l
11.40 1.13 l
-27.60 22.90 l
cp p3
/bg { 0.1882 0.2353 0.2510 srgb } def
np
 192.74 273.63 m
17.96 57.07 l
22.54 -7.10 l
-18.53 -55.50 l
cp p3
/bg { 0.4549 0.5725 0.6078 srgb } def
np
 447.71 293.58 m
32.55 0.16 l
7.19 -1.67 l
-27.90 24.54 l
cp p3
/bg { 0.3765 0.4745 0.5020 srgb } def
np
 259.54 316.88 m
27.98 -17.63 l
17.21 25.85 l
-26.44 -6.95 l
cp p3
/bg { 0.4627 0.5765 0.6157 srgb } def
np
 332.96 308.85 m
29.18 -15.07 l
14.43 12.83 l
-28.28 12.62 l
cp p3
/bg { 0.4706 0.5882 0.6275 srgb } def
np
 406.45 300.47 m
30.81 -12.20 l
10.45 5.31 l
-29.86 8.02 l
cp p3
/bg { 0.5059 0.6353 0.6745 srgb } def
np
 210.70 330.70 m
28.62 -22.66 l
20.22 8.84 l
-26.30 6.72 l
cp p3
/bg { 0.3608 0.4510 0.4784 srgb } def
np
 480.26 293.74 m
32.13 -13.70 l
10.04 22.61 l
-34.98 -10.58 l
cp p3
/bg { 0.3882 0.4863 0.5176 srgb } def
np
 287.52 299.25 m
28.72 -3.46 l
16.72 13.06 l
-28.23 16.25 l
cp p3
/bg { 0.4078 0.5098 0.5451 srgb } def
np
 362.14 293.78 m
30.14 -16.62 l
14.17 23.31 l
-29.88 6.14 l
cp p3
/bg { 0.0980 0.1255 0.1333 srgb } def
np
 172.97 246.91 m
14.83 71.24 l
22.90 12.55 l
-17.96 -57.07 l
cp p3
/bg { 0.3961 0.4941 0.5255 srgb } def
np
 437.26 288.27 m
32.22 -11.70 l
10.78 17.17 l
-32.55 -0.16 l
cp p3
/bg { 0.5098 0.6353 0.6745 srgb } def
np
 239.32 308.04 m
29.34 -24.90 l
18.86 16.11 l
-27.98 17.63 l
cp p3
/bg { 0.4824 0.6000 0.6392 srgb } def
np
 316.24 295.79 m
29.85 -30.04 l
16.05 28.03 l
-29.18 15.07 l
cp p3
/bg { 0.3843 0.4784 0.5098 srgb } def
np
 392.28 277.16 m
32.05 -8.34 l
12.93 19.45 l
-30.81 12.20 l
cp p3
/bg { 0.5176 0.6510 0.6902 srgb } def
np
 187.80 318.15 m
30.76 -34.63 l
20.76 24.52 l
-28.62 22.66 l
cp p3
/bg { 0.4078 0.5098 0.5451 srgb } def
np
 469.48 276.57 m
35.96 0.66 l
6.95 2.81 l
-32.13 13.70 l
cp p3
/bg { 0.3451 0.4314 0.4627 srgb } def
np
 268.66 283.14 m
29.31 -0.89 l
18.27 13.54 l
-28.72 3.46 l
cp p3
/bg { 0.3843 0.4824 0.5137 srgb } def
np
 346.09 265.75 m
31.47 -5.30 l
14.72 16.71 l
-30.14 16.62 l
cp p3
/bg { 0.2431 0.3059 0.3255 srgb } def
np
 139.78 288.32 m
25.87 -3.31 l
22.15 33.14 l
-14.83 -71.24 l
cp p3
/bg { 0.4118 0.5137 0.5451 srgb } def
np
 424.33 268.82 m
32.96 -14.68 l
12.19 22.43 l
-32.22 11.70 l
cp p3
/bg { 0.4745 0.5922 0.6314 srgb } def
np
 218.56 283.52 m
29.89 -22.15 l
20.21 21.77 l
-29.34 24.90 l
cp p3
/bg { 0.5412 0.6784 0.7216 srgb } def
np
 297.97 282.25 m
31.26 -17.72 l
16.86 1.22 l
-29.85 30.04 l
cp p3
/bg { 0.3765 0.4706 0.5020 srgb } def
np
 377.56 260.45 m
33.80 -0.98 l
12.97 9.35 l
-32.05 8.34 l
cp p3
/bg { 0.4784 0.6000 0.6392 srgb } def
np
 165.65 285.01 m
28.80 -13.22 l
24.11 11.73 l
-30.76 34.63 l
cp p3
/bg { 0.3137 0.3922 0.4157 srgb } def
np
 457.29 254.14 m
34.76 -12.86 l
13.39 35.95 l
-35.96 -0.66 l
cp p3
/bg { 0.2941 0.3686 0.3922 srgb } def
np
 248.45 261.37 m
29.46 6.01 l
20.06 14.87 l
-29.31 0.89 l
cp p3
/bg { 0.4588 0.5725 0.6078 srgb } def
np
 329.23 264.53 m
32.46 -17.30 l
15.87 13.22 l
-31.47 5.30 l
cp p3
/bg { 0.4824 0.6039 0.6431 srgb } def
np
 106.71 301.50 m
28.77 -14.19 l
30.17 -2.30 l
-25.87 3.31 l
cp p3
/bg { 0.4784 0.5961 0.6353 srgb } def
np
 411.36 259.47 m
34.39 -16.41 l
11.54 11.08 l
-32.96 14.68 l
cp p3
/bg { 0.5137 0.6392 0.6824 srgb } def
np
 194.45 271.79 m
30.87 -20.91 l
23.13 10.49 l
-29.89 22.15 l
cp p3
/bg { 0.4588 0.5765 0.6118 srgb } def
np
 277.91 267.38 m
32.32 -9.92 l
19.00 7.07 l
-31.26 17.72 l
cp p3
/bg { 0.3451 0.4314 0.4588 srgb } def
np
 361.69 247.23 m
35.19 1.08 l
14.48 11.16 l
-33.80 0.98 l
cp p3
/bg { 0.4863 0.6078 0.6471 srgb } def
np
 135.48 287.31 m
29.06 -7.71 l
29.91 -7.81 l
-28.80 13.22 l
cp p3
/bg { 0.4627 0.5804 0.6157 srgb } def
np
 445.75 243.06 m
35.62 -18.55 l
10.68 16.77 l
-34.76 12.86 l
cp p3
/bg { 0.3216 0.4000 0.4275 srgb } def
np
 225.32 250.88 m
30.63 -2.19 l
21.96 18.69 l
-29.46 -6.01 l
cp p3
/bg { 0.4902 0.6118 0.6510 srgb } def
np
 310.23 257.46 m
34.17 -12.41 l
17.29 2.18 l
-32.46 17.30 l
cp p3
/bg { 0.5725 0.7176 0.7647 srgb } def
np
 66.94 322.00 m
36.82 -45.36 l
31.72 10.67 l
-28.77 14.19 l
cp p3
/bg { 0.4745 0.5961 0.6353 srgb } def
np
 396.88 248.31 m
36.23 -15.70 l
12.64 10.45 l
-34.39 16.41 l
cp p3
/bg { 0.5529 0.6902 0.7373 srgb } def
np
 164.54 279.60 m
33.06 -25.17 l
27.72 -3.55 l
-30.87 20.91 l
cp p3
/bg { 0.3882 0.4824 0.5137 srgb } def
np
 255.95 248.69 m
33.11 -5.51 l
21.17 14.28 l
-32.32 9.92 l
cp p3
/bg { 0.4118 0.5176 0.5490 srgb } def
np
 344.40 245.05 m
35.78 -18.13 l
16.70 21.39 l
-35.19 -1.08 l
cp p3
/bg { 0.4706 0.5882 0.6235 srgb } def
np
 103.76 276.64 m
39.11 -58.90 l
21.67 61.86 l
-29.06 7.71 l
cp p3
/bg { 0.4980 0.6196 0.6627 srgb } def
np
 433.11 232.61 m
37.32 -21.02 l
10.94 12.92 l
-35.62 18.55 l
cp p3
/bg { 0.4275 0.5373 0.5686 srgb } def
np
 197.60 254.43 m
31.93 -2.63 l
26.42 -3.11 l
-30.63 2.19 l
cp p3
/bg { 0.4392 0.5490 0.5843 srgb } def
np
 289.06 243.18 m
35.53 -15.92 l
19.81 17.79 l
-34.17 12.41 l
cp p3
/bg { 0.4510 0.5647 0.6000 srgb } def
np
 380.18 226.92 m
35.82 -35.25 l
17.11 40.94 l
-36.23 15.70 l
cp p3
/bg { 0.3490 0.4353 0.4667 srgb } def
np
 142.87 217.74 m
32.66 -24.08 l
22.07 60.77 l
-33.06 25.17 l
cp p3
/bg { 0.4627 0.5804 0.6157 srgb } def
np
 229.53 251.80 m
35.35 -16.34 l
24.18 7.72 l
-33.11 5.51 l
cp p3
/bg { 0.4667 0.5804 0.6196 srgb } def
np
 324.59 227.26 m
37.21 -22.36 l
18.38 22.02 l
-35.78 18.13 l
cp p3
/bg { 0.3725 0.4627 0.4941 srgb } def
np
 416.00 191.67 m
39.37 -13.90 l
15.06 33.82 l
-37.32 21.02 l
cp p3
/bg { 0.2471 0.3059 0.3255 srgb } def
np
 175.53 193.66 m
32.02 -10.15 l
21.98 68.29 l
-31.93 2.63 l
cp p3
/bg { 0.4863 0.6118 0.6510 srgb } def
np
 264.88 235.46 m
37.47 -22.70 l
22.24 14.50 l
-35.53 15.92 l
cp p3
/bg { 0.5294 0.6627 0.7059 srgb } def
np
 361.80 204.90 m
39.11 -19.75 l
15.09 6.52 l
-35.82 35.25 l
cp p3
/bg { 0.3176 0.3961 0.4235 srgb } def
np
 207.55 183.51 m
36.04 -30.60 l
21.29 82.55 l
-35.35 16.34 l
cp p3
/bg { 0.4902 0.6157 0.6549 srgb } def
np
 302.35 212.76 m
39.26 -19.57 l
20.19 11.71 l
-37.21 22.36 l
cp p3
/bg { 0.4863 0.6078 0.6471 srgb } def
np
 400.91 185.15 m
40.74 -23.96 l
13.72 16.58 l
-39.37 13.90 l
cp p3
/bg { 0.2627 0.3294 0.3490 srgb } def
np
 243.59 152.91 m
35.67 -2.76 l
23.09 62.61 l
-37.47 22.70 l
cp p3
/bg { 0.5137 0.6392 0.6824 srgb } def
np
 341.61 193.19 m
40.17 -40.44 l
19.13 32.40 l
-39.11 19.75 l
cp p3
/bg { 0.2980 0.3725 0.3961 srgb } def
np
 279.26 150.15 m
39.25 -11.22 l
23.10 54.26 l
-39.26 19.57 l
cp p3
/bg { 0.4353 0.5451 0.5804 srgb } def
np
 381.78 152.75 m
42.97 -21.14 l
16.90 29.58 l
-40.74 23.96 l
cp p3
/bg { 0.4196 0.5255 0.5569 srgb } def
np
 318.51 138.93 m
42.63 -9.66 l
20.64 23.48 l
-40.17 40.44 l
cp p3
/bg { 0.4392 0.5490 0.5843 srgb } def
np
 361.14 129.27 m
46.50 -11.86 l
17.11 14.20 l
-42.97 21.14 l
cp p3
0.75 setlinewidth
[ 0.00 3.00] 0 setdash
np
66.94 322.00 m
349.86 -111.17 l
o
np
416.80 210.83 m
-16.84 -171.72 l
o
np
416.80 210.83 m
118.66 160.42 l
o
ep
%%Trailer
%%Pages: 1
%%EOF
