%!PS-Adobe-3.0 EPSF-3.0
%%DocumentNeededResources: font Helvetica
%%+ font Helvetica-Bold
%%+ font Helvetica-Oblique
%%+ font Helvetica-BoldOblique
%%+ font Symbol
%%Title: R Graphics Output
%%Creator: R Software
%%Pages: (atend)
%%BoundingBox: 0 0 576 432
%%EndComments
%%BeginProlog
/bp  { gs sRGB gs } def
% begin .ps.prolog
/gs  { gsave } bind def
/gr  { grestore } bind def
/ep  { showpage gr gr } bind def
/m   { moveto } bind def
/l  { rlineto } bind def
/np  { newpath } bind def
/cp  { closepath } bind def
/f   { fill } bind def
/o   { stroke } bind def
/c   { newpath 0 360 arc } bind def
/r   { 4 2 roll moveto 1 copy 3 -1 roll exch 0 exch rlineto 0 rlineto -1 mul 0 exch rlineto closepath } bind def
/p1  { stroke } bind def
/p2  { gsave bg fill grestore newpath } bind def
/p3  { gsave bg fill grestore stroke } bind def
/p6  { gsave bg eofill grestore newpath } bind def
/p7  { gsave bg eofill grestore stroke } bind def
/t   { 5 -2 roll moveto gsave rotate
       1 index stringwidth pop
       mul neg 0 rmoveto show grestore } bind def
/ta  { 4 -2 roll moveto gsave rotate show } bind def
/tb  { 2 -1 roll 0 rmoveto show } bind def
/cl  { grestore gsave newpath 3 index 3 index moveto 1 index
       4 -1 roll lineto  exch 1 index lineto lineto
       closepath clip newpath } bind def
/rgb { setrgbcolor } bind def
/s   { scalefont setfont } bind def
% end   .ps.prolog
/sRGB { [ /CIEBasedABC
          << /DecodeLMN
               [ { dup 0.03928 le
                        {12.92321 div}
                        {0.055 add 1.055 div 2.4 exp }
                     ifelse
                 } bind dup dup
               ]
             /MatrixLMN [0.412457 0.212673 0.019334
                         0.357576 0.715152 0.119192
                         0.180437 0.072175 0.950301]
             /WhitePoint [0.9505 1.0 1.0890]
           >>
         ] setcolorspace } bind def
/srgb { setcolor } bind def
%%IncludeResource: font Helvetica
/Helvetica findfont
dup length dict begin
  {1 index /FID ne {def} {pop pop} ifelse} forall
  /Encoding ISOLatin1Encoding def
  currentdict
  end
/Font1 exch definefont pop
%%IncludeResource: font Helvetica-Bold
/Helvetica-Bold findfont
dup length dict begin
  {1 index /FID ne {def} {pop pop} ifelse} forall
  /Encoding ISOLatin1Encoding def
  currentdict
  end
/Font2 exch definefont pop
%%IncludeResource: font Helvetica-Oblique
/Helvetica-Oblique findfont
dup length dict begin
  {1 index /FID ne {def} {pop pop} ifelse} forall
  /Encoding ISOLatin1Encoding def
  currentdict
  end
/Font3 exch definefont pop
%%IncludeResource: font Helvetica-BoldOblique
/Helvetica-BoldOblique findfont
dup length dict begin
  {1 index /FID ne {def} {pop pop} ifelse} forall
  /Encoding ISOLatin1Encoding def
  currentdict
  end
/Font4 exch definefont pop
%%IncludeResource: font Symbol
/Symbol findfont
dup length dict begin
  {1 index /FID ne {def} {pop pop} ifelse} forall
  currentdict
  end
/Font5 exch definefont pop
%%EndProlog
%%Page: 1 1
bp
26.40 24.00 576.00 432.00 cl
0 0 0 srgb
0.75 setlinewidth
[] 0 setdash
1 setlinecap
1 setlinejoin
10.00 setmiterlimit
np
280.56 303.88 m
230.13 -63.09 l
o
np
510.69 240.79 m
24.77 130.46 l
o
np
535.46 371.25 m
-259.40 45.64 l
o
np
276.06 416.89 m
4.50 -113.01 l
o
np
101.81 175.69 m
178.75 128.19 l
o
np
276.06 416.89 m
-209.12 -94.89 l
o
np
66.94 322.00 m
34.87 -146.31 l
o
np
101.81 175.69 m
298.15 -136.58 l
o
np
399.96 39.11 m
110.73 201.68 l
o
0.00 0.00 576.00 432.00 cl
/Font1 findfont 20 s
0 0 0 srgb
221.61 61.84 (Ki) .5 -25.22 t
0.75 setlinewidth
[] 0 setdash
1 setlinecap
1 setlinejoin
10.00 setmiterlimit
np
127.79 163.79 m
-6.67 -9.64 l
o
114.34 137.16 (2) .5 0 t
np
184.20 137.95 m
-6.55 -10.43 l
o
170.99 109.73 (4) .5 0 t
np
247.43 108.98 m
-6.35 -11.33 l
o
234.61 78.91 (6) .5 0 t
np
318.79 76.30 m
-6.04 -12.41 l
o
306.59 44.05 (8) .5 0 t
np
399.96 39.11 m
-5.57 -13.67 l
o
388.69 4.29 (10) .5 0 t
505.06 132.81 (K) 62.49 ta
-0.800 (o) tb gr
np
417.80 71.59 m
10.77 -8.97 l
o
439.41 46.41 (2) .5 0 t
np
448.06 126.71 m
9.78 -7.87 l
o
467.68 103.73 (4) .5 0 t
np
472.77 171.72 m
8.95 -7.02 l
o
490.73 150.46 (6) .5 0 t
np
493.32 209.15 m
8.26 -6.32 l
o
509.88 189.30 (8) .5 0 t
np
510.69 240.79 m
7.66 -5.75 l
o
526.04 222.08 (10) .5 0 t
2.68 315.76 (In-degree centr) -75.72 ta
-0.200 (ality) tb gr
np
101.81 175.69 m
-14.46 -2.30 l
o
72.73 163.88 (0.000) .5 0 t
np
91.88 217.36 m
-15.17 -2.18 l
o
61.37 205.79 (0.002) .5 0 t
np
81.02 262.95 m
-15.96 -2.02 l
o
48.93 251.70 (0.004) .5 0 t
np
69.08 313.06 m
-16.82 -1.83 l
o
35.24 302.21 (0.006) .5 0 t
26.40 24.00 576.00 432.00 cl
/bg { 0.1804 0.2235 0.2392 srgb } def
0 0 0 srgb
0.75 setlinewidth
[] 0 setdash
1 setlinecap
1 setlinejoin
10.00 setmiterlimit
np
 265.42 304.15 m
21.53 18.61 l
14.56 13.31 l
-21.41 -20.71 l
cp p3
/bg { 0.3020 0.3765 0.4000 srgb } def
np
 286.95 322.76 m
23.70 4.03 l
14.22 10.84 l
-23.36 -1.56 l
cp p3
/bg { 0.1882 0.2392 0.2549 srgb } def
np
 249.72 292.42 m
21.73 15.88 l
15.50 14.46 l
-21.53 -18.61 l
cp p3
/bg { 0.3529 0.4431 0.4706 srgb } def
np
 310.65 326.79 m
25.09 -3.44 l
13.72 13.29 l
-24.59 0.99 l
cp p3
/bg { 0.2784 0.3490 0.3725 srgb } def
np
 271.45 308.30 m
23.99 4.33 l
15.21 14.16 l
-23.70 -4.03 l
cp p3
/bg { 0.3451 0.4314 0.4588 srgb } def
np
 335.74 323.35 m
26.38 -2.04 l
13.15 13.34 l
-25.81 1.99 l
cp p3
/bg { 0.2039 0.2549 0.2706 srgb } def
np
 232.93 279.77 m
21.94 13.34 l
16.58 15.19 l
-21.73 -15.88 l
cp p3
/bg { 0.3529 0.4392 0.4706 srgb } def
np
 295.44 312.63 m
25.60 -2.36 l
14.70 13.08 l
-25.09 3.44 l
cp p3
/bg { 0.3686 0.4588 0.4902 srgb } def
np
 362.12 321.31 m
27.73 -3.21 l
12.37 12.08 l
-26.95 4.47 l
cp p3
/bg { 0.2745 0.3451 0.3686 srgb } def
np
 254.87 293.11 m
24.30 3.85 l
16.27 15.67 l
-23.99 -4.33 l
cp p3
/bg { 0.3529 0.4392 0.4667 srgb } def
np
 321.04 310.27 m
26.94 -3.83 l
14.14 14.87 l
-26.38 2.04 l
cp p3
/bg { 0.3333 0.4157 0.4431 srgb } def
np
 389.85 318.10 m
29.32 -1.91 l
11.85 15.01 l
-28.80 -1.02 l
cp p3
/bg { 0.2196 0.2745 0.2902 srgb } def
np
 214.91 266.19 m
22.17 11.16 l
17.79 15.76 l
-21.94 -13.34 l
cp p3
/bg { 0.3373 0.4235 0.4510 srgb } def
np
 279.17 296.96 m
26.08 -3.10 l
15.79 16.41 l
-25.60 2.36 l
cp p3
/bg { 0.3529 0.4431 0.4706 srgb } def
np
 347.98 306.44 m
28.34 -4.71 l
13.53 16.37 l
-27.73 3.21 l
cp p3
/bg { 0.3843 0.4824 0.5137 srgb } def
np
 419.17 316.19 m
30.72 -4.47 l
10.57 11.99 l
-29.44 7.49 l
cp p3
/bg { 0.2784 0.3490 0.3725 srgb } def
np
 237.08 277.35 m
24.55 4.26 l
17.54 15.35 l
-24.30 -3.85 l
cp p3
/bg { 0.3490 0.4353 0.4667 srgb } def
np
 305.25 293.86 m
27.52 -4.51 l
15.21 17.09 l
-26.94 3.83 l
cp p3
/bg { 0.3294 0.4078 0.4353 srgb } def
np
 376.32 301.73 m
30.25 0.23 l
12.60 14.23 l
-29.32 1.91 l
cp p3
/bg { 0.2314 0.2863 0.3059 srgb } def
np
 195.54 251.48 m
22.38 9.40 l
19.16 16.47 l
-22.17 -11.16 l
cp p3
/bg { 0.3765 0.4706 0.5020 srgb } def
np
 449.89 311.72 m
33.20 0.79 l
8.53 5.89 l
-31.16 5.31 l
cp p3
/bg { 0.3412 0.4275 0.4549 srgb } def
np
 261.63 281.61 m
26.50 -0.77 l
17.12 13.02 l
-26.08 3.10 l
cp p3
/bg { 0.3490 0.4392 0.4667 srgb } def
np
 332.77 289.35 m
29.07 -3.33 l
14.48 15.71 l
-28.34 4.71 l
cp p3
/bg { 0.3490 0.4353 0.4667 srgb } def
np
 406.57 301.96 m
32.87 6.08 l
10.45 3.68 l
-30.72 4.47 l
cp p3
/bg { 0.2745 0.3451 0.3647 srgb } def
np
 217.92 260.88 m
24.75 4.56 l
18.96 16.17 l
-24.55 -4.26 l
cp p3
/bg { 0.2863 0.3608 0.3843 srgb } def
np
 483.09 312.51 m
37.46 11.86 l
7.06 5.56 l
-35.99 -11.53 l
cp p3
/bg { 0.3804 0.4745 0.5059 srgb } def
np
 288.13 280.84 m
28.24 -7.61 l
16.40 16.12 l
-27.52 4.51 l
cp p3
/bg { 0.3176 0.3961 0.4235 srgb } def
np
 361.84 286.02 m
31.08 0.59 l
13.65 15.35 l
-30.25 -0.23 l
cp p3
/bg { 0.2392 0.3020 0.3216 srgb } def
np
 174.64 235.77 m
22.51 8.23 l
20.77 16.88 l
-22.38 -9.40 l
cp p3
/bg { 0.3765 0.4706 0.5020 srgb } def
np
 439.44 308.04 m
34.81 1.83 l
8.84 2.64 l
-33.20 -0.79 l
cp p3
/bg { 0.3255 0.4078 0.4353 srgb } def
np
 242.67 265.44 m
27.04 -2.54 l
18.42 17.94 l
-26.50 0.77 l
cp p3
/bg { 0.3412 0.4275 0.4549 srgb } def
np
 316.37 273.23 m
29.89 -0.17 l
15.58 12.96 l
-29.07 3.33 l
cp p3
/bg { 0.2706 0.3373 0.3608 srgb } def
np
 392.92 286.61 m
34.73 15.52 l
11.79 5.91 l
-32.87 -6.08 l
cp p3
/bg { 0.2745 0.3412 0.3647 srgb } def
np
 197.15 244.00 m
24.92 4.57 l
20.60 16.87 l
-24.75 -4.56 l
cp p3
/bg { 0.3098 0.3843 0.4118 srgb } def
np
 474.25 309.87 m
38.89 10.60 l
7.41 3.90 l
-37.46 -11.86 l
cp p3
/bg { 0.3647 0.4549 0.4824 srgb } def
np
 269.71 262.90 m
28.74 -0.73 l
17.92 11.06 l
-28.24 7.61 l
cp p3
/bg { 0.3216 0.4000 0.4275 srgb } def
np
 346.26 273.06 m
32.57 10.76 l
14.09 2.79 l
-31.08 -0.59 l
cp p3
/bg { 0.2431 0.3059 0.3255 srgb } def
np
 152.08 218.40 m
22.52 7.59 l
22.55 18.01 l
-22.51 -8.23 l
cp p3
/bg { 0.3608 0.4510 0.4784 srgb } def
np
 427.65 302.13 m
36.45 2.83 l
10.15 4.91 l
-34.81 -1.83 l
cp p3
/bg { 0.3373 0.4235 0.4510 srgb } def
np
 222.07 248.57 m
27.58 -3.53 l
20.06 17.86 l
-27.04 2.54 l
cp p3
/bg { 0.3412 0.4275 0.4549 srgb } def
np
 298.45 262.17 m
30.79 4.86 l
17.02 6.03 l
-29.89 0.17 l
cp p3
/bg { 0.2902 0.3608 0.3843 srgb } def
np
 378.83 283.82 m
35.56 10.03 l
13.26 8.28 l
-34.73 -15.52 l
cp p3
/bg { 0.2706 0.3373 0.3608 srgb } def
np
 174.60 225.99 m
24.90 5.51 l
22.57 17.07 l
-24.92 -4.57 l
cp p3
/bg { 0.3098 0.3882 0.4157 srgb } def
np
 464.10 304.96 m
40.03 7.01 l
9.01 8.50 l
-38.89 -10.60 l
cp p3
/bg { 0.3098 0.3882 0.4118 srgb } def
np
 249.65 245.04 m
29.01 5.28 l
19.79 11.85 l
-28.74 0.73 l
cp p3
/bg { 0.3020 0.3765 0.4000 srgb } def
np
 329.24 267.03 m
33.59 9.09 l
16.00 7.70 l
-32.57 -10.76 l
cp p3
/bg { 0.2392 0.3020 0.3216 srgb } def
np
 127.76 198.90 m
22.09 8.67 l
24.75 18.42 l
-22.52 -7.59 l
cp p3
/bg { 0.3451 0.4314 0.4588 srgb } def
np
 414.39 293.85 m
37.89 1.87 l
11.82 9.24 l
-36.45 -2.83 l
cp p3
/bg { 0.3412 0.4235 0.4510 srgb } def
np
 199.50 231.50 m
27.65 0.50 l
22.50 13.04 l
-27.58 3.53 l
cp p3
/bg { 0.3098 0.3882 0.4118 srgb } def
np
 278.66 250.32 m
31.59 5.57 l
18.99 11.14 l
-30.79 -4.86 l
cp p3
/bg { 0.3020 0.3765 0.4000 srgb } def
np
 362.83 276.12 m
36.91 10.53 l
14.65 7.20 l
-35.56 -10.03 l
cp p3
/bg { 0.2667 0.3333 0.3569 srgb } def
np
 149.85 207.57 m
24.90 5.50 l
24.75 18.43 l
-24.90 -5.51 l
cp p3
/bg { 0.3137 0.3922 0.4196 srgb } def
np
 452.28 295.72 m
41.91 7.48 l
9.94 8.77 l
-40.03 -7.01 l
cp p3
/bg { 0.3020 0.3804 0.4039 srgb } def
np
 227.15 232.00 m
29.71 3.05 l
21.80 15.27 l
-29.01 -5.28 l
cp p3
/bg { 0.2902 0.3647 0.3882 srgb } def
np
 310.25 255.89 m
34.55 7.34 l
18.03 12.89 l
-33.59 -9.09 l
cp p3
/bg { 0.2196 0.2745 0.2941 srgb } def
np
 101.81 175.69 m
20.84 12.25 l
27.20 19.63 l
-22.09 -8.67 l
cp p3
/bg { 0.3608 0.4510 0.4784 srgb } def
np
 399.74 286.65 m
39.66 1.81 l
12.88 7.26 l
-37.89 -1.87 l
cp p3
/bg { 0.3098 0.3882 0.4118 srgb } def
np
 174.75 213.07 m
28.02 -0.22 l
24.38 19.15 l
-27.65 -0.50 l
cp p3
/bg { 0.2941 0.3686 0.3922 srgb } def
np
 256.86 235.05 m
32.37 3.14 l
21.02 17.70 l
-31.59 -5.57 l
cp p3
/bg { 0.2784 0.3490 0.3725 srgb } def
np
 344.80 263.23 m
38.14 10.52 l
16.80 12.90 l
-36.91 -10.53 l
cp p3
/bg { 0.2667 0.3333 0.3569 srgb } def
np
 122.65 187.94 m
24.86 4.84 l
27.24 20.29 l
-24.90 -5.50 l
cp p3
/bg { 0.3255 0.4039 0.4314 srgb } def
np
 439.40 288.46 m
44.26 9.18 l
10.53 5.56 l
-41.91 -7.48 l
cp p3
/bg { 0.2902 0.3647 0.3882 srgb } def
np
 202.77 212.85 m
30.15 2.34 l
23.94 19.86 l
-29.71 -3.05 l
cp p3
/bg { 0.2784 0.3451 0.3686 srgb } def
np
 289.23 238.19 m
35.39 5.88 l
20.18 19.16 l
-34.55 -7.34 l
cp p3
/bg { 0.3373 0.4196 0.4471 srgb } def
np
 382.94 273.75 m
41.45 2.42 l
15.01 12.29 l
-39.66 -1.81 l
cp p3
/bg { 0.3098 0.3882 0.4118 srgb } def
np
 147.51 192.78 m
28.32 -1.10 l
26.94 21.17 l
-28.02 0.22 l
cp p3
/bg { 0.2941 0.3647 0.3922 srgb } def
np
 232.92 215.19 m
33.01 2.37 l
23.30 20.63 l
-32.37 -3.14 l
cp p3
/bg { 0.2588 0.3255 0.3451 srgb } def
np
 324.62 244.07 m
39.20 10.05 l
19.12 19.63 l
-38.14 -10.52 l
cp p3
/bg { 0.3020 0.3765 0.4000 srgb } def
np
 424.39 276.17 m
46.09 7.23 l
13.18 14.24 l
-44.26 -9.18 l
cp p3
/bg { 0.2902 0.3647 0.3882 srgb } def
np
 175.83 191.68 m
30.53 1.47 l
26.56 22.04 l
-30.15 -2.34 l
cp p3
/bg { 0.2784 0.3490 0.3686 srgb } def
np
 265.93 217.56 m
36.21 5.15 l
22.48 21.36 l
-35.39 -5.88 l
cp p3
/bg { 0.3098 0.3882 0.4118 srgb } def
np
 363.82 254.12 m
43.01 1.61 l
17.56 20.44 l
-41.45 -2.42 l
cp p3
/bg { 0.2941 0.3647 0.3922 srgb } def
np
 206.36 193.15 m
33.59 1.42 l
25.98 22.99 l
-33.01 -2.37 l
cp p3
/bg { 0.2588 0.3255 0.3451 srgb } def
np
 302.14 222.71 m
40.25 9.41 l
21.43 22.00 l
-39.20 -10.05 l
cp p3
/bg { 0.2863 0.3569 0.3804 srgb } def
np
 406.83 255.73 m
48.03 6.55 l
15.62 21.12 l
-46.09 -7.23 l
cp p3
/bg { 0.2784 0.3490 0.3686 srgb } def
np
 239.95 194.57 m
36.97 4.18 l
25.22 23.96 l
-36.21 -5.15 l
cp p3
/bg { 0.3098 0.3882 0.4118 srgb } def
np
 342.39 232.12 m
44.64 0.57 l
19.80 23.04 l
-43.01 -1.61 l
cp p3
/bg { 0.2588 0.3255 0.3451 srgb } def
np
 276.92 198.75 m
41.28 8.52 l
24.19 24.85 l
-40.25 -9.41 l
cp p3
/bg { 0.2863 0.3569 0.3804 srgb } def
np
 387.03 232.69 m
50.09 5.60 l
17.74 23.99 l
-48.03 -6.55 l
cp p3
/bg { 0.3098 0.3882 0.4118 srgb } def
np
 318.20 207.27 m
46.33 -0.77 l
22.50 26.19 l
-44.64 -0.57 l
cp p3
/bg { 0.2863 0.3569 0.3804 srgb } def
np
 364.53 206.50 m
52.27 4.33 l
20.32 27.46 l
-50.09 -5.60 l
cp p3
0.75 setlinewidth
[ 0.00 3.00] 0 setdash
np
66.94 322.00 m
349.86 -111.17 l
o
np
416.80 210.83 m
-16.84 -171.72 l
o
np
416.80 210.83 m
118.66 160.42 l
o
ep
%%Trailer
%%Pages: 1
%%EOF
