%!PS-Adobe-3.0 EPSF-3.0
%%DocumentNeededResources: font Helvetica
%%+ font Helvetica-Bold
%%+ font Helvetica-Oblique
%%+ font Helvetica-BoldOblique
%%+ font Symbol
%%Title: R Graphics Output
%%Creator: R Software
%%Pages: (atend)
%%BoundingBox: 0 0 576 432
%%EndComments
%%BeginProlog
/bp  { gs sRGB gs } def
% begin .ps.prolog
/gs  { gsave } bind def
/gr  { grestore } bind def
/ep  { showpage gr gr } bind def
/m   { moveto } bind def
/l  { rlineto } bind def
/np  { newpath } bind def
/cp  { closepath } bind def
/f   { fill } bind def
/o   { stroke } bind def
/c   { newpath 0 360 arc } bind def
/r   { 4 2 roll moveto 1 copy 3 -1 roll exch 0 exch rlineto 0 rlineto -1 mul 0 exch rlineto closepath } bind def
/p1  { stroke } bind def
/p2  { gsave bg fill grestore newpath } bind def
/p3  { gsave bg fill grestore stroke } bind def
/p6  { gsave bg eofill grestore newpath } bind def
/p7  { gsave bg eofill grestore stroke } bind def
/t   { 5 -2 roll moveto gsave rotate
       1 index stringwidth pop
       mul neg 0 rmoveto show grestore } bind def
/ta  { 4 -2 roll moveto gsave rotate show } bind def
/tb  { 2 -1 roll 0 rmoveto show } bind def
/cl  { grestore gsave newpath 3 index 3 index moveto 1 index
       4 -1 roll lineto  exch 1 index lineto lineto
       closepath clip newpath } bind def
/rgb { setrgbcolor } bind def
/s   { scalefont setfont } bind def
% end   .ps.prolog
/sRGB { [ /CIEBasedABC
          << /DecodeLMN
               [ { dup 0.03928 le
                        {12.92321 div}
                        {0.055 add 1.055 div 2.4 exp }
                     ifelse
                 } bind dup dup
               ]
             /MatrixLMN [0.412457 0.212673 0.019334
                         0.357576 0.715152 0.119192
                         0.180437 0.072175 0.950301]
             /WhitePoint [0.9505 1.0 1.0890]
           >>
         ] setcolorspace } bind def
/srgb { setcolor } bind def
%%IncludeResource: font Helvetica
/Helvetica findfont
dup length dict begin
  {1 index /FID ne {def} {pop pop} ifelse} forall
  /Encoding ISOLatin1Encoding def
  currentdict
  end
/Font1 exch definefont pop
%%IncludeResource: font Helvetica-Bold
/Helvetica-Bold findfont
dup length dict begin
  {1 index /FID ne {def} {pop pop} ifelse} forall
  /Encoding ISOLatin1Encoding def
  currentdict
  end
/Font2 exch definefont pop
%%IncludeResource: font Helvetica-Oblique
/Helvetica-Oblique findfont
dup length dict begin
  {1 index /FID ne {def} {pop pop} ifelse} forall
  /Encoding ISOLatin1Encoding def
  currentdict
  end
/Font3 exch definefont pop
%%IncludeResource: font Helvetica-BoldOblique
/Helvetica-BoldOblique findfont
dup length dict begin
  {1 index /FID ne {def} {pop pop} ifelse} forall
  /Encoding ISOLatin1Encoding def
  currentdict
  end
/Font4 exch definefont pop
%%IncludeResource: font Symbol
/Symbol findfont
dup length dict begin
  {1 index /FID ne {def} {pop pop} ifelse} forall
  currentdict
  end
/Font5 exch definefont pop
%%EndProlog
%%Page: 1 1
bp
26.40 24.00 576.00 432.00 cl
0 0 0 srgb
0.75 setlinewidth
[] 0 setdash
1 setlinecap
1 setlinejoin
10.00 setmiterlimit
np
280.56 303.88 m
230.13 -63.09 l
o
np
510.69 240.79 m
24.77 130.46 l
o
np
535.46 371.25 m
-259.40 45.64 l
o
np
276.06 416.89 m
4.50 -113.01 l
o
np
101.81 175.69 m
178.75 128.19 l
o
np
276.06 416.89 m
-209.12 -94.89 l
o
np
66.94 322.00 m
34.87 -146.31 l
o
np
101.81 175.69 m
298.15 -136.58 l
o
np
399.96 39.11 m
110.73 201.68 l
o
0.00 0.00 576.00 432.00 cl
/Font1 findfont 20 s
0 0 0 srgb
221.61 61.84 (Ki) .5 -25.22 t
0.75 setlinewidth
[] 0 setdash
1 setlinecap
1 setlinejoin
10.00 setmiterlimit
np
127.79 163.79 m
-6.67 -9.64 l
o
114.34 137.16 (2) .5 0 t
np
184.20 137.95 m
-6.55 -10.43 l
o
170.99 109.73 (4) .5 0 t
np
247.43 108.98 m
-6.35 -11.33 l
o
234.61 78.91 (6) .5 0 t
np
318.79 76.30 m
-6.04 -12.41 l
o
306.59 44.05 (8) .5 0 t
np
399.96 39.11 m
-5.57 -13.67 l
o
388.69 4.29 (10) .5 0 t
505.06 132.81 (K) 62.49 ta
-0.800 (o) tb gr
np
417.80 71.59 m
10.77 -8.97 l
o
439.41 46.41 (2) .5 0 t
np
448.06 126.71 m
9.78 -7.87 l
o
467.68 103.73 (4) .5 0 t
np
472.77 171.72 m
8.95 -7.02 l
o
490.73 150.46 (6) .5 0 t
np
493.32 209.15 m
8.26 -6.32 l
o
509.88 189.30 (8) .5 0 t
np
510.69 240.79 m
7.66 -5.75 l
o
526.04 222.08 (10) .5 0 t
20.87 242.34 (Edge intersection) .5 -75.72 t
np
98.50 189.59 m
-14.70 -2.26 l
o
68.94 177.86 (0.90) .5 0 t
np
92.83 213.39 m
-15.11 -2.19 l
o
62.45 201.80 (0.92) .5 0 t
np
86.86 238.43 m
-15.53 -2.11 l
o
55.62 227.00 (0.94) .5 0 t
np
80.58 264.80 m
-15.99 -2.02 l
o
48.42 253.56 (0.96) .5 0 t
np
73.95 292.61 m
-16.47 -1.90 l
o
40.83 281.60 (0.98) .5 0 t
np
66.94 322.00 m
-16.97 -1.79 l
o
32.79 311.23 (1.00) .5 0 t
26.40 24.00 576.00 432.00 cl
/bg { 0.5373 0.6745 0.7176 srgb } def
0 0 0 srgb
0.75 setlinewidth
[] 0 setdash
1 setlinecap
1 setlinejoin
10.00 setmiterlimit
np
 263.63 337.16 m
23.40 -16.84 l
14.74 2.18 l
-22.60 16.42 l
cp p3
/bg { 0.4980 0.6235 0.6627 srgb } def
np
 287.03 320.32 m
23.84 -13.24 l
13.95 4.38 l
-23.05 11.04 l
cp p3
/bg { 0.5412 0.6784 0.7216 srgb } def
np
 246.64 336.56 m
24.29 -17.57 l
16.10 1.33 l
-23.40 16.84 l
cp p3
/bg { 0.4431 0.5529 0.5882 srgb } def
np
 310.87 307.08 m
24.60 -5.50 l
13.19 2.91 l
-23.84 6.97 l
cp p3
/bg { 0.5098 0.6392 0.6784 srgb } def
np
 270.93 318.99 m
24.66 -12.22 l
15.28 0.31 l
-23.84 13.24 l
cp p3
/bg { 0.4627 0.5765 0.6157 srgb } def
np
 335.47 301.58 m
25.61 -8.44 l
12.34 3.57 l
-24.76 7.78 l
cp p3
/bg { 0.5412 0.6745 0.7176 srgb } def
np
 228.01 336.25 m
25.18 -17.21 l
17.74 -0.05 l
-24.29 17.57 l
cp p3
/bg { 0.4549 0.5686 0.6039 srgb } def
np
 295.59 306.77 m
25.46 -7.86 l
14.42 2.67 l
-24.60 5.50 l
cp p3
/bg { 0.4627 0.5765 0.6157 srgb } def
np
 361.08 293.14 m
26.64 -8.83 l
11.42 4.10 l
-25.72 8.30 l
cp p3
/bg { 0.5059 0.6314 0.6745 srgb } def
np
 253.19 319.04 m
25.59 -12.62 l
16.81 0.35 l
-24.66 12.22 l
cp p3
/bg { 0.4627 0.5804 0.6157 srgb } def
np
 321.05 298.91 m
26.56 -8.04 l
13.47 2.27 l
-25.61 8.44 l
cp p3
/bg { 0.4431 0.5529 0.5922 srgb } def
np
 387.72 284.31 m
28.06 -5.59 l
10.23 2.49 l
-26.87 7.20 l
cp p3
/bg { 0.5333 0.6667 0.7098 srgb } def
np
 207.61 335.12 m
26.14 -17.71 l
19.44 1.63 l
-25.18 17.21 l
cp p3
/bg { 0.4706 0.5882 0.6235 srgb } def
np
 278.78 306.42 m
26.41 -8.77 l
15.86 1.26 l
-25.46 7.86 l
cp p3
/bg { 0.4667 0.5843 0.6235 srgb } def
np
 347.61 290.87 m
27.71 -8.79 l
12.40 2.23 l
-26.64 8.83 l
cp p3
/bg { 0.4196 0.5255 0.5608 srgb } def
np
 415.78 278.72 m
29.37 -6.49 l
9.49 6.16 l
-28.63 2.82 l
cp p3
/bg { 0.4980 0.6235 0.6627 srgb } def
np
 233.75 317.41 m
26.54 -13.12 l
18.49 2.13 l
-25.59 12.62 l
cp p3
/bg { 0.4627 0.5804 0.6196 srgb } def
np
 305.19 297.65 m
27.58 -8.19 l
14.84 1.41 l
-26.56 8.04 l
cp p3
/bg { 0.4431 0.5569 0.5922 srgb } def
np
 375.32 282.08 m
29.01 -8.15 l
11.45 4.79 l
-28.06 5.59 l
cp p3
/bg { 0.5294 0.6627 0.7059 srgb } def
np
 185.08 334.02 m
27.14 -18.03 l
21.53 1.42 l
-26.14 17.71 l
cp p3
/bg { 0.4235 0.5294 0.5647 srgb } def
np
 445.15 272.23 m
30.19 -11.09 l
9.22 12.66 l
-29.92 4.59 l
cp p3
/bg { 0.4706 0.5843 0.6235 srgb } def
np
 260.29 304.29 m
27.42 -10.84 l
17.48 4.20 l
-26.41 8.77 l
cp p3
/bg { 0.4706 0.5882 0.6235 srgb } def
np
 332.77 289.46 m
28.85 -9.30 l
13.70 1.92 l
-27.71 8.79 l
cp p3
/bg { 0.4549 0.5647 0.6039 srgb } def
np
 404.33 273.93 m
29.62 -15.64 l
11.20 13.94 l
-29.37 6.49 l
cp p3
/bg { 0.4980 0.6235 0.6627 srgb } def
np
 212.22 315.99 m
27.49 -12.98 l
20.58 1.28 l
-26.54 13.12 l
cp p3
/bg { 0.5020 0.6275 0.6706 srgb } def
np
 475.34 261.14 m
29.54 -21.85 l
8.58 16.08 l
-28.90 18.43 l
cp p3
/bg { 0.4510 0.5608 0.6000 srgb } def
np
 287.71 293.45 m
28.59 -7.67 l
16.47 3.68 l
-27.58 8.19 l
cp p3
/bg { 0.4667 0.5843 0.6196 srgb } def
np
 361.62 280.16 m
30.10 -11.24 l
12.61 5.01 l
-29.01 8.15 l
cp p3
/bg { 0.5176 0.6471 0.6902 srgb } def
np
 160.48 330.17 m
28.01 -17.49 l
23.73 3.31 l
-27.14 18.03 l
cp p3
/bg { 0.4353 0.5412 0.5765 srgb } def
np
 433.95 258.29 m
30.97 -13.58 l
10.42 16.43 l
-30.19 11.09 l
cp p3
/bg { 0.4824 0.6000 0.6392 srgb } def
np
 239.71 303.01 m
28.50 -11.35 l
19.50 1.79 l
-27.42 10.84 l
cp p3
/bg { 0.4667 0.5843 0.6235 srgb } def
np
 316.30 285.78 m
29.96 -12.79 l
15.36 7.17 l
-28.85 9.30 l
cp p3
/bg { 0.5176 0.6471 0.6902 srgb } def
np
 391.72 268.92 m
30.16 -24.65 l
12.07 14.02 l
-29.62 15.64 l
cp p3
/bg { 0.4902 0.6118 0.6549 srgb } def
np
 188.49 312.68 m
28.73 -15.85 l
22.49 6.18 l
-27.49 12.98 l
cp p3
/bg { 0.5098 0.6353 0.6745 srgb } def
np
 464.92 244.71 m
29.97 -26.77 l
9.99 21.35 l
-29.54 21.85 l
cp p3
/bg { 0.4706 0.5843 0.6235 srgb } def
np
 268.21 291.66 m
29.91 -15.96 l
18.18 10.08 l
-28.59 7.67 l
cp p3
/bg { 0.4784 0.6000 0.6392 srgb } def
np
 346.26 272.99 m
30.76 -22.40 l
14.70 18.33 l
-30.10 11.24 l
cp p3
/bg { 0.5137 0.6431 0.6863 srgb } def
np
 132.86 327.67 m
29.04 -17.87 l
26.59 2.88 l
-28.01 17.49 l
cp p3
/bg { 0.4588 0.5725 0.6118 srgb } def
np
 421.88 244.27 m
31.60 -18.53 l
11.44 18.97 l
-30.97 13.58 l
cp p3
/bg { 0.4627 0.5804 0.6157 srgb } def
np
 217.22 296.83 m
29.52 -12.04 l
21.47 6.87 l
-28.50 11.35 l
cp p3
/bg { 0.4706 0.5882 0.6235 srgb } def
np
 298.12 275.70 m
31.05 -19.76 l
17.09 17.05 l
-29.96 12.79 l
cp p3
/bg { 0.5098 0.6392 0.6784 srgb } def
np
 377.02 250.59 m
31.17 -27.15 l
13.69 20.83 l
-30.16 24.65 l
cp p3
/bg { 0.5059 0.6314 0.6706 srgb } def
np
 161.90 309.80 m
29.99 -17.54 l
25.33 4.57 l
-28.73 15.85 l
cp p3
/bg { 0.5216 0.6510 0.6941 srgb } def
np
 453.48 225.74 m
31.64 -24.96 l
9.77 17.16 l
-29.97 26.77 l
cp p3
/bg { 0.5020 0.6275 0.6706 srgb } def
np
 246.74 284.79 m
31.44 -23.62 l
19.94 14.53 l
-29.91 15.96 l
cp p3
/bg { 0.4980 0.6235 0.6627 srgb } def
np
 329.17 255.94 m
31.94 -23.56 l
15.91 18.21 l
-30.76 22.40 l
cp p3
/bg { 0.5137 0.6431 0.6863 srgb } def
np
 101.62 326.31 m
30.20 -18.72 l
30.08 2.21 l
-29.04 17.87 l
cp p3
/bg { 0.4588 0.5725 0.6118 srgb } def
np
 408.19 223.44 m
32.60 -20.33 l
12.69 22.63 l
-31.60 18.53 l
cp p3
/bg { 0.4824 0.6039 0.6431 srgb } def
np
 191.89 292.26 m
31.33 -19.73 l
23.52 12.26 l
-29.52 12.04 l
cp p3
/bg { 0.4941 0.6157 0.6549 srgb } def
np
 278.18 261.17 m
32.29 -23.54 l
18.70 18.31 l
-31.05 19.76 l
cp p3
/bg { 0.5255 0.6549 0.6980 srgb } def
np
 361.11 232.38 m
32.45 -28.77 l
14.63 19.83 l
-31.17 27.15 l
cp p3
/bg { 0.5176 0.6471 0.6902 srgb } def
np
 131.82 307.59 m
32.26 -24.97 l
27.81 9.64 l
-29.99 17.54 l
cp p3
/bg { 0.4980 0.6196 0.6627 srgb } def
np
 440.79 203.11 m
32.69 -27.05 l
11.64 24.72 l
-31.64 24.96 l
cp p3
/bg { 0.5176 0.6471 0.6902 srgb } def
np
 223.22 272.53 m
32.77 -24.39 l
22.19 13.03 l
-31.44 23.62 l
cp p3
/bg { 0.4980 0.6235 0.6627 srgb } def
np
 310.47 237.63 m
33.23 -24.25 l
17.41 19.00 l
-31.94 23.56 l
cp p3
/bg { 0.5098 0.6353 0.6784 srgb } def
np
 66.94 322.00 m
31.77 -21.67 l
33.11 7.26 l
-30.20 18.72 l
cp p3
/bg { 0.4784 0.5961 0.6353 srgb } def
np
 393.56 203.61 m
33.76 -22.50 l
13.47 22.00 l
-32.60 20.33 l
cp p3
/bg { 0.5020 0.6275 0.6667 srgb } def
np
 164.08 282.62 m
32.68 -21.43 l
26.46 11.34 l
-31.33 19.73 l
cp p3
/bg { 0.5137 0.6431 0.6863 srgb } def
np
 255.99 248.14 m
33.69 -23.32 l
20.79 12.81 l
-32.29 23.54 l
cp p3
/bg { 0.5294 0.6588 0.7020 srgb } def
np
 343.70 213.38 m
33.88 -30.41 l
15.98 20.64 l
-32.45 28.77 l
cp p3
/bg { 0.5294 0.6627 0.7059 srgb } def
np
 98.71 300.33 m
33.51 -25.15 l
31.86 7.44 l
-32.26 24.97 l
cp p3
/bg { 0.5137 0.6431 0.6824 srgb } def
np
 427.32 181.11 m
33.77 -30.30 l
12.39 25.25 l
-32.69 27.05 l
cp p3
/bg { 0.5216 0.6549 0.6980 srgb } def
np
 196.76 261.19 m
34.45 -27.57 l
24.78 14.52 l
-32.77 24.39 l
cp p3
/bg { 0.5255 0.6549 0.6980 srgb } def
np
 289.68 224.82 m
34.84 -27.50 l
19.18 16.06 l
-33.23 24.25 l
cp p3
/bg { 0.4902 0.6118 0.6510 srgb } def
np
 377.58 182.97 m
35.04 -25.41 l
14.70 23.55 l
-33.76 22.50 l
cp p3
/bg { 0.5137 0.6392 0.6824 srgb } def
np
 132.22 275.18 m
34.10 -22.39 l
30.44 8.40 l
-32.68 21.43 l
cp p3
/bg { 0.5059 0.6353 0.6745 srgb } def
np
 231.21 233.62 m
35.26 -25.34 l
23.21 16.54 l
-33.69 23.32 l
cp p3
/bg { 0.5451 0.6824 0.7294 srgb } def
np
 324.52 197.32 m
35.53 -35.05 l
17.53 20.70 l
-33.88 30.41 l
cp p3
/bg { 0.5216 0.6549 0.6980 srgb } def
np
 412.62 157.56 m
35.53 -30.22 l
12.94 23.47 l
-33.77 30.30 l
cp p3
/bg { 0.5373 0.6706 0.7176 srgb } def
np
 166.32 252.79 m
35.99 -26.69 l
28.90 7.52 l
-34.45 27.57 l
cp p3
/bg { 0.5255 0.6549 0.6980 srgb } def
np
 266.47 208.28 m
36.61 -30.50 l
21.44 19.54 l
-34.84 27.50 l
cp p3
/bg { 0.5059 0.6314 0.6745 srgb } def
np
 360.05 162.27 m
36.60 -28.00 l
15.97 23.29 l
-35.04 25.41 l
cp p3
/bg { 0.5294 0.6588 0.7020 srgb } def
np
 202.31 226.10 m
36.96 -23.71 l
27.20 5.89 l
-35.26 25.34 l
cp p3
/bg { 0.5529 0.6902 0.7333 srgb } def
np
 303.08 177.78 m
37.49 -36.06 l
19.48 20.55 l
-35.53 35.05 l
cp p3
/bg { 0.5255 0.6588 0.7020 srgb } def
np
 396.65 134.27 m
37.08 -33.65 l
14.42 26.72 l
-35.53 30.22 l
cp p3
/bg { 0.5529 0.6902 0.7373 srgb } def
np
 239.27 202.39 m
38.80 -27.45 l
25.01 2.84 l
-36.61 30.50 l
cp p3
/bg { 0.5216 0.6510 0.6941 srgb } def
np
 340.57 141.72 m
38.39 -31.94 l
17.69 24.49 l
-36.60 28.00 l
cp p3
/bg { 0.5843 0.7294 0.7765 srgb } def
np
 278.07 174.94 m
40.44 -37.26 l
22.06 4.04 l
-37.49 36.06 l
cp p3
/bg { 0.5373 0.6706 0.7176 srgb } def
np
 378.96 109.78 m
39.15 -35.50 l
15.62 26.34 l
-37.08 33.65 l
cp p3
/bg { 0.5608 0.6980 0.7451 srgb } def
np
 318.51 137.68 m
41.77 -27.94 l
18.68 0.04 l
-38.39 31.94 l
cp p3
/bg { 0.5765 0.7216 0.7686 srgb } def
np
 360.28 109.74 m
43.35 -33.25 l
14.48 -2.21 l
-39.15 35.50 l
cp p3
0.75 setlinewidth
[ 0.00 3.00] 0 setdash
np
66.94 322.00 m
349.86 -111.17 l
o
np
416.80 210.83 m
-16.84 -171.72 l
o
np
416.80 210.83 m
118.66 160.42 l
o
ep
%%Trailer
%%Pages: 1
%%EOF
