%!PS-Adobe-3.0 EPSF-3.0
%%DocumentNeededResources: font Helvetica
%%+ font Helvetica-Bold
%%+ font Helvetica-Oblique
%%+ font Helvetica-BoldOblique
%%+ font Symbol
%%Title: R Graphics Output
%%Creator: R Software
%%Pages: (atend)
%%BoundingBox: 0 0 576 432
%%EndComments
%%BeginProlog
/bp  { gs sRGB gs } def
% begin .ps.prolog
/gs  { gsave } bind def
/gr  { grestore } bind def
/ep  { showpage gr gr } bind def
/m   { moveto } bind def
/l  { rlineto } bind def
/np  { newpath } bind def
/cp  { closepath } bind def
/f   { fill } bind def
/o   { stroke } bind def
/c   { newpath 0 360 arc } bind def
/r   { 4 2 roll moveto 1 copy 3 -1 roll exch 0 exch rlineto 0 rlineto -1 mul 0 exch rlineto closepath } bind def
/p1  { stroke } bind def
/p2  { gsave bg fill grestore newpath } bind def
/p3  { gsave bg fill grestore stroke } bind def
/p6  { gsave bg eofill grestore newpath } bind def
/p7  { gsave bg eofill grestore stroke } bind def
/t   { 5 -2 roll moveto gsave rotate
       1 index stringwidth pop
       mul neg 0 rmoveto show grestore } bind def
/ta  { 4 -2 roll moveto gsave rotate show } bind def
/tb  { 2 -1 roll 0 rmoveto show } bind def
/cl  { grestore gsave newpath 3 index 3 index moveto 1 index
       4 -1 roll lineto  exch 1 index lineto lineto
       closepath clip newpath } bind def
/rgb { setrgbcolor } bind def
/s   { scalefont setfont } bind def
% end   .ps.prolog
/sRGB { [ /CIEBasedABC
          << /DecodeLMN
               [ { dup 0.03928 le
                        {12.92321 div}
                        {0.055 add 1.055 div 2.4 exp }
                     ifelse
                 } bind dup dup
               ]
             /MatrixLMN [0.412457 0.212673 0.019334
                         0.357576 0.715152 0.119192
                         0.180437 0.072175 0.950301]
             /WhitePoint [0.9505 1.0 1.0890]
           >>
         ] setcolorspace } bind def
/srgb { setcolor } bind def
%%IncludeResource: font Helvetica
/Helvetica findfont
dup length dict begin
  {1 index /FID ne {def} {pop pop} ifelse} forall
  /Encoding ISOLatin1Encoding def
  currentdict
  end
/Font1 exch definefont pop
%%IncludeResource: font Helvetica-Bold
/Helvetica-Bold findfont
dup length dict begin
  {1 index /FID ne {def} {pop pop} ifelse} forall
  /Encoding ISOLatin1Encoding def
  currentdict
  end
/Font2 exch definefont pop
%%IncludeResource: font Helvetica-Oblique
/Helvetica-Oblique findfont
dup length dict begin
  {1 index /FID ne {def} {pop pop} ifelse} forall
  /Encoding ISOLatin1Encoding def
  currentdict
  end
/Font3 exch definefont pop
%%IncludeResource: font Helvetica-BoldOblique
/Helvetica-BoldOblique findfont
dup length dict begin
  {1 index /FID ne {def} {pop pop} ifelse} forall
  /Encoding ISOLatin1Encoding def
  currentdict
  end
/Font4 exch definefont pop
%%IncludeResource: font Symbol
/Symbol findfont
dup length dict begin
  {1 index /FID ne {def} {pop pop} ifelse} forall
  currentdict
  end
/Font5 exch definefont pop
%%EndProlog
%%Page: 1 1
bp
26.40 24.00 576.00 432.00 cl
0 0 0 srgb
0.75 setlinewidth
[] 0 setdash
1 setlinecap
1 setlinejoin
10.00 setmiterlimit
np
280.56 303.88 m
230.13 -63.09 l
o
np
510.69 240.79 m
24.77 130.46 l
o
np
535.46 371.25 m
-259.40 45.64 l
o
np
276.06 416.89 m
4.50 -113.01 l
o
np
101.81 175.69 m
178.75 128.19 l
o
np
276.06 416.89 m
-209.12 -94.89 l
o
np
66.94 322.00 m
34.87 -146.31 l
o
np
101.81 175.69 m
298.15 -136.58 l
o
np
399.96 39.11 m
110.73 201.68 l
o
0.00 0.00 576.00 432.00 cl
/Font1 findfont 20 s
0 0 0 srgb
221.61 61.84 (Ki) .5 -25.22 t
0.75 setlinewidth
[] 0 setdash
1 setlinecap
1 setlinejoin
10.00 setmiterlimit
np
127.79 163.79 m
-6.67 -9.64 l
o
114.34 137.16 (2) .5 0 t
np
184.20 137.95 m
-6.55 -10.43 l
o
170.99 109.73 (4) .5 0 t
np
247.43 108.98 m
-6.35 -11.33 l
o
234.61 78.91 (6) .5 0 t
np
318.79 76.30 m
-6.04 -12.41 l
o
306.59 44.05 (8) .5 0 t
np
399.96 39.11 m
-5.57 -13.67 l
o
388.69 4.29 (10) .5 0 t
505.06 132.81 (K) 62.49 ta
-0.800 (o) tb gr
np
417.80 71.59 m
10.77 -8.97 l
o
439.41 46.41 (2) .5 0 t
np
448.06 126.71 m
9.78 -7.87 l
o
467.68 103.73 (4) .5 0 t
np
472.77 171.72 m
8.95 -7.02 l
o
490.73 150.46 (6) .5 0 t
np
493.32 209.15 m
8.26 -6.32 l
o
509.88 189.30 (8) .5 0 t
np
510.69 240.79 m
7.66 -5.75 l
o
526.04 222.08 (10) .5 0 t
-9.96 364.88 (In-degree closeness centr) -75.72 ta
-0.200 (ality) tb gr
np
101.81 175.69 m
-14.46 -2.30 l
o
72.73 163.88 (0.00) .5 0 t
np
95.67 201.46 m
-14.90 -2.23 l
o
65.71 189.80 (0.05) .5 0 t
np
89.18 228.71 m
-15.37 -2.14 l
o
58.28 217.22 (0.10) .5 0 t
np
82.30 257.56 m
-15.86 -2.04 l
o
50.40 246.27 (0.15) .5 0 t
np
75.01 288.17 m
-16.39 -1.93 l
o
42.04 277.11 (0.20) .5 0 t
np
67.26 320.69 m
-16.95 -1.79 l
o
33.15 309.91 (0.25) .5 0 t
26.40 24.00 576.00 432.00 cl
/bg { 0.4039 0.5059 0.5373 srgb } def
0 0 0 srgb
0.75 setlinewidth
[] 0 setdash
1 setlinecap
1 setlinejoin
10.00 setmiterlimit
np
 265.98 293.80 m
22.15 -6.63 l
14.12 10.85 l
-21.70 6.22 l
cp p3
/bg { 0.4000 0.5020 0.5333 srgb } def
np
 288.13 287.17 m
23.03 -6.60 l
13.61 11.27 l
-22.52 6.18 l
cp p3
/bg { 0.4039 0.5059 0.5373 srgb } def
np
 250.40 282.65 m
22.63 -7.09 l
15.10 11.61 l
-22.15 6.63 l
cp p3
/bg { 0.4000 0.5020 0.5333 srgb } def
np
 311.16 280.57 m
23.97 -6.87 l
13.06 11.73 l
-23.42 6.41 l
cp p3
np
 273.03 275.56 m
23.54 -7.10 l
14.59 12.11 l
-23.03 6.60 l
cp p3
np
 335.13 273.70 m
24.96 -7.18 l
12.46 12.23 l
-24.36 6.68 l
cp p3
/bg { 0.4039 0.5059 0.5373 srgb } def
np
 233.72 270.69 m
23.10 -7.60 l
16.21 12.47 l
-22.63 7.09 l
cp p3
/bg { 0.4000 0.5020 0.5333 srgb } def
np
 296.57 268.46 m
24.53 -7.37 l
14.03 12.61 l
-23.97 6.87 l
cp p3
np
 360.09 266.52 m
26.04 -7.45 l
11.78 12.74 l
-25.36 6.94 l
cp p3
np
 256.82 263.09 m
24.07 -7.62 l
15.68 12.99 l
-23.54 7.10 l
cp p3
np
 321.10 261.09 m
25.60 -7.69 l
13.39 13.12 l
-24.96 7.18 l
cp p3
np
 386.13 259.07 m
27.16 -7.82 l
11.04 13.30 l
-26.42 7.26 l
cp p3
/bg { 0.4039 0.5059 0.5373 srgb } def
np
 215.79 257.85 m
23.59 -8.16 l
17.44 13.40 l
-23.10 7.60 l
cp p3
/bg { 0.4000 0.5020 0.5333 srgb } def
np
 280.89 255.47 m
25.12 -7.95 l
15.09 13.57 l
-24.53 7.37 l
cp p3
np
 346.70 253.40 m
26.74 -8.05 l
12.69 13.72 l
-26.04 7.45 l
cp p3
np
 413.29 251.25 m
28.37 -8.12 l
10.23 13.86 l
-27.56 7.56 l
cp p3
np
 239.38 249.69 m
24.61 -8.21 l
16.90 13.99 l
-24.07 7.62 l
cp p3
np
 306.01 247.52 m
26.26 -8.30 l
14.43 14.18 l
-25.60 7.69 l
cp p3
np
 373.44 245.35 m
27.94 -8.43 l
11.91 14.33 l
-27.16 7.82 l
cp p3
/bg { 0.4039 0.5059 0.5373 srgb } def
np
 196.49 244.02 m
24.08 -8.79 l
18.81 14.46 l
-23.59 8.16 l
cp p3
/bg { 0.4000 0.5020 0.5333 srgb } def
np
 441.66 243.13 m
29.67 -8.53 l
9.33 14.51 l
-28.77 7.88 l
cp p3
np
 263.99 241.48 m
25.74 -8.58 l
16.28 14.62 l
-25.12 7.95 l
cp p3
np
 332.27 239.22 m
27.47 -8.69 l
13.70 14.82 l
-26.74 8.05 l
cp p3
np
 401.38 236.92 m
29.23 -8.80 l
11.05 15.01 l
-28.37 8.12 l
cp p3
np
 220.57 235.23 m
25.17 -8.88 l
18.25 15.13 l
-24.61 8.21 l
cp p3
np
 471.33 234.60 m
31.04 -8.90 l
8.34 15.17 l
-30.05 8.24 l
cp p3
np
 289.73 232.90 m
26.94 -8.98 l
15.60 15.30 l
-26.26 8.30 l
cp p3
np
 359.74 230.53 m
28.76 -9.10 l
12.88 15.49 l
-27.94 8.43 l
cp p3
/bg { 0.4039 0.5059 0.5373 srgb } def
np
 175.64 229.07 m
24.59 -9.49 l
20.34 15.65 l
-24.08 8.79 l
cp p3
/bg { 0.4000 0.5020 0.5333 srgb } def
np
 430.61 228.12 m
30.62 -9.21 l
10.10 15.69 l
-29.67 8.53 l
cp p3
np
 245.74 226.35 m
26.36 -9.29 l
17.63 15.84 l
-25.74 8.58 l
cp p3
np
 316.67 223.92 m
28.23 -9.44 l
14.84 16.05 l
-27.47 8.69 l
cp p3
np
 388.50 221.43 m
30.14 -9.55 l
11.97 16.24 l
-29.23 8.80 l
cp p3
np
 200.23 219.58 m
25.72 -9.63 l
19.79 16.40 l
-25.17 8.88 l
cp p3
np
 461.23 218.91 m
32.11 -9.67 l
9.03 16.46 l
-31.04 8.90 l
cp p3
np
 272.10 217.06 m
27.65 -9.77 l
16.92 16.63 l
-26.94 8.98 l
cp p3
np
 344.90 214.48 m
29.62 -9.88 l
13.98 16.83 l
-28.76 9.10 l
cp p3
/bg { 0.4039 0.5059 0.5373 srgb } def
np
 153.07 212.82 m
25.07 -10.22 l
22.09 16.98 l
-24.59 9.49 l
cp p3
/bg { 0.4000 0.5020 0.5333 srgb } def
np
 418.64 211.88 m
31.64 -10.01 l
10.95 17.04 l
-30.62 9.21 l
cp p3
np
 225.95 209.95 m
27.01 -10.11 l
19.14 17.22 l
-26.36 9.29 l
cp p3
np
 299.75 207.29 m
29.03 -10.24 l
16.12 17.43 l
-28.23 9.44 l
cp p3
np
 374.52 204.60 m
31.11 -10.38 l
13.01 17.66 l
-30.14 9.55 l
cp p3
np
 178.14 202.60 m
26.29 -10.47 l
21.52 17.82 l
-25.72 9.63 l
cp p3
np
 450.28 201.87 m
33.23 -10.52 l
9.83 17.89 l
-32.11 9.67 l
cp p3
np
 252.96 199.84 m
28.38 -10.63 l
18.41 18.08 l
-27.65 9.77 l
cp p3
np
 328.78 197.05 m
30.52 -10.76 l
15.22 18.31 l
-29.62 9.88 l
cp p3
/bg { 0.4039 0.5020 0.5373 srgb } def
np
 128.54 195.12 m
25.54 -11.03 l
24.06 18.51 l
-25.07 10.22 l
cp p3
/bg { 0.4000 0.5020 0.5333 srgb } def
np
 405.63 194.22 m
32.71 -10.91 l
11.94 18.56 l
-31.64 10.01 l
cp p3
np
 204.43 192.13 m
27.66 -11.03 l
20.87 18.74 l
-27.01 10.11 l
cp p3
np
 281.34 189.21 m
29.86 -11.17 l
17.58 19.01 l
-29.03 10.24 l
cp p3
np
 359.30 186.29 m
32.12 -11.34 l
14.21 19.27 l
-31.11 10.38 l
cp p3
np
 154.08 184.09 m
26.87 -11.45 l
23.48 19.49 l
-26.29 10.47 l
cp p3
np
 438.34 183.31 m
34.44 -11.49 l
10.73 19.53 l
-33.23 10.52 l
cp p3
np
 232.09 181.10 m
29.14 -11.62 l
20.11 19.73 l
-28.38 10.63 l
cp p3
np
 311.20 178.04 m
31.47 -11.79 l
16.63 20.04 l
-30.52 10.76 l
cp p3
np
 101.81 175.69 m
25.89 -11.45 l
26.38 19.85 l
-25.54 11.03 l
cp p3
np
 391.42 174.95 m
33.86 -11.93 l
13.06 20.29 l
-32.71 10.91 l
cp p3
np
 180.95 172.64 m
28.32 -12.07 l
22.82 20.53 l
-27.66 11.03 l
cp p3
np
 261.23 169.48 m
30.73 -12.24 l
19.24 20.80 l
-29.86 11.17 l
cp p3
np
 342.67 166.25 m
33.20 -12.40 l
15.55 21.10 l
-32.12 11.34 l
cp p3
/bg { 0.3961 0.4941 0.5294 srgb } def
np
 127.70 164.24 m
26.78 -9.05 l
26.47 17.45 l
-26.87 11.45 l
cp p3
/bg { 0.4000 0.5020 0.5333 srgb } def
np
 425.28 163.02 m
35.75 -12.61 l
11.75 21.41 l
-34.44 11.49 l
cp p3
np
 209.27 160.57 m
29.90 -12.75 l
22.06 21.66 l
-29.14 11.62 l
cp p3
np
 291.96 157.24 m
32.45 -12.92 l
18.26 21.93 l
-31.47 11.79 l
cp p3
np
 375.87 153.85 m
35.08 -13.13 l
14.33 22.30 l
-33.86 11.93 l
cp p3
/bg { 0.3451 0.4314 0.4588 srgb } def
np
 154.48 155.19 m
16.66 66.67 l
38.13 -61.29 l
-28.32 12.07 l
cp p3
/bg { 0.4000 0.5020 0.5333 srgb } def
np
 239.17 147.82 m
31.63 -13.47 l
21.16 22.89 l
-30.73 12.24 l
cp p3
np
 324.41 144.32 m
34.34 -13.70 l
17.12 23.23 l
-33.20 12.40 l
cp p3
np
 410.95 140.72 m
37.13 -13.90 l
12.95 23.59 l
-35.75 12.61 l
cp p3
/bg { 0.4863 0.6078 0.6471 srgb } def
np
 171.14 221.86 m
26.19 44.66 l
41.84 -118.70 l
-29.90 12.75 l
cp p3
/bg { 0.4000 0.5020 0.5333 srgb } def
np
 270.80 134.35 m
33.49 -14.28 l
20.12 24.25 l
-32.45 12.92 l
cp p3
np
 358.75 130.62 m
36.38 -14.49 l
15.82 24.59 l
-35.08 13.13 l
cp p3
/bg { 0.5412 0.6745 0.7176 srgb } def
np
 197.33 266.52 m
37.19 -9.83 l
36.28 -122.34 l
-31.63 13.47 l
cp p3
/bg { 0.4000 0.5020 0.5333 srgb } def
np
 304.29 120.07 m
35.53 -15.14 l
18.93 25.69 l
-34.34 13.70 l
cp p3
np
 395.13 116.13 m
38.62 -15.39 l
14.33 26.08 l
-37.13 13.90 l
cp p3
/bg { 0.5373 0.6706 0.7137 srgb } def
np
 234.52 256.69 m
39.97 -7.34 l
29.80 -129.28 l
-33.49 14.28 l
cp p3
/bg { 0.4000 0.5020 0.5333 srgb } def
np
 339.82 104.93 m
37.77 -16.09 l
17.54 27.29 l
-36.38 14.49 l
cp p3
/bg { 0.5412 0.6745 0.7176 srgb } def
np
 274.49 249.35 m
43.57 -11.65 l
21.76 -132.77 l
-35.53 15.14 l
cp p3
/bg { 0.4000 0.5020 0.5333 srgb } def
np
 377.59 88.84 m
40.22 -17.14 l
15.94 29.04 l
-38.62 15.39 l
cp p3
/bg { 0.5412 0.6745 0.7176 srgb } def
np
 318.06 237.70 m
47.32 -11.86 l
12.21 -137.00 l
-37.77 16.09 l
cp p3
np
 365.38 225.84 m
51.42 -15.01 l
1.01 -139.13 l
-40.22 17.14 l
cp p3
0.75 setlinewidth
[ 0.00 3.00] 0 setdash
np
66.94 322.00 m
349.86 -111.17 l
o
np
416.80 210.83 m
-16.84 -171.72 l
o
np
416.80 210.83 m
118.66 160.42 l
o
ep
%%Trailer
%%Pages: 1
%%EOF
