%!PS-Adobe-3.0 EPSF-3.0
%%DocumentNeededResources: font Helvetica
%%+ font Helvetica-Bold
%%+ font Helvetica-Oblique
%%+ font Helvetica-BoldOblique
%%+ font Symbol
%%Title: R Graphics Output
%%Creator: R Software
%%Pages: (atend)
%%BoundingBox: 0 0 576 432
%%EndComments
%%BeginProlog
/bp  { gs sRGB gs } def
% begin .ps.prolog
/gs  { gsave } bind def
/gr  { grestore } bind def
/ep  { showpage gr gr } bind def
/m   { moveto } bind def
/l  { rlineto } bind def
/np  { newpath } bind def
/cp  { closepath } bind def
/f   { fill } bind def
/o   { stroke } bind def
/c   { newpath 0 360 arc } bind def
/r   { 4 2 roll moveto 1 copy 3 -1 roll exch 0 exch rlineto 0 rlineto -1 mul 0 exch rlineto closepath } bind def
/p1  { stroke } bind def
/p2  { gsave bg fill grestore newpath } bind def
/p3  { gsave bg fill grestore stroke } bind def
/p6  { gsave bg eofill grestore newpath } bind def
/p7  { gsave bg eofill grestore stroke } bind def
/t   { 5 -2 roll moveto gsave rotate
       1 index stringwidth pop
       mul neg 0 rmoveto show grestore } bind def
/ta  { 4 -2 roll moveto gsave rotate show } bind def
/tb  { 2 -1 roll 0 rmoveto show } bind def
/cl  { grestore gsave newpath 3 index 3 index moveto 1 index
       4 -1 roll lineto  exch 1 index lineto lineto
       closepath clip newpath } bind def
/rgb { setrgbcolor } bind def
/s   { scalefont setfont } bind def
% end   .ps.prolog
/sRGB { [ /CIEBasedABC
          << /DecodeLMN
               [ { dup 0.03928 le
                        {12.92321 div}
                        {0.055 add 1.055 div 2.4 exp }
                     ifelse
                 } bind dup dup
               ]
             /MatrixLMN [0.412457 0.212673 0.019334
                         0.357576 0.715152 0.119192
                         0.180437 0.072175 0.950301]
             /WhitePoint [0.9505 1.0 1.0890]
           >>
         ] setcolorspace } bind def
/srgb { setcolor } bind def
%%IncludeResource: font Helvetica
/Helvetica findfont
dup length dict begin
  {1 index /FID ne {def} {pop pop} ifelse} forall
  /Encoding ISOLatin1Encoding def
  currentdict
  end
/Font1 exch definefont pop
%%IncludeResource: font Helvetica-Bold
/Helvetica-Bold findfont
dup length dict begin
  {1 index /FID ne {def} {pop pop} ifelse} forall
  /Encoding ISOLatin1Encoding def
  currentdict
  end
/Font2 exch definefont pop
%%IncludeResource: font Helvetica-Oblique
/Helvetica-Oblique findfont
dup length dict begin
  {1 index /FID ne {def} {pop pop} ifelse} forall
  /Encoding ISOLatin1Encoding def
  currentdict
  end
/Font3 exch definefont pop
%%IncludeResource: font Helvetica-BoldOblique
/Helvetica-BoldOblique findfont
dup length dict begin
  {1 index /FID ne {def} {pop pop} ifelse} forall
  /Encoding ISOLatin1Encoding def
  currentdict
  end
/Font4 exch definefont pop
%%IncludeResource: font Symbol
/Symbol findfont
dup length dict begin
  {1 index /FID ne {def} {pop pop} ifelse} forall
  currentdict
  end
/Font5 exch definefont pop
%%EndProlog
%%Page: 1 1
bp
26.40 24.00 576.00 432.00 cl
0 0 0 srgb
0.75 setlinewidth
[] 0 setdash
1 setlinecap
1 setlinejoin
10.00 setmiterlimit
np
280.56 303.88 m
230.13 -63.09 l
o
np
510.69 240.79 m
24.77 130.46 l
o
np
535.46 371.25 m
-259.40 45.64 l
o
np
276.06 416.89 m
4.50 -113.01 l
o
np
101.81 175.69 m
178.75 128.19 l
o
np
276.06 416.89 m
-209.12 -94.89 l
o
np
66.94 322.00 m
34.87 -146.31 l
o
np
101.81 175.69 m
298.15 -136.58 l
o
np
399.96 39.11 m
110.73 201.68 l
o
0.00 0.00 576.00 432.00 cl
/Font1 findfont 20 s
0 0 0 srgb
221.61 61.84 (Ki) .5 -25.22 t
0.75 setlinewidth
[] 0 setdash
1 setlinecap
1 setlinejoin
10.00 setmiterlimit
np
127.79 163.79 m
-6.67 -9.64 l
o
114.34 137.16 (2) .5 0 t
np
184.20 137.95 m
-6.55 -10.43 l
o
170.99 109.73 (4) .5 0 t
np
247.43 108.98 m
-6.35 -11.33 l
o
234.61 78.91 (6) .5 0 t
np
318.79 76.30 m
-6.04 -12.41 l
o
306.59 44.05 (8) .5 0 t
np
399.96 39.11 m
-5.57 -13.67 l
o
388.69 4.29 (10) .5 0 t
505.06 132.81 (K) 62.49 ta
-0.800 (o) tb gr
np
417.80 71.59 m
10.77 -8.97 l
o
439.41 46.41 (2) .5 0 t
np
448.06 126.71 m
9.78 -7.87 l
o
467.68 103.73 (4) .5 0 t
np
472.77 171.72 m
8.95 -7.02 l
o
490.73 150.46 (6) .5 0 t
np
493.32 209.15 m
8.26 -6.32 l
o
509.88 189.30 (8) .5 0 t
np
510.69 240.79 m
7.66 -5.75 l
o
526.04 222.08 (10) .5 0 t
23.26 234.29 (Diameter) .5 -75.72 t
np
101.81 175.69 m
-14.46 -2.30 l
o
72.73 163.88 (7.0) .5 0 t
np
96.68 197.24 m
-14.83 -2.24 l
o
66.86 185.55 (7.5) .5 0 t
np
91.30 219.81 m
-15.22 -2.17 l
o
60.70 208.26 (8.0) .5 0 t
np
85.65 243.49 m
-15.61 -2.09 l
o
54.24 232.10 (8.5) .5 0 t
np
79.73 268.35 m
-16.05 -2.00 l
o
47.45 257.14 (9.0) .5 0 t
np
73.50 294.48 m
-16.49 -1.90 l
o
40.31 283.48 (9.5) .5 0 t
np
66.94 322.00 m
-16.97 -1.79 l
o
32.79 311.23 (10.0) .5 0 t
26.40 24.00 576.00 432.00 cl
/bg { 0.4000 0.5020 0.5333 srgb } def
0 0 0 srgb
0.75 setlinewidth
[] 0 setdash
1 setlinecap
1 setlinejoin
10.00 setmiterlimit
np
 264.05 329.45 m
22.88 -5.85 l
14.63 9.98 l
-22.40 5.46 l
cp p3
/bg { 0.1608 0.2000 0.2157 srgb } def
np
 286.93 323.60 m
23.82 -6.08 l
14.18 49.13 l
-23.37 -33.07 l
cp p3
/bg { 0.4000 0.5020 0.5333 srgb } def
np
 247.85 319.17 m
23.38 -6.27 l
15.70 10.70 l
-22.88 5.85 l
cp p3
/bg { 0.1608 0.2000 0.2157 srgb } def
np
 310.75 317.52 m
25.34 34.08 l
13.98 9.74 l
-25.14 5.31 l
cp p3
/bg { 0.3412 0.4275 0.4549 srgb } def
np
 271.23 312.90 m
23.33 34.36 l
16.19 -29.74 l
-23.82 6.08 l
cp p3
/bg { 0.4000 0.5020 0.5333 srgb } def
np
 336.09 351.60 m
26.93 -5.97 l
13.28 10.18 l
-26.23 5.53 l
cp p3
/bg { 0.6000 0.7490 0.7961 srgb } def
np
 226.92 348.86 m
27.42 -47.48 l
16.89 11.52 l
-23.38 6.27 l
cp p3
/bg { 0.3412 0.4275 0.4549 srgb } def
np
 294.56 347.26 m
26.43 -6.17 l
15.10 10.51 l
-25.34 -34.08 l
cp p3
/bg { 0.4000 0.5020 0.5333 srgb } def
np
 363.02 345.63 m
28.17 -6.24 l
12.49 10.64 l
-27.38 5.78 l
cp p3
/bg { 0.1608 0.2000 0.2157 srgb } def
np
 254.34 301.38 m
24.94 -7.06 l
15.28 52.94 l
-23.33 -34.36 l
cp p3
/bg { 0.4000 0.5020 0.5333 srgb } def
np
 320.99 341.09 m
27.67 -6.46 l
14.36 11.00 l
-26.93 5.97 l
cp p3
/bg { 0.6039 0.7529 0.8039 srgb } def
np
 391.19 339.39 m
25.65 -48.98 l
11.32 12.32 l
-24.48 47.30 l
cp p3
np
 207.30 338.13 m
28.82 -49.18 l
18.22 12.43 l
-27.42 47.48 l
cp p3
/bg { 0.1608 0.2000 0.2157 srgb } def
np
 279.28 294.32 m
25.38 35.39 l
16.33 11.38 l
-26.43 6.17 l
cp p3
/bg { 0.4706 0.5882 0.6275 srgb } def
np
 348.66 334.63 m
24.77 -89.38 l
17.76 94.14 l
-28.17 6.24 l
cp p3
/bg { 0.4000 0.5020 0.5333 srgb } def
np
 416.84 290.41 m
29.59 -7.56 l
10.44 12.88 l
-28.71 7.00 l
cp p3
/bg { 0.3412 0.4275 0.4549 srgb } def
np
 236.12 288.95 m
22.97 35.66 l
20.19 -30.29 l
-24.94 7.06 l
cp p3
/bg { 0.4000 0.5020 0.5333 srgb } def
np
 304.66 329.71 m
28.43 -7.01 l
15.57 11.93 l
-27.67 6.46 l
cp p3
/bg { 0.1608 0.2000 0.2157 srgb } def
np
 373.43 245.25 m
34.64 75.52 l
8.77 -30.36 l
-25.65 48.98 l
cp p3
/bg { 0.6039 0.7529 0.8039 srgb } def
np
 186.04 326.50 m
30.37 -50.99 l
19.71 13.44 l
-28.82 49.18 l
cp p3
/bg { 0.4000 0.5020 0.5333 srgb } def
np
 446.43 282.85 m
30.99 -7.92 l
9.45 13.49 l
-30.00 7.31 l
cp p3
np
 259.09 324.61 m
29.29 -51.28 l
16.28 56.38 l
-25.38 -35.39 l
cp p3
/bg { 0.6510 0.8157 0.8667 srgb } def
np
 333.09 322.70 m
28.19 -51.57 l
12.15 -25.88 l
-24.77 89.38 l
cp p3
/bg { 0.6000 0.7490 0.7961 srgb } def
np
 408.07 320.77 m
27.05 -51.88 l
11.31 13.96 l
-29.59 7.56 l
cp p3
/bg { 0.1529 0.1922 0.2039 srgb } def
np
 216.41 275.51 m
22.61 36.29 l
20.07 12.81 l
-22.97 -35.66 l
cp p3
/bg { 0.4000 0.5020 0.5333 srgb } def
np
 477.42 274.93 m
32.49 -8.30 l
8.37 14.13 l
-31.41 7.66 l
cp p3
/bg { 0.1608 0.2000 0.2157 srgb } def
np
 288.38 273.33 m
27.77 36.39 l
16.94 12.98 l
-28.43 7.01 l
cp p3
/bg { 0.1961 0.2471 0.2627 srgb } def
np
 361.28 271.13 m
33.07 36.48 l
13.72 13.16 l
-34.64 -75.52 l
cp p3
/bg { 0.6000 0.7490 0.7961 srgb } def
np
 162.93 313.86 m
26.39 -7.81 l
27.09 -30.54 l
-30.37 50.99 l
cp p3
/bg { 0.4000 0.5020 0.5333 srgb } def
np
 435.12 268.89 m
32.03 -8.60 l
10.27 14.64 l
-30.99 7.92 l
cp p3
/bg { 0.6039 0.7529 0.8039 srgb } def
np
 239.02 311.80 m
30.92 -53.25 l
18.44 14.78 l
-29.29 51.28 l
cp p3
/bg { 0.5765 0.7176 0.7647 srgb } def
np
 316.15 309.72 m
28.75 -95.33 l
16.38 56.74 l
-28.19 51.57 l
cp p3
/bg { 0.6039 0.7529 0.8039 srgb } def
np
 394.35 307.61 m
28.47 -53.89 l
12.30 15.17 l
-27.05 51.88 l
cp p3
/bg { 0.3412 0.4275 0.4549 srgb } def
np
 189.32 306.05 m
27.80 -8.23 l
21.90 13.98 l
-22.61 -36.29 l
cp p3
np
 467.15 260.29 m
41.85 36.92 l
0.91 -30.58 l
-32.49 8.30 l
cp p3
/bg { 0.1529 0.1922 0.2039 srgb } def
np
 269.94 258.55 m
27.71 36.99 l
18.50 14.18 l
-27.77 -36.39 l
cp p3
/bg { 0.0824 0.1059 0.1098 srgb } def
np
 344.90 214.39 m
31.92 32.51 l
17.53 60.71 l
-33.07 -36.48 l
cp p3
/bg { 0.4000 0.5020 0.5333 srgb } def
np
 137.72 300.07 m
26.95 -8.55 l
24.65 14.53 l
-26.39 7.81 l
cp p3
np
 422.82 253.72 m
33.15 -9.38 l
11.18 15.95 l
-32.03 8.60 l
cp p3
/bg { 0.5765 0.7176 0.7647 srgb } def
np
 217.12 297.82 m
35.85 -98.07 l
16.97 58.80 l
-30.92 53.25 l
cp p3
/bg { 0.6510 0.8157 0.8667 srgb } def
np
 297.65 295.54 m
31.41 -55.72 l
15.84 -25.43 l
-28.75 95.33 l
cp p3
/bg { 0.4706 0.5882 0.6275 srgb } def
np
 376.82 246.90 m
28.80 -52.77 l
17.20 59.59 l
-28.47 53.89 l
cp p3
/bg { 0.4588 0.5725 0.6078 srgb } def
np
 164.67 291.52 m
34.37 -56.33 l
18.08 62.63 l
-27.80 8.23 l
cp p3
/bg { 0.2667 0.3333 0.3569 srgb } def
np
 455.97 244.34 m
27.53 -53.08 l
25.50 105.95 l
-41.85 -36.92 l
cp p3
/bg { 0.0824 0.1059 0.1098 srgb } def
np
 252.97 199.75 m
26.47 32.72 l
18.21 63.07 l
-27.71 -36.99 l
cp p3
/bg { 0.3412 0.4275 0.4549 srgb } def
np
 329.06 239.82 m
31.94 -10.12 l
15.82 17.20 l
-31.92 -32.51 l
cp p3
/bg { 0.4000 0.5020 0.5333 srgb } def
np
 110.10 284.96 m
27.49 -9.39 l
27.08 15.95 l
-26.95 8.55 l
cp p3
/bg { 0.2667 0.3333 0.3569 srgb } def
np
 405.62 194.13 m
32.71 -10.92 l
17.64 61.13 l
-33.15 9.38 l
cp p3
/bg { 0.6039 0.7529 0.8039 srgb } def
np
 199.04 235.19 m
28.81 -10.37 l
25.12 -25.07 l
-35.85 98.07 l
cp p3
/bg { 0.4588 0.5725 0.6078 srgb } def
np
 279.44 232.47 m
31.23 -10.53 l
18.39 17.88 l
-31.41 55.72 l
cp p3
/bg { 0.5216 0.6510 0.6941 srgb } def
np
 361.00 229.70 m
37.32 37.92 l
7.30 -73.49 l
-28.80 52.77 l
cp p3
/bg { 0.6000 0.7490 0.7961 srgb } def
np
 137.59 275.57 m
29.09 -9.94 l
32.36 -30.44 l
-34.37 56.33 l
cp p3
/bg { 0.4000 0.5020 0.5333 srgb } def
np
 438.33 183.21 m
41.66 32.85 l
3.51 -24.80 l
-27.53 53.08 l
cp p3
/bg { 0.3412 0.4275 0.4549 srgb } def
np
 227.85 224.82 m
30.42 -10.95 l
21.17 18.60 l
-26.47 -32.72 l
cp p3
/bg { 0.4000 0.5020 0.5333 srgb } def
np
 310.67 221.94 m
32.97 -11.11 l
17.36 18.87 l
-31.94 10.12 l
cp p3
np
 79.73 268.35 m
28.00 -10.37 l
29.86 17.59 l
-27.49 9.39 l
cp p3
/bg { 0.4902 0.6157 0.6549 srgb } def
np
 398.32 267.62 m
43.73 44.44 l
-3.72 -128.85 l
-32.71 10.92 l
cp p3
/bg { 0.5216 0.6510 0.6941 srgb } def
np
 166.68 265.63 m
30.84 -10.54 l
30.33 -30.27 l
-28.81 10.37 l
cp p3
/bg { 0.4000 0.5020 0.5333 srgb } def
np
 258.27 213.87 m
32.17 -11.58 l
20.23 19.65 l
-31.23 10.53 l
cp p3
/bg { 0.2667 0.3333 0.3569 srgb } def
np
 343.64 210.83 m
32.22 -57.09 l
22.46 113.88 l
-37.32 -37.92 l
cp p3
/bg { 0.3412 0.4275 0.4549 srgb } def
np
 107.73 257.98 m
19.34 44.91 l
39.61 -37.26 l
-29.09 9.94 l
cp p3
/bg { 0.5961 0.7451 0.7922 srgb } def
np
 442.05 312.06 m
25.95 -116.26 l
11.99 20.26 l
-41.66 -32.85 l
cp p3
/bg { 0.5216 0.6510 0.6941 srgb } def
np
 197.52 255.09 m
32.74 -11.19 l
28.01 -30.03 l
-30.42 10.95 l
cp p3
/bg { 0.4000 0.5020 0.5333 srgb } def
np
 290.44 202.29 m
34.07 -12.27 l
19.13 20.81 l
-32.97 11.11 l
cp p3
/bg { 0.1176 0.1490 0.1569 srgb } def
np
 375.86 153.74 m
39.64 32.87 l
26.55 125.45 l
-43.73 -44.44 l
cp p3
/bg { 0.5216 0.6510 0.6941 srgb } def
np
 127.07 302.89 m
33.09 -10.51 l
37.36 -37.29 l
-30.84 10.54 l
cp p3
/bg { 0.6000 0.7490 0.7961 srgb } def
np
 230.26 243.90 m
37.83 -63.33 l
22.35 21.72 l
-32.17 11.58 l
cp p3
np
 324.51 190.02 m
36.14 -13.01 l
15.21 -23.27 l
-32.22 57.09 l
cp p3
/bg { 0.4745 0.5922 0.6314 srgb } def
np
 415.50 186.61 m
32.56 -59.90 l
19.94 69.09 l
-25.95 116.26 l
cp p3
/bg { 0.6000 0.7490 0.7961 srgb } def
np
 160.16 292.38 m
42.55 -69.59 l
27.55 21.11 l
-32.74 11.19 l
cp p3
/bg { 0.3412 0.4275 0.4549 srgb } def
np
 268.09 180.57 m
34.12 38.74 l
22.30 -29.29 l
-34.07 12.27 l
cp p3
np
 360.65 177.01 m
38.42 -13.83 l
16.43 23.43 l
-39.64 -32.87 l
cp p3
/bg { 0.5216 0.6510 0.6941 srgb } def
np
 202.71 222.79 m
30.73 46.30 l
34.65 -88.52 l
-37.83 63.33 l
cp p3
/bg { 0.6000 0.7490 0.7961 srgb } def
np
 302.21 219.31 m
38.57 -66.82 l
19.87 24.52 l
-36.14 13.01 l
cp p3
np
 399.07 163.18 m
40.91 -14.73 l
8.08 -21.74 l
-32.56 59.90 l
cp p3
/bg { 0.4549 0.5686 0.6078 srgb } def
np
 233.44 269.09 m
40.73 -12.94 l
28.04 -36.84 l
-34.12 -38.74 l
cp p3
/bg { 0.4000 0.5020 0.5333 srgb } def
np
 340.78 152.49 m
39.97 -15.44 l
18.32 26.13 l
-38.42 13.83 l
cp p3
/bg { 0.6510 0.8157 0.8667 srgb } def
np
 274.17 256.15 m
44.40 -131.08 l
22.21 27.42 l
-38.57 66.82 l
cp p3
/bg { 0.3412 0.4275 0.4549 srgb } def
np
 380.75 137.05 m
49.11 38.64 l
10.12 -27.24 l
-40.91 14.73 l
cp p3
/bg { 0.4000 0.5020 0.5333 srgb } def
np
 318.57 125.07 m
41.63 -17.35 l
20.55 29.33 l
-39.97 15.44 l
cp p3
/bg { 0.1608 0.2000 0.2157 srgb } def
np
 360.20 107.72 m
44.67 -18.62 l
24.99 86.59 l
-49.11 -38.64 l
cp p3
0.75 setlinewidth
[ 0.00 3.00] 0 setdash
np
66.94 322.00 m
349.86 -111.17 l
o
np
416.80 210.83 m
-16.84 -171.72 l
o
np
416.80 210.83 m
118.66 160.42 l
o
ep
%%Trailer
%%Pages: 1
%%EOF
