%!PS-Adobe-3.0 EPSF-3.0
%%DocumentNeededResources: font Helvetica
%%+ font Helvetica-Bold
%%+ font Helvetica-Oblique
%%+ font Helvetica-BoldOblique
%%+ font Symbol
%%Title: R Graphics Output
%%Creator: R Software
%%Pages: (atend)
%%BoundingBox: 0 0 576 432
%%EndComments
%%BeginProlog
/bp  { gs sRGB gs } def
% begin .ps.prolog
/gs  { gsave } bind def
/gr  { grestore } bind def
/ep  { showpage gr gr } bind def
/m   { moveto } bind def
/l  { rlineto } bind def
/np  { newpath } bind def
/cp  { closepath } bind def
/f   { fill } bind def
/o   { stroke } bind def
/c   { newpath 0 360 arc } bind def
/r   { 4 2 roll moveto 1 copy 3 -1 roll exch 0 exch rlineto 0 rlineto -1 mul 0 exch rlineto closepath } bind def
/p1  { stroke } bind def
/p2  { gsave bg fill grestore newpath } bind def
/p3  { gsave bg fill grestore stroke } bind def
/p6  { gsave bg eofill grestore newpath } bind def
/p7  { gsave bg eofill grestore stroke } bind def
/t   { 5 -2 roll moveto gsave rotate
       1 index stringwidth pop
       mul neg 0 rmoveto show grestore } bind def
/ta  { 4 -2 roll moveto gsave rotate show } bind def
/tb  { 2 -1 roll 0 rmoveto show } bind def
/cl  { grestore gsave newpath 3 index 3 index moveto 1 index
       4 -1 roll lineto  exch 1 index lineto lineto
       closepath clip newpath } bind def
/rgb { setrgbcolor } bind def
/s   { scalefont setfont } bind def
% end   .ps.prolog
/sRGB { [ /CIEBasedABC
          << /DecodeLMN
               [ { dup 0.03928 le
                        {12.92321 div}
                        {0.055 add 1.055 div 2.4 exp }
                     ifelse
                 } bind dup dup
               ]
             /MatrixLMN [0.412457 0.212673 0.019334
                         0.357576 0.715152 0.119192
                         0.180437 0.072175 0.950301]
             /WhitePoint [0.9505 1.0 1.0890]
           >>
         ] setcolorspace } bind def
/srgb { setcolor } bind def
%%IncludeResource: font Helvetica
/Helvetica findfont
dup length dict begin
  {1 index /FID ne {def} {pop pop} ifelse} forall
  /Encoding ISOLatin1Encoding def
  currentdict
  end
/Font1 exch definefont pop
%%IncludeResource: font Helvetica-Bold
/Helvetica-Bold findfont
dup length dict begin
  {1 index /FID ne {def} {pop pop} ifelse} forall
  /Encoding ISOLatin1Encoding def
  currentdict
  end
/Font2 exch definefont pop
%%IncludeResource: font Helvetica-Oblique
/Helvetica-Oblique findfont
dup length dict begin
  {1 index /FID ne {def} {pop pop} ifelse} forall
  /Encoding ISOLatin1Encoding def
  currentdict
  end
/Font3 exch definefont pop
%%IncludeResource: font Helvetica-BoldOblique
/Helvetica-BoldOblique findfont
dup length dict begin
  {1 index /FID ne {def} {pop pop} ifelse} forall
  /Encoding ISOLatin1Encoding def
  currentdict
  end
/Font4 exch definefont pop
%%IncludeResource: font Symbol
/Symbol findfont
dup length dict begin
  {1 index /FID ne {def} {pop pop} ifelse} forall
  currentdict
  end
/Font5 exch definefont pop
%%EndProlog
%%Page: 1 1
bp
26.40 24.00 576.00 432.00 cl
0 0 0 srgb
0.75 setlinewidth
[] 0 setdash
1 setlinecap
1 setlinejoin
10.00 setmiterlimit
np
280.56 303.88 m
230.13 -63.09 l
o
np
510.69 240.79 m
24.77 130.46 l
o
np
535.46 371.25 m
-259.40 45.64 l
o
np
276.06 416.89 m
4.50 -113.01 l
o
np
101.81 175.69 m
178.75 128.19 l
o
np
276.06 416.89 m
-209.12 -94.89 l
o
np
66.94 322.00 m
34.87 -146.31 l
o
np
101.81 175.69 m
298.15 -136.58 l
o
np
399.96 39.11 m
110.73 201.68 l
o
0.00 0.00 576.00 432.00 cl
/Font1 findfont 20 s
0 0 0 srgb
221.61 61.84 (Ki) .5 -25.22 t
0.75 setlinewidth
[] 0 setdash
1 setlinecap
1 setlinejoin
10.00 setmiterlimit
np
127.79 163.79 m
-6.67 -9.64 l
o
114.34 137.16 (2) .5 0 t
np
184.20 137.95 m
-6.55 -10.43 l
o
170.99 109.73 (4) .5 0 t
np
247.43 108.98 m
-6.35 -11.33 l
o
234.61 78.91 (6) .5 0 t
np
318.79 76.30 m
-6.04 -12.41 l
o
306.59 44.05 (8) .5 0 t
np
399.96 39.11 m
-5.57 -13.67 l
o
388.69 4.29 (10) .5 0 t
505.06 132.81 (K) 62.49 ta
-0.800 (o) tb gr
np
417.80 71.59 m
10.77 -8.97 l
o
439.41 46.41 (2) .5 0 t
np
448.06 126.71 m
9.78 -7.87 l
o
467.68 103.73 (4) .5 0 t
np
472.77 171.72 m
8.95 -7.02 l
o
490.73 150.46 (6) .5 0 t
np
493.32 209.15 m
8.26 -6.32 l
o
509.88 189.30 (8) .5 0 t
np
510.69 240.79 m
7.66 -5.75 l
o
526.04 222.08 (10) .5 0 t
4.72 307.39 (A) -75.72 ta
-0.800 (v) tb
-0.500 (er) tb
-0.200 (age distance) tb gr
np
100.64 180.62 m
-14.55 -2.29 l
o
71.39 168.83 (3.1) .5 0 t
np
95.03 204.14 m
-14.94 -2.22 l
o
64.98 192.49 (3.2) .5 0 t
np
89.14 228.88 m
-15.37 -2.14 l
o
58.23 217.40 (3.3) .5 0 t
np
82.92 254.94 m
-15.81 -2.05 l
o
51.11 243.64 (3.4) .5 0 t
np
76.37 282.43 m
-16.28 -1.95 l
o
43.61 271.33 (3.5) .5 0 t
np
69.46 311.46 m
-16.79 -1.83 l
o
35.67 300.60 (3.6) .5 0 t
26.40 24.00 576.00 432.00 cl
/bg { 0.6235 0.7765 0.8275 srgb } def
0 0 0 srgb
0.75 setlinewidth
[] 0 setdash
1 setlinecap
1 setlinejoin
10.00 setmiterlimit
np
 262.66 354.99 m
24.92 -51.08 l
14.40 8.04 l
-23.60 46.68 l
cp p3
/bg { 0.3412 0.4235 0.4549 srgb } def
np
 287.58 303.91 m
23.34 -1.45 l
13.90 11.20 l
-22.84 -1.71 l
cp p3
/bg { 0.6157 0.7686 0.8157 srgb } def
np
 246.00 345.79 m
26.24 -53.90 l
15.34 12.02 l
-24.92 51.08 l
cp p3
/bg { 0.5098 0.6392 0.6824 srgb } def
np
 310.92 302.46 m
24.39 -13.82 l
13.10 5.81 l
-23.59 19.21 l
cp p3
/bg { 0.3373 0.4196 0.4471 srgb } def
np
 272.24 291.89 m
23.69 1.75 l
14.99 8.82 l
-23.34 1.45 l
cp p3
/bg { 0.3451 0.4314 0.4588 srgb } def
np
 335.31 288.64 m
25.43 -4.51 l
12.75 14.03 l
-25.08 -3.71 l
cp p3
/bg { 0.6157 0.7686 0.8157 srgb } def
np
 228.24 333.66 m
27.34 -51.39 l
16.66 9.62 l
-26.24 53.90 l
cp p3
/bg { 0.4941 0.6157 0.6549 srgb } def
np
 295.93 293.64 m
25.16 -18.98 l
14.22 13.98 l
-24.39 13.82 l
cp p3
/bg { 0.3529 0.4431 0.4706 srgb } def
np
 360.74 284.13 m
26.85 -1.89 l
11.98 12.02 l
-26.08 3.90 l
cp p3
/bg { 0.3294 0.4118 0.4392 srgb } def
np
 255.58 282.27 m
24.12 1.77 l
16.23 9.60 l
-23.69 -1.75 l
cp p3
/bg { 0.3490 0.4353 0.4667 srgb } def
np
 321.09 274.66 m
26.19 2.80 l
13.46 6.67 l
-25.43 4.51 l
cp p3
/bg { 0.5529 0.6902 0.7373 srgb } def
np
 387.59 282.24 m
26.39 -23.40 l
10.65 8.64 l
-25.06 26.78 l
cp p3
/bg { 0.6353 0.7922 0.8431 srgb } def
np
 207.72 334.11 m
28.70 -48.82 l
19.16 -3.02 l
-27.34 51.39 l
cp p3
/bg { 0.5176 0.6471 0.6902 srgb } def
np
 279.70 284.04 m
26.00 -17.47 l
15.39 8.09 l
-25.16 18.98 l
cp p3
/bg { 0.4000 0.4980 0.5333 srgb } def
np
 347.28 277.46 m
27.27 -10.42 l
13.04 15.20 l
-26.85 1.89 l
cp p3
/bg { 0.4118 0.5137 0.5490 srgb } def
np
 413.98 258.84 m
28.80 -6.37 l
9.69 9.06 l
-27.84 5.95 l
cp p3
/bg { 0.4196 0.5216 0.5569 srgb } def
np
 236.42 285.29 m
25.44 -7.69 l
17.84 6.44 l
-24.12 -1.77 l
cp p3
/bg { 0.3490 0.4353 0.4627 srgb } def
np
 305.70 266.57 m
26.76 -7.96 l
14.82 18.85 l
-26.19 -2.80 l
cp p3
/bg { 0.5176 0.6471 0.6902 srgb } def
np
 374.55 267.04 m
27.67 -19.61 l
11.76 11.41 l
-26.39 23.40 l
cp p3
/bg { 0.6353 0.7922 0.8431 srgb } def
np
 184.17 341.24 m
32.03 -63.67 l
20.22 7.72 l
-28.70 48.82 l
cp p3
/bg { 0.4392 0.5490 0.5843 srgb } def
np
 442.78 252.47 m
29.71 -10.17 l
8.76 10.57 l
-28.78 8.66 l
cp p3
/bg { 0.5216 0.6510 0.6941 srgb } def
np
 261.86 277.60 m
27.03 -19.64 l
16.81 8.61 l
-26.00 17.47 l
cp p3
/bg { 0.3725 0.4667 0.4941 srgb } def
np
 332.46 258.61 m
28.41 1.75 l
13.68 6.68 l
-27.27 10.42 l
cp p3
/bg { 0.4078 0.5098 0.5451 srgb } def
np
 402.22 247.43 m
29.35 -10.69 l
11.21 15.73 l
-28.80 6.37 l
cp p3
/bg { 0.4235 0.5294 0.5647 srgb } def
np
 216.20 277.57 m
25.81 -3.74 l
19.85 3.77 l
-25.44 7.69 l
cp p3
/bg { 0.4627 0.5765 0.6157 srgb } def
np
 472.49 242.30 m
30.52 -13.15 l
7.68 11.64 l
-29.44 12.08 l
cp p3
/bg { 0.4235 0.5294 0.5608 srgb } def
np
 288.89 257.96 m
27.60 -4.35 l
15.97 5.00 l
-26.76 7.96 l
cp p3
/bg { 0.5294 0.6627 0.7059 srgb } def
np
 360.87 260.36 m
29.03 -18.21 l
12.32 5.28 l
-27.67 19.61 l
cp p3
/bg { 0.6353 0.7922 0.8431 srgb } def
np
 158.92 340.57 m
34.75 -69.00 l
22.53 6.00 l
-32.03 63.67 l
cp p3
/bg { 0.4118 0.5137 0.5451 srgb } def
np
 431.57 236.74 m
30.85 -9.56 l
10.07 15.12 l
-29.71 10.17 l
cp p3
/bg { 0.5451 0.6824 0.7255 srgb } def
np
 242.01 273.83 m
28.50 -26.31 l
18.38 10.44 l
-27.03 19.64 l
cp p3
/bg { 0.3882 0.4863 0.5176 srgb } def
np
 316.49 253.61 m
29.00 -13.59 l
15.38 20.34 l
-28.41 -1.75 l
cp p3
/bg { 0.4941 0.6196 0.6588 srgb } def
np
 389.90 242.15 m
29.21 -25.54 l
12.46 20.13 l
-29.35 10.69 l
cp p3
/bg { 0.4275 0.5333 0.5647 srgb } def
np
 193.67 271.57 m
27.66 -15.60 l
20.68 17.86 l
-25.81 3.74 l
cp p3
/bg { 0.4431 0.5529 0.5922 srgb } def
np
 462.42 227.18 m
31.78 -13.08 l
8.81 15.05 l
-30.52 13.15 l
cp p3
/bg { 0.3765 0.4706 0.4980 srgb } def
np
 270.51 247.52 m
28.23 2.20 l
17.75 3.89 l
-27.60 4.35 l
cp p3
/bg { 0.4627 0.5804 0.6157 srgb } def
np
 345.49 240.02 m
29.71 -22.97 l
14.70 25.10 l
-29.03 18.21 l
cp p3
/bg { 0.6078 0.7569 0.8078 srgb } def
np
 134.01 321.14 m
36.70 -69.51 l
22.96 19.94 l
-34.75 69.00 l
cp p3
/bg { 0.3804 0.4745 0.5059 srgb } def
np
 419.11 216.61 m
31.94 -8.94 l
11.37 19.51 l
-30.85 9.56 l
cp p3
/bg { 0.5216 0.6510 0.6941 srgb } def
np
 221.33 255.97 m
29.63 -28.87 l
19.55 20.42 l
-28.50 26.31 l
cp p3
/bg { 0.4980 0.6196 0.6627 srgb } def
np
 298.74 249.72 m
30.28 -16.08 l
16.47 6.38 l
-29.00 13.59 l
cp p3
/bg { 0.4824 0.6000 0.6392 srgb } def
np
 375.20 217.05 m
30.89 -17.53 l
13.02 17.09 l
-29.21 25.54 l
cp p3
/bg { 0.4118 0.5176 0.5490 srgb } def
np
 170.71 251.63 m
26.54 -2.16 l
24.08 6.50 l
-27.66 15.60 l
cp p3
/bg { 0.4235 0.5255 0.5608 srgb } def
np
 451.05 207.67 m
32.74 -14.69 l
10.41 21.12 l
-31.78 13.08 l
cp p3
/bg { 0.2824 0.3569 0.3765 srgb } def
np
 250.96 227.10 m
28.77 -1.17 l
19.01 23.79 l
-28.23 -2.20 l
cp p3
/bg { 0.5529 0.6902 0.7373 srgb } def
np
 329.02 233.64 m
30.98 -29.49 l
15.20 12.90 l
-29.71 22.97 l
cp p3
/bg { 0.5922 0.7412 0.7922 srgb } def
np
 109.51 287.84 m
33.78 -43.88 l
27.42 7.67 l
-36.70 69.51 l
cp p3
/bg { 0.3882 0.4863 0.5176 srgb } def
np
 406.09 199.52 m
33.43 -6.68 l
11.53 14.83 l
-31.94 8.94 l
cp p3
/bg { 0.5686 0.7137 0.7569 srgb } def
np
 197.25 249.47 m
31.18 -30.63 l
22.53 8.26 l
-29.63 28.87 l
cp p3
/bg { 0.4078 0.5098 0.5412 srgb } def
np
 279.73 225.93 m
30.99 -8.33 l
18.30 16.04 l
-30.28 16.08 l
cp p3
/bg { 0.4863 0.6039 0.6431 srgb } def
np
 360.00 204.15 m
32.43 -15.66 l
13.66 11.03 l
-30.89 17.53 l
cp p3
/bg { 0.3922 0.4902 0.5216 srgb } def
np
 143.29 243.96 m
27.94 -7.96 l
26.02 13.47 l
-26.54 2.16 l
cp p3
/bg { 0.4588 0.5765 0.6118 srgb } def
np
 439.52 192.84 m
33.93 -16.97 l
10.34 17.11 l
-32.74 14.69 l
cp p3
/bg { 0.3804 0.4784 0.5098 srgb } def
np
 228.43 218.84 m
30.01 -7.47 l
21.29 14.56 l
-28.77 1.17 l
cp p3
/bg { 0.5451 0.6824 0.7255 srgb } def
np
 310.72 217.60 m
32.36 -32.58 l
16.92 19.13 l
-30.98 29.49 l
cp p3
/bg { 0.4941 0.6157 0.6588 srgb } def
np
 83.55 252.32 m
23.42 9.21 l
36.32 -17.57 l
-33.78 43.88 l
cp p3
/bg { 0.4039 0.5059 0.5373 srgb } def
np
 392.43 188.49 m
34.94 -6.97 l
12.15 11.32 l
-33.43 6.68 l
cp p3
/bg { 0.5569 0.6941 0.7373 srgb } def
np
 171.23 236.00 m
33.00 -34.89 l
24.20 17.73 l
-31.18 30.63 l
cp p3
/bg { 0.4000 0.4980 0.5294 srgb } def
np
 258.44 211.37 m
31.94 -7.29 l
20.34 13.52 l
-30.99 8.33 l
cp p3
/bg { 0.4431 0.5529 0.5922 srgb } def
np
 343.08 185.02 m
33.64 -16.76 l
15.71 20.23 l
-32.43 15.66 l
cp p3
/bg { 0.4314 0.5412 0.5765 srgb } def
np
 106.97 261.53 m
20.10 41.36 l
44.16 -66.89 l
-27.94 7.96 l
cp p3
/bg { 0.4863 0.6078 0.6471 srgb } def
np
 427.37 181.52 m
35.85 -16.86 l
10.23 11.21 l
-33.93 16.97 l
cp p3
/bg { 0.3725 0.4667 0.4980 srgb } def
np
 204.23 201.11 m
30.44 -4.73 l
23.77 14.99 l
-30.01 7.47 l
cp p3
/bg { 0.5686 0.7098 0.7529 srgb } def
np
 290.38 204.08 m
34.07 -42.06 l
18.63 23.00 l
-32.36 32.58 l
cp p3
/bg { 0.3804 0.4745 0.5059 srgb } def
np
 376.72 168.26 m
35.23 -17.39 l
15.42 30.65 l
-34.94 6.97 l
cp p3
/bg { 0.5961 0.7451 0.7922 srgb } def
np
 127.07 302.89 m
38.04 -42.32 l
39.12 -59.46 l
-33.00 34.89 l
cp p3
/bg { 0.3922 0.4902 0.5216 srgb } def
np
 234.67 196.38 m
32.98 -8.25 l
22.73 15.95 l
-31.94 7.29 l
cp p3
/bg { 0.4275 0.5373 0.5725 srgb } def
np
 324.45 162.02 m
34.95 -15.42 l
17.32 21.66 l
-33.64 16.76 l
cp p3
/bg { 0.3804 0.4784 0.5098 srgb } def
np
 411.95 150.87 m
38.10 -10.25 l
13.17 24.04 l
-35.85 16.86 l
cp p3
/bg { 0.4941 0.6157 0.6549 srgb } def
np
 165.11 260.57 m
30.87 16.89 l
38.69 -81.08 l
-30.44 4.73 l
cp p3
/bg { 0.5882 0.7333 0.7804 srgb } def
np
 267.65 188.13 m
36.14 -44.44 l
20.66 18.33 l
-34.07 42.06 l
cp p3
/bg { 0.4353 0.5412 0.5765 srgb } def
np
 359.40 146.60 m
37.26 -12.26 l
15.29 16.53 l
-35.23 17.39 l
cp p3
/bg { 0.5451 0.6824 0.7255 srgb } def
np
 195.98 277.46 m
39.22 -28.52 l
32.45 -60.81 l
-32.98 8.25 l
cp p3
/bg { 0.4431 0.5569 0.5922 srgb } def
np
 303.79 143.69 m
36.46 -17.37 l
19.15 20.28 l
-34.95 15.42 l
cp p3
/bg { 0.4275 0.5373 0.5686 srgb } def
np
 396.66 134.34 m
38.53 -22.55 l
14.86 28.83 l
-38.10 10.25 l
cp p3
/bg { 0.6039 0.7569 0.8078 srgb } def
np
 235.20 248.94 m
41.65 -48.61 l
26.94 -56.64 l
-36.14 44.44 l
cp p3
/bg { 0.4275 0.5333 0.5686 srgb } def
np
 340.25 126.32 m
38.18 -24.70 l
18.23 32.72 l
-37.26 12.26 l
cp p3
/bg { 0.5529 0.6902 0.7333 srgb } def
np
 276.85 200.33 m
41.50 -27.57 l
21.90 -46.44 l
-36.46 17.37 l
cp p3
/bg { 0.4118 0.5137 0.5490 srgb } def
np
 378.43 101.62 m
41.63 -10.50 l
15.13 20.67 l
-38.53 22.55 l
cp p3
/bg { 0.5686 0.7098 0.7529 srgb } def
np
 318.35 172.76 m
43.22 -33.84 l
16.86 -37.30 l
-38.18 24.70 l
cp p3
/bg { 0.5216 0.6549 0.6941 srgb } def
np
 361.57 138.92 m
45.94 -22.88 l
12.55 -24.92 l
-41.63 10.50 l
cp p3
0.75 setlinewidth
[ 0.00 3.00] 0 setdash
np
66.94 322.00 m
349.86 -111.17 l
o
np
416.80 210.83 m
-16.84 -171.72 l
o
np
416.80 210.83 m
118.66 160.42 l
o
ep
%%Trailer
%%Pages: 1
%%EOF
