"AD","D","EI","EA","BC","CCin","CCout","DCin","DCout"
"C",0.31151,0.9,0.02793,376.1,0.00089,0.00103,0.00228,0.00016,0.00016
"Ik",0.00753,0,0.00158,20.6,0.00013,1e-04,0.00024,5e-05,3e-05
"I",NA,NA,NA,NA,NA,NA,NA,NA,NA
