"AD","D","EI","EA","BC","CCin","CCout","DCin","DCout"
"C",0.25159,1.3,0.02522,541.3,4e-04,1e-05,0.00071,1e-04,8e-05
"Ik",0.00732,0,0.00813,163,9e-05,0,0.00016,5e-05,6e-05
"I",NA,NA,NA,NA,NA,NA,NA,NA,NA
