"AD","D","EI","EA","BC","CCin","CCout","DCin","DCout"
"C",0.200880191611535,1.3,NA,30356.8,NA,4.26137009771308e-06,2.79955468448003e-06,0.000173474790840676,7.66695468845344e-05
"Ik",0.0165684671495093,0,NA,9897.7,NA,9.08366353258596e-07,4.16473225985227e-07,0.000163539803049359,6.24095423705981e-05
"I",NA,NA,NA,NA,NA,NA,NA,NA,NA
